%!PS-Adobe-3.0 EPSF-3.0
%%Creator: cairo 1.14.6 (http://cairographics.org)
%%CreationDate: Sat Nov  2 08:45:54 2019
%%Pages: 1
%%DocumentData: Clean7Bit
%%LanguageLevel: 2
%%BoundingBox: 183 337 458 470
%%EndComments
%%BeginProlog
save
50 dict begin
/q { gsave } bind def
/Q { grestore } bind def
/cm { 6 array astore concat } bind def
/w { setlinewidth } bind def
/J { setlinecap } bind def
/j { setlinejoin } bind def
/M { setmiterlimit } bind def
/d { setdash } bind def
/m { moveto } bind def
/l { lineto } bind def
/c { curveto } bind def
/h { closepath } bind def
/re { exch dup neg 3 1 roll 5 3 roll moveto 0 rlineto
      0 exch rlineto 0 rlineto closepath } bind def
/S { stroke } bind def
/f { fill } bind def
/f* { eofill } bind def
/n { newpath } bind def
/W { clip } bind def
/W* { eoclip } bind def
/BT { } bind def
/ET { } bind def
/pdfmark where { pop globaldict /?pdfmark /exec load put }
    { globaldict begin /?pdfmark /pop load def /pdfmark
    /cleartomark load def end } ifelse
/BDC { mark 3 1 roll /BDC pdfmark } bind def
/EMC { mark /EMC pdfmark } bind def
/cairo_store_point { /cairo_point_y exch def /cairo_point_x exch def } def
/Tj { show currentpoint cairo_store_point } bind def
/TJ {
  {
    dup
    type /stringtype eq
    { show } { -0.001 mul 0 cairo_font_matrix dtransform rmoveto } ifelse
  } forall
  currentpoint cairo_store_point
} bind def
/cairo_selectfont { cairo_font_matrix aload pop pop pop 0 0 6 array astore
    cairo_font exch selectfont cairo_point_x cairo_point_y moveto } bind def
/Tf { pop /cairo_font exch def /cairo_font_matrix where
      { pop cairo_selectfont } if } bind def
/Td { matrix translate cairo_font_matrix matrix concatmatrix dup
      /cairo_font_matrix exch def dup 4 get exch 5 get cairo_store_point
      /cairo_font where { pop cairo_selectfont } if } bind def
/Tm { 2 copy 8 2 roll 6 array astore /cairo_font_matrix exch def
      cairo_store_point /cairo_font where { pop cairo_selectfont } if } bind def
/g { setgray } bind def
/rg { setrgbcolor } bind def
/d1 { setcachedevice } bind def
%%EndProlog
%%BeginSetup
%%EndSetup
%%Page: 1 1
%%BeginPageSetup
%%PageBoundingBox: 183 337 458 470
%%EndPageSetup
q 183 337 275 133 rectclip q
0.701961 g
252.285 425.197 m 252.285 418.936 247.207 413.858 240.945 413.858 c 234.684
 413.858 229.605 418.936 229.605 425.197 c 229.605 431.459 234.684 436.537
 240.945 436.537 c 247.207 436.537 252.285 431.459 252.285 425.197 c h
252.285 425.197 m f
0 g
215.934 463.295 m 215.934 463.654 215.949 463.764 216.715 463.764 c 216.965
 463.764 l 216.965 464.076 l 216.605 464.045 215.871 464.045 215.496 464.045
 c 215.121 464.045 214.371 464.045 214.027 464.076 c 214.027 463.764 l 214.262
 463.764 l 215.027 463.764 215.043 463.654 215.043 463.295 c 215.043 460.967
 l 212.074 460.967 l 212.074 463.295 l 212.074 463.654 212.09 463.764 212.855
 463.764 c 213.09 463.764 l 213.09 464.076 l 212.746 464.045 212.012 464.045
 211.621 464.045 c 211.246 464.045 210.496 464.045 210.152 464.076 c 210.152
 463.764 l 210.387 463.764 l 211.152 463.764 211.184 463.654 211.184 463.295
 c 211.184 458.045 l 211.184 457.686 211.152 457.576 210.387 457.576 c 210.152
 457.576 l 210.152 457.264 l 210.496 457.295 211.246 457.295 211.621 457.295
 c 211.996 457.295 212.746 457.295 213.09 457.264 c 213.09 457.576 l 212.855
 457.576 l 212.09 457.576 212.074 457.686 212.074 458.045 c 212.074 460.654
 l 215.043 460.654 l 215.043 458.045 l 215.043 457.686 215.027 457.576 214.262
 457.576 c 214.027 457.576 l 214.027 457.264 l 214.371 457.295 215.105 457.295
 215.48 457.295 c 215.871 457.295 216.605 457.295 216.965 457.264 c 216.965
 457.576 l 216.715 457.576 l 215.949 457.576 215.934 457.686 215.934 458.045
 c h
215.934 463.295 m f
220.609 458.014 m 220.656 457.623 220.922 457.201 221.391 457.201 c 221.609
 457.201 222.219 457.342 222.219 458.154 c 222.219 458.717 l 221.969 458.717
 l 221.969 458.154 l 221.969 457.576 221.719 457.514 221.609 457.514 c 221.281
 457.514 221.234 457.967 221.234 458.014 c 221.234 459.998 l 221.234 460.42
 221.234 460.811 220.875 461.186 c 220.484 461.576 219.984 461.733 219.516
 461.733 c 218.688 461.733 218 461.264 218 460.608 c 218 460.311 218.203
 460.139 218.469 460.139 c 218.75 460.139 218.922 460.342 218.922 460.592
 c 218.922 460.717 218.875 461.045 218.406 461.045 c 218.688 461.404 219.172
 461.514 219.484 461.514 c 219.984 461.514 220.547 461.123 220.547 460.233
 c 220.547 459.873 l 220.031 459.842 219.344 459.811 218.719 459.514 c 217.969
 459.17 217.719 458.654 217.719 458.217 c 217.719 457.404 218.688 457.154
 219.312 457.154 c 219.969 457.154 220.422 457.561 220.609 458.014 c h
220.547 459.654 m 220.547 458.654 l 220.547 457.717 219.828 457.373 219.375
 457.373 c 218.891 457.373 218.484 457.717 218.484 458.217 c 218.484 458.764
 218.906 459.592 220.547 459.654 c h
220.547 459.654 m f
223.996 461.014 m 223.996 461.67 l 222.559 461.561 l 222.559 461.248 l 
223.262 461.248 223.34 461.186 223.34 460.748 c 223.34 456.092 l 223.34 
455.639 223.23 455.639 222.559 455.639 c 222.559 455.326 l 222.902 455.342
 223.418 455.358 223.668 455.358 c 223.949 455.358 224.449 455.342 224.793
 455.326 c 224.793 455.639 l 224.137 455.639 224.027 455.639 224.027 456.092
 c 224.027 457.858 l 224.074 457.686 224.496 457.154 225.246 457.154 c 226.434
 457.154 227.465 458.139 227.465 459.42 c 227.465 460.686 226.512 461.67
 225.387 461.67 c 224.605 461.67 224.184 461.233 223.996 461.014 c h
224.027 458.404 m 224.027 460.623 l 224.309 461.139 224.793 461.42 225.309
 461.42 c 226.043 461.42 226.637 460.545 226.637 459.42 c 226.637 458.217
 225.949 457.373 225.215 457.373 c 224.809 457.373 224.434 457.576 224.168
 457.983 c 224.027 458.186 224.027 458.201 224.027 458.404 c h
224.027 458.404 m f
229.531 461.248 m 230.969 461.248 l 230.969 461.561 l 229.531 461.561 l
 229.531 463.389 l 229.281 463.389 l 229.281 462.576 228.984 461.514 228
 461.467 c 228 461.248 l 228.844 461.248 l 228.844 458.498 l 228.844 457.279
 229.781 457.154 230.141 457.154 c 230.844 457.154 231.125 457.858 231.125
 458.498 c 231.125 459.061 l 230.875 459.061 l 230.875 458.514 l 230.875
 457.779 230.578 457.404 230.203 457.404 c 229.531 457.404 229.531 458.311
 229.531 458.483 c h
229.531 461.248 m f
233.453 461.67 m 232.062 461.561 l 232.062 461.248 l 232.703 461.248 232.797
 461.186 232.797 460.701 c 232.797 458.014 l 232.797 457.576 232.688 457.576
 232.016 457.576 c 232.016 457.264 l 232.328 457.279 232.875 457.295 233.109
 457.295 c 233.469 457.295 233.812 457.279 234.156 457.264 c 234.156 457.576
 l 233.484 457.576 233.453 457.623 233.453 458.014 c h
233.484 463.404 m 233.484 463.717 233.25 463.936 232.969 463.936 c 232.656
 463.936 232.438 463.67 232.438 463.404 c 232.438 463.139 232.656 462.873
 232.969 462.873 c 233.25 462.873 233.484 463.092 233.484 463.404 c h
233.484 463.404 m f
235.625 459.436 m 235.625 461.061 236.438 461.483 236.969 461.483 c 237.062
 461.483 237.688 461.467 238.031 461.108 c 237.625 461.076 237.562 460.779
 237.562 460.654 c 237.562 460.389 237.75 460.201 238.016 460.201 c 238.281
 460.201 238.484 460.358 238.484 460.67 c 238.484 461.342 237.719 461.733
 236.953 461.733 c 235.703 461.733 234.797 460.654 234.797 459.42 c 234.797
 458.139 235.781 457.154 236.938 457.154 c 238.266 457.154 238.594 458.358
 238.594 458.451 c 238.594 458.545 238.484 458.545 238.453 458.545 c 238.375
 458.545 238.344 458.514 238.328 458.451 c 238.047 457.529 237.391 457.404
 237.031 457.404 c 236.5 457.404 235.625 457.826 235.625 459.436 c h
235.625 459.436 m f
247.996 464.045 m 242.527 464.045 l 242.527 463.733 l 242.762 463.733 l
 243.527 463.733 243.559 463.623 243.559 463.264 c 243.559 458.045 l 243.559
 457.686 243.527 457.576 242.762 457.576 c 242.527 457.576 l 242.527 457.264
 l 242.871 457.295 243.652 457.295 244.043 457.295 c 244.449 457.295 245.355
 457.295 245.715 457.264 c 245.715 457.576 l 245.387 457.576 l 244.449 457.576
 244.449 457.701 244.449 458.045 c 244.449 460.498 l 245.293 460.498 l 246.262
 460.498 246.355 460.186 246.355 459.342 c 246.605 459.342 l 246.605 461.983
 l 246.355 461.983 l 246.355 461.139 246.262 460.811 245.293 460.811 c 244.449
 460.811 l 244.449 463.342 l 244.449 463.67 244.465 463.733 244.934 463.733
 c 246.121 463.733 l 247.621 463.733 247.871 463.17 248.027 461.795 c 248.277
 461.795 l h
247.996 464.045 m f
248.984 459.779 m 249.047 461.264 249.891 461.514 250.234 461.514 c 251.25
 461.514 251.359 460.17 251.359 459.779 c h
248.984 459.561 m 251.766 459.561 l 251.984 459.561 252.016 459.561 252.016
 459.779 c 252.016 460.764 251.469 461.733 250.234 461.733 c 249.078 461.733
 248.156 460.701 248.156 459.451 c 248.156 458.123 249.203 457.154 250.344
 457.154 c 251.562 457.154 252.016 458.264 252.016 458.451 c 252.016 458.545
 251.938 458.576 251.875 458.576 c 251.797 458.576 251.766 458.514 251.75
 458.436 c 251.406 457.404 250.5 457.404 250.406 457.404 c 249.906 457.404
 249.516 457.701 249.281 458.076 c 248.984 458.545 248.984 459.201 248.984
 459.561 c h
248.984 459.561 m f
253.414 459.779 m 253.477 461.264 254.32 461.514 254.664 461.514 c 255.68
 461.514 255.789 460.17 255.789 459.779 c h
253.414 459.561 m 256.195 459.561 l 256.414 459.561 256.445 459.561 256.445
 459.779 c 256.445 460.764 255.898 461.733 254.664 461.733 c 253.508 461.733
 252.586 460.701 252.586 459.451 c 252.586 458.123 253.633 457.154 254.773
 457.154 c 255.992 457.154 256.445 458.264 256.445 458.451 c 256.445 458.545
 256.367 458.576 256.305 458.576 c 256.227 458.576 256.195 458.514 256.18
 458.436 c 255.836 457.404 254.93 457.404 254.836 457.404 c 254.336 457.404
 253.945 457.701 253.711 458.076 c 253.414 458.545 253.414 459.201 253.414
 459.561 c h
253.414 459.561 m f
260.512 457.811 m 260.512 457.154 l 261.98 457.264 l 261.98 457.576 l 261.293
 457.576 261.199 457.639 261.199 458.139 c 261.199 464.186 l 259.777 464.076
 l 259.777 463.764 l 260.465 463.764 260.543 463.701 260.543 463.201 c 260.543
 461.045 l 260.262 461.404 259.824 461.67 259.293 461.67 c 258.121 461.67
 257.074 460.686 257.074 459.404 c 257.074 458.139 258.043 457.154 259.184
 457.154 c 259.824 457.154 260.262 457.498 260.512 457.811 c h
260.512 460.483 m 260.512 458.436 l 260.512 458.264 260.512 458.248 260.402
 458.076 c 260.105 457.592 259.668 457.373 259.23 457.373 c 258.777 457.373
 258.418 457.639 258.184 458.014 c 257.934 458.42 257.902 458.983 257.902
 459.404 c 257.902 459.764 257.918 460.358 258.199 460.811 c 258.418 461.123
 258.793 461.451 259.34 461.451 c 259.684 461.451 260.105 461.295 260.402
 460.858 c 260.512 460.686 260.512 460.67 260.512 460.483 c h
260.512 460.483 m f
263.984 461.029 m 263.984 464.186 l 262.547 464.076 l 262.547 463.764 l
 263.25 463.764 263.328 463.701 263.328 463.201 c 263.328 457.264 l 263.578
 457.264 l 263.578 457.279 263.656 457.42 263.938 457.889 c 264.078 457.654
 264.5 457.154 265.234 457.154 c 266.422 457.154 267.453 458.139 267.453
 459.42 c 267.453 460.686 266.484 461.67 265.344 461.67 c 264.562 461.67
 264.141 461.201 263.984 461.029 c h
264.016 458.404 m 264.016 460.451 l 264.016 460.639 264.016 460.654 264.125
 460.811 c 264.516 461.373 265.062 461.451 265.297 461.451 c 265.75 461.451
 266.109 461.186 266.344 460.811 c 266.609 460.404 266.625 459.842 266.625
 459.42 c 266.625 459.061 266.609 458.467 266.328 458.014 c 266.109 457.701
 265.734 457.373 265.203 457.373 c 264.75 457.373 264.391 457.608 264.156
 457.983 c 264.016 458.186 264.016 458.217 264.016 458.404 c h
264.016 458.404 m f
271.113 458.014 m 271.16 457.623 271.426 457.201 271.895 457.201 c 272.113
 457.201 272.723 457.342 272.723 458.154 c 272.723 458.717 l 272.473 458.717
 l 272.473 458.154 l 272.473 457.576 272.223 457.514 272.113 457.514 c 271.785
 457.514 271.738 457.967 271.738 458.014 c 271.738 459.998 l 271.738 460.42
 271.738 460.811 271.379 461.186 c 270.988 461.576 270.488 461.733 270.02
 461.733 c 269.191 461.733 268.504 461.264 268.504 460.608 c 268.504 460.311
 268.707 460.139 268.973 460.139 c 269.254 460.139 269.426 460.342 269.426
 460.592 c 269.426 460.717 269.379 461.045 268.91 461.045 c 269.191 461.404
 269.676 461.514 269.988 461.514 c 270.488 461.514 271.051 461.123 271.051
 460.233 c 271.051 459.873 l 270.535 459.842 269.848 459.811 269.223 459.514
 c 268.473 459.17 268.223 458.654 268.223 458.217 c 268.223 457.404 269.191
 457.154 269.816 457.154 c 270.473 457.154 270.926 457.561 271.113 458.014
 c h
271.051 459.654 m 271.051 458.654 l 271.051 457.717 270.332 457.373 269.879
 457.373 c 269.395 457.373 268.988 457.717 268.988 458.217 c 268.988 458.764
 269.41 459.592 271.051 459.654 c h
271.051 459.654 m f
273.953 459.436 m 273.953 461.061 274.766 461.483 275.297 461.483 c 275.391
 461.483 276.016 461.467 276.359 461.108 c 275.953 461.076 275.891 460.779
 275.891 460.654 c 275.891 460.389 276.078 460.201 276.344 460.201 c 276.609
 460.201 276.812 460.358 276.812 460.67 c 276.812 461.342 276.047 461.733
 275.281 461.733 c 274.031 461.733 273.125 460.654 273.125 459.42 c 273.125
 458.139 274.109 457.154 275.266 457.154 c 276.594 457.154 276.922 458.358
 276.922 458.451 c 276.922 458.545 276.812 458.545 276.781 458.545 c 276.703
 458.545 276.672 458.514 276.656 458.451 c 276.375 457.529 275.719 457.404
 275.359 457.404 c 274.828 457.404 273.953 457.826 273.953 459.436 c h
273.953 459.436 m f
277.992 458.014 m 277.992 457.576 277.883 457.576 277.211 457.576 c 277.211
 457.264 l 277.539 457.279 278.008 457.295 278.289 457.295 c 278.602 457.295
 278.992 457.279 279.398 457.264 c 279.398 457.576 l 278.727 457.576 278.617
 457.576 278.617 458.014 c 278.617 459.045 l 279.258 459.592 l 280.023 458.545
 280.445 457.983 280.445 457.795 c 280.445 457.608 280.273 457.576 280.086
 457.576 c 280.086 457.264 l 280.352 457.279 280.945 457.295 281.164 457.295
 c 281.445 457.295 281.742 457.279 282.023 457.264 c 282.023 457.576 l 281.648
 457.576 281.43 457.576 281.055 458.108 c 279.789 459.889 l 279.773 459.904
 279.727 459.967 279.727 459.998 c 279.727 460.029 280.445 460.639 280.539
 460.717 c 281.164 461.217 281.586 461.248 281.789 461.248 c 281.789 461.561
 l 281.508 461.529 281.383 461.529 281.102 461.529 c 280.742 461.529 280.117
 461.545 279.977 461.561 c 279.977 461.248 l 280.164 461.248 280.273 461.139
 280.273 460.998 c 280.273 460.795 280.133 460.686 280.055 460.608 c 278.648
 459.404 l 278.648 464.186 l 277.211 464.076 l 277.211 463.764 l 277.914
 463.764 277.992 463.701 277.992 463.201 c h
277.992 458.014 m f
189.691 425.514 m 189.832 425.889 190.098 426.17 190.785 426.186 c 190.785
 426.498 l 190.473 426.467 190.066 426.467 189.816 426.467 c 189.52 426.467
 188.941 426.483 188.676 426.498 c 188.676 426.186 l 189.191 426.17 189.41
 425.92 189.41 425.686 c 189.41 425.608 189.379 425.545 189.363 425.483 
c 187.535 420.686 l 185.629 425.717 l 185.566 425.858 185.566 425.873 185.566
 425.889 c 185.566 426.186 186.129 426.186 186.379 426.186 c 186.379 426.498
 l 186.02 426.467 185.332 426.467 184.957 426.467 c 184.488 426.467 184.051
 426.483 183.691 426.498 c 183.691 426.186 l 184.348 426.186 184.535 426.186
 184.676 425.811 c 186.988 419.686 l 187.051 419.498 187.098 419.467 187.238
 419.467 c 187.395 419.467 187.426 419.514 187.473 419.654 c h
189.691 425.514 m f
192.742 424.092 m 191.352 423.983 l 191.352 423.67 l 191.992 423.67 192.086
 423.608 192.086 423.123 c 192.086 420.436 l 192.086 419.998 191.977 419.998
 191.305 419.998 c 191.305 419.686 l 191.617 419.701 192.164 419.717 192.398
 419.717 c 192.758 419.717 193.102 419.701 193.445 419.686 c 193.445 419.998
 l 192.773 419.998 192.742 420.045 192.742 420.436 c h
192.773 425.826 m 192.773 426.139 192.539 426.358 192.258 426.358 c 191.945
 426.358 191.727 426.092 191.727 425.826 c 191.727 425.561 191.945 425.295
 192.258 425.295 c 192.539 425.295 192.773 425.514 192.773 425.826 c h
192.773 425.826 m f
195.82 421.623 m 196.039 421.576 196.852 421.42 196.852 420.701 c 196.852
 420.201 196.508 419.795 195.727 419.795 c 194.883 419.795 194.523 420.358
 194.336 421.217 c 194.305 421.342 194.305 421.373 194.195 421.373 c 194.07
 421.373 194.07 421.311 194.07 421.139 c 194.07 419.811 l 194.07 419.639
 194.07 419.576 194.18 419.576 c 194.227 419.576 194.242 419.592 194.43 
419.779 c 194.445 419.795 194.445 419.811 194.633 419.998 c 195.07 419.592
 195.523 419.576 195.727 419.576 c 196.867 419.576 197.336 420.248 197.336
 420.967 c 197.336 421.483 197.039 421.795 196.914 421.904 c 196.586 422.233
 196.195 422.311 195.773 422.389 c 195.211 422.498 194.555 422.623 194.555
 423.201 c 194.555 423.561 194.805 423.967 195.664 423.967 c 196.758 423.967
 196.82 423.061 196.836 422.764 c 196.836 422.67 196.93 422.67 196.945 422.67
 c 197.086 422.67 197.086 422.717 197.086 422.904 c 197.086 423.92 l 197.086
 424.076 197.086 424.154 196.977 424.154 c 196.93 424.154 196.898 424.154
 196.773 424.029 c 196.742 423.998 196.648 423.904 196.602 423.873 c 196.227
 424.154 195.82 424.154 195.664 424.154 c 194.445 424.154 194.07 423.483
 194.07 422.92 c 194.07 422.576 194.227 422.295 194.492 422.076 c 194.82
 421.826 195.102 421.764 195.82 421.623 c h
195.82 421.623 m f
199.438 424.092 m 198.047 423.983 l 198.047 423.67 l 198.688 423.67 198.781
 423.608 198.781 423.123 c 198.781 420.436 l 198.781 419.998 198.672 419.998
 198 419.998 c 198 419.686 l 198.312 419.701 198.859 419.717 199.094 419.717
 c 199.453 419.717 199.797 419.701 200.141 419.686 c 200.141 419.998 l 199.469
 419.998 199.438 420.045 199.438 420.436 c h
199.469 425.826 m 199.469 426.139 199.234 426.358 198.953 426.358 c 198.641
 426.358 198.422 426.092 198.422 425.826 c 198.422 425.561 198.641 425.295
 198.953 425.295 c 199.234 425.295 199.469 425.514 199.469 425.826 c h
199.469 425.826 m f
205.129 421.826 m 205.129 423.092 204.145 424.154 202.941 424.154 c 201.691
 424.154 200.723 423.061 200.723 421.826 c 200.723 420.529 201.754 419.576
 202.926 419.576 c 204.129 419.576 205.129 420.561 205.129 421.826 c h
202.941 419.826 m 202.504 419.826 202.066 420.029 201.801 420.498 c 201.551
 420.936 201.551 421.545 201.551 421.904 c 201.551 422.295 201.551 422.826
 201.785 423.264 c 202.051 423.717 202.52 423.936 202.926 423.936 c 203.363
 423.936 203.785 423.717 204.051 423.279 c 204.316 422.858 204.316 422.279
 204.316 421.904 c 204.316 421.545 204.316 420.998 204.098 420.561 c 203.863
 420.108 203.426 419.826 202.941 419.826 c h
202.941 419.826 m f
206.516 423.108 m 206.516 420.436 l 206.516 419.998 206.406 419.998 205.734
 419.998 c 205.734 419.686 l 206.094 419.701 206.594 419.717 206.875 419.717
 c 207.125 419.717 207.641 419.701 207.984 419.686 c 207.984 419.998 l 207.312
 419.998 207.203 419.998 207.203 420.436 c 207.203 422.279 l 207.203 423.311
 207.922 423.873 208.547 423.873 c 209.188 423.873 209.297 423.342 209.297
 422.764 c 209.297 420.436 l 209.297 419.998 209.188 419.998 208.516 419.998
 c 208.516 419.686 l 208.859 419.701 209.375 419.717 209.641 419.717 c 209.891
 419.717 210.422 419.701 210.75 419.686 c 210.75 419.998 l 210.234 419.998
 209.984 419.998 209.984 420.295 c 209.984 422.201 l 209.984 423.061 209.984
 423.358 209.672 423.717 c 209.531 423.889 209.203 424.092 208.625 424.092
 c 207.891 424.092 207.422 423.67 207.141 423.045 c 207.141 424.092 l 205.734
 423.983 l 205.734 423.67 l 206.438 423.67 206.516 423.608 206.516 423.108
 c h
206.516 423.108 m f
187.172 444.217 m 185.891 444.514 l 185.266 444.67 184.891 445.201 184.891
 445.779 c 184.891 446.483 185.422 447.092 186.203 447.092 c 187.859 447.092
 188.078 445.451 188.141 445.014 c 188.156 444.951 188.156 444.889 188.266
 444.889 c 188.391 444.889 188.391 444.936 188.391 445.123 c 188.391 447.123
 l 188.391 447.295 188.391 447.373 188.281 447.373 c 188.219 447.373 188.203
 447.358 188.141 447.233 c 187.781 446.67 l 187.484 446.967 187.078 447.373
 186.188 447.373 c 185.078 447.373 184.25 446.498 184.25 445.436 c 184.25
 444.608 184.781 443.873 185.547 443.608 c 185.656 443.576 186.172 443.451
 186.875 443.279 c 187.141 443.217 187.438 443.139 187.719 442.779 c 187.922
 442.514 188.031 442.186 188.031 441.858 c 188.031 441.154 187.531 440.436
 186.688 440.436 c 186.406 440.436 185.641 440.483 185.109 440.967 c 184.531
 441.514 184.5 442.139 184.5 442.498 c 184.484 442.608 184.406 442.608 184.375
 442.608 c 184.25 442.608 184.25 442.529 184.25 442.358 c 184.25 440.358
 l 184.25 440.186 184.25 440.123 184.359 440.123 c 184.422 440.123 184.438
 440.139 184.5 440.248 c 184.5 440.264 184.531 440.295 184.859 440.826 c
 185.172 440.483 185.812 440.123 186.703 440.123 c 187.859 440.123 188.656
 441.092 188.656 442.201 c 188.656 443.186 188 444.014 187.172 444.217 c
 h
187.172 444.217 m f
193.91 442.483 m 193.91 443.748 192.926 444.811 191.723 444.811 c 190.473
 444.811 189.504 443.717 189.504 442.483 c 189.504 441.186 190.535 440.233
 191.707 440.233 c 192.91 440.233 193.91 441.217 193.91 442.483 c h
191.723 440.483 m 191.285 440.483 190.848 440.686 190.582 441.154 c 190.332
 441.592 190.332 442.201 190.332 442.561 c 190.332 442.951 190.332 443.483
 190.566 443.92 c 190.832 444.373 191.301 444.592 191.707 444.592 c 192.145
 444.592 192.566 444.373 192.832 443.936 c 193.098 443.514 193.098 442.936
 193.098 442.561 c 193.098 442.201 193.098 441.654 192.879 441.217 c 192.645
 440.764 192.207 440.483 191.723 440.483 c h
191.723 440.483 m f
198.094 441.123 m 198.094 440.233 l 199.531 440.342 l 199.531 440.654 l
 198.844 440.654 198.766 440.717 198.766 441.217 c 198.766 444.748 l 197.297
 444.639 l 197.297 444.326 l 197.984 444.326 198.078 444.264 198.078 443.764
 c 198.078 441.998 l 198.078 441.123 197.594 440.451 196.859 440.451 c 196.031
 440.451 195.984 440.92 195.984 441.436 c 195.984 444.748 l 194.516 444.639
 l 194.516 444.326 l 195.297 444.326 195.297 444.295 195.297 443.42 c 195.297
 441.92 l 195.297 441.139 195.297 440.233 196.812 440.233 c 197.375 440.233
 197.812 440.514 198.094 441.123 c h
198.094 441.123 m f
200.832 443.764 m 200.832 441.092 l 200.832 440.654 200.723 440.654 200.051
 440.654 c 200.051 440.342 l 200.41 440.358 200.91 440.373 201.191 440.373
 c 201.441 440.373 201.957 440.358 202.301 440.342 c 202.301 440.654 l 201.629
 440.654 201.52 440.654 201.52 441.092 c 201.52 442.936 l 201.52 443.967
 202.238 444.529 202.863 444.529 c 203.504 444.529 203.613 443.998 203.613
 443.42 c 203.613 441.092 l 203.613 440.654 203.504 440.654 202.832 440.654
 c 202.832 440.342 l 203.176 440.358 203.691 440.373 203.957 440.373 c 204.207
 440.373 204.738 440.358 205.066 440.342 c 205.066 440.654 l 204.551 440.654
 204.301 440.654 204.301 440.951 c 204.301 442.858 l 204.301 443.717 204.301
 444.014 203.988 444.373 c 203.848 444.545 203.52 444.748 202.941 444.748
 c 202.207 444.748 201.738 444.326 201.457 443.701 c 201.457 444.748 l 200.051
 444.639 l 200.051 444.326 l 200.754 444.326 200.832 444.264 200.832 443.764
 c h
200.832 443.764 m f
209.055 440.889 m 209.055 440.233 l 210.523 440.342 l 210.523 440.654 l
 209.836 440.654 209.742 440.717 209.742 441.217 c 209.742 447.264 l 208.32
 447.154 l 208.32 446.842 l 209.008 446.842 209.086 446.779 209.086 446.279
 c 209.086 444.123 l 208.805 444.483 208.367 444.748 207.836 444.748 c 206.664
 444.748 205.617 443.764 205.617 442.483 c 205.617 441.217 206.586 440.233
 207.727 440.233 c 208.367 440.233 208.805 440.576 209.055 440.889 c h
209.055 443.561 m 209.055 441.514 l 209.055 441.342 209.055 441.326 208.945
 441.154 c 208.648 440.67 208.211 440.451 207.773 440.451 c 207.32 440.451
 206.961 440.717 206.727 441.092 c 206.477 441.498 206.445 442.061 206.445
 442.483 c 206.445 442.842 206.461 443.436 206.742 443.889 c 206.961 444.201
 207.336 444.529 207.883 444.529 c 208.227 444.529 208.648 444.373 208.945
 443.936 c 209.055 443.764 209.055 443.748 209.055 443.561 c h
209.055 443.561 m f
282.105 423.561 m 280.824 423.858 l 280.199 424.014 279.824 424.545 279.824
 425.123 c 279.824 425.826 280.355 426.436 281.137 426.436 c 282.793 426.436
 283.012 424.795 283.074 424.358 c 283.09 424.295 283.09 424.233 283.199
 424.233 c 283.324 424.233 283.324 424.279 283.324 424.467 c 283.324 426.467
 l 283.324 426.639 283.324 426.717 283.215 426.717 c 283.152 426.717 283.137
 426.701 283.074 426.576 c 282.715 426.014 l 282.418 426.311 282.012 426.717
 281.121 426.717 c 280.012 426.717 279.184 425.842 279.184 424.779 c 279.184
 423.951 279.715 423.217 280.48 422.951 c 280.59 422.92 281.105 422.795 
281.809 422.623 c 282.074 422.561 282.371 422.483 282.652 422.123 c 282.855
 421.858 282.965 421.529 282.965 421.201 c 282.965 420.498 282.465 419.779
 281.621 419.779 c 281.34 419.779 280.574 419.826 280.043 420.311 c 279.465
 420.858 279.434 421.483 279.434 421.842 c 279.418 421.951 279.34 421.951
 279.309 421.951 c 279.184 421.951 279.184 421.873 279.184 421.701 c 279.184
 419.701 l 279.184 419.529 279.184 419.467 279.293 419.467 c 279.355 419.467
 279.371 419.483 279.434 419.592 c 279.434 419.608 279.465 419.639 279.793
 420.17 c 280.105 419.826 280.746 419.467 281.637 419.467 c 282.793 419.467
 283.59 420.436 283.59 421.545 c 283.59 422.529 282.934 423.358 282.105 
423.561 c h
282.105 423.561 m f
285.25 423.108 m 285.25 420.436 l 285.25 419.998 285.141 419.998 284.469
 419.998 c 284.469 419.686 l 284.828 419.701 285.328 419.717 285.609 419.717
 c 285.859 419.717 286.375 419.701 286.719 419.686 c 286.719 419.998 l 286.047
 419.998 285.938 419.998 285.938 420.436 c 285.938 422.279 l 285.938 423.311
 286.656 423.873 287.281 423.873 c 287.922 423.873 288.031 423.342 288.031
 422.764 c 288.031 420.436 l 288.031 419.998 287.922 419.998 287.25 419.998
 c 287.25 419.686 l 287.594 419.701 288.109 419.717 288.375 419.717 c 288.625
 419.717 289.156 419.701 289.484 419.686 c 289.484 419.998 l 288.828 419.998
 288.719 419.998 288.719 420.436 c 288.719 422.279 l 288.719 423.311 289.422
 423.873 290.062 423.873 c 290.688 423.873 290.797 423.342 290.797 422.764
 c 290.797 420.436 l 290.797 419.998 290.688 419.998 290.016 419.998 c 290.016
 419.686 l 290.359 419.701 290.875 419.717 291.141 419.717 c 291.406 419.717
 291.922 419.701 292.266 419.686 c 292.266 419.998 l 291.75 419.998 291.5
 419.998 291.484 420.295 c 291.484 422.201 l 291.484 423.061 291.484 423.358
 291.172 423.717 c 291.031 423.889 290.703 424.092 290.125 424.092 c 289.297
 424.092 288.844 423.498 288.688 423.108 c 288.547 423.983 287.812 424.092
 287.359 424.092 c 286.625 424.092 286.156 423.67 285.875 423.045 c 285.875
 424.092 l 284.469 423.983 l 284.469 423.67 l 285.172 423.67 285.25 423.608
 285.25 423.108 c h
285.25 423.108 m f
293.566 422.201 m 293.629 423.686 294.473 423.936 294.816 423.936 c 295.832
 423.936 295.941 422.592 295.941 422.201 c h
293.566 421.983 m 296.348 421.983 l 296.566 421.983 296.598 421.983 296.598
 422.201 c 296.598 423.186 296.051 424.154 294.816 424.154 c 293.66 424.154
 292.738 423.123 292.738 421.873 c 292.738 420.545 293.785 419.576 294.926
 419.576 c 296.145 419.576 296.598 420.686 296.598 420.873 c 296.598 420.967
 296.52 420.998 296.457 420.998 c 296.379 420.998 296.348 420.936 296.332
 420.858 c 295.988 419.826 295.082 419.826 294.988 419.826 c 294.488 419.826
 294.098 420.123 293.863 420.498 c 293.566 420.967 293.566 421.623 293.566
 421.983 c h
293.566 421.983 m f
298.652 426.608 m 297.215 426.498 l 297.215 426.186 l 297.918 426.186 297.996
 426.123 297.996 425.623 c 297.996 420.436 l 297.996 419.998 297.887 419.998
 297.215 419.998 c 297.215 419.686 l 297.543 419.701 298.074 419.717 298.324
 419.717 c 298.574 419.717 299.059 419.701 299.434 419.686 c 299.434 419.998
 l 298.762 419.998 298.652 419.998 298.652 420.436 c h
298.652 426.608 m f
301.418 426.608 m 299.98 426.498 l 299.98 426.186 l 300.684 426.186 300.762
 426.123 300.762 425.623 c 300.762 420.436 l 300.762 419.998 300.652 419.998
 299.98 419.998 c 299.98 419.686 l 300.309 419.701 300.84 419.717 301.09
 419.717 c 301.34 419.717 301.824 419.701 302.199 419.686 c 302.199 419.998
 l 301.527 419.998 301.418 419.998 301.418 420.436 c h
301.418 426.608 m f
0.701961 g
231.023 408.19 19.844 -34.016 re f
222.52 407.479 5.668 -9.918 re f
0 g
0.797382 w
0 J
0 j
[] 0.0 d
4 M q 1 0 0 -1 0 595.275574 cm
326.25 126.527 m 326.25 257.93 l S Q
371.855 463.811 m 371.855 464.17 371.871 464.279 372.637 464.279 c 372.887
 464.279 l 372.887 464.592 l 372.527 464.561 371.793 464.561 371.418 464.561
 c 371.043 464.561 370.293 464.561 369.949 464.592 c 369.949 464.279 l 370.184
 464.279 l 370.949 464.279 370.965 464.17 370.965 463.811 c 370.965 461.483
 l 367.996 461.483 l 367.996 463.811 l 367.996 464.17 368.012 464.279 368.777
 464.279 c 369.012 464.279 l 369.012 464.592 l 368.668 464.561 367.934 464.561
 367.543 464.561 c 367.168 464.561 366.418 464.561 366.074 464.592 c 366.074
 464.279 l 366.309 464.279 l 367.074 464.279 367.105 464.17 367.105 463.811
 c 367.105 458.561 l 367.105 458.201 367.074 458.092 366.309 458.092 c 366.074
 458.092 l 366.074 457.779 l 366.418 457.811 367.168 457.811 367.543 457.811
 c 367.918 457.811 368.668 457.811 369.012 457.779 c 369.012 458.092 l 368.777
 458.092 l 368.012 458.092 367.996 458.201 367.996 458.561 c 367.996 461.17
 l 370.965 461.17 l 370.965 458.561 l 370.965 458.201 370.949 458.092 370.184
 458.092 c 369.949 458.092 l 369.949 457.779 l 370.293 457.811 371.027 457.811
 371.402 457.811 c 371.793 457.811 372.527 457.811 372.887 457.779 c 372.887
 458.092 l 372.637 458.092 l 371.871 458.092 371.855 458.201 371.855 458.561
 c h
371.855 463.811 m f
376.531 458.529 m 376.578 458.139 376.844 457.717 377.312 457.717 c 377.531
 457.717 378.141 457.858 378.141 458.67 c 378.141 459.233 l 377.891 459.233
 l 377.891 458.67 l 377.891 458.092 377.641 458.029 377.531 458.029 c 377.203
 458.029 377.156 458.483 377.156 458.529 c 377.156 460.514 l 377.156 460.936
 377.156 461.326 376.797 461.701 c 376.406 462.092 375.906 462.248 375.438
 462.248 c 374.609 462.248 373.922 461.779 373.922 461.123 c 373.922 460.826
 374.125 460.654 374.391 460.654 c 374.672 460.654 374.844 460.858 374.844
 461.108 c 374.844 461.233 374.797 461.561 374.328 461.561 c 374.609 461.92
 375.094 462.029 375.406 462.029 c 375.906 462.029 376.469 461.639 376.469
 460.748 c 376.469 460.389 l 375.953 460.358 375.266 460.326 374.641 460.029
 c 373.891 459.686 373.641 459.17 373.641 458.733 c 373.641 457.92 374.609
 457.67 375.234 457.67 c 375.891 457.67 376.344 458.076 376.531 458.529 
c h
376.469 460.17 m 376.469 459.17 l 376.469 458.233 375.75 457.889 375.297
 457.889 c 374.812 457.889 374.406 458.233 374.406 458.733 c 374.406 459.279
 374.828 460.108 376.469 460.17 c h
376.469 460.17 m f
379.918 461.529 m 379.918 462.186 l 378.48 462.076 l 378.48 461.764 l 379.184
 461.764 379.262 461.701 379.262 461.264 c 379.262 456.608 l 379.262 456.154
 379.152 456.154 378.48 456.154 c 378.48 455.842 l 378.824 455.858 379.34
 455.873 379.59 455.873 c 379.871 455.873 380.371 455.858 380.715 455.842
 c 380.715 456.154 l 380.059 456.154 379.949 456.154 379.949 456.608 c 379.949
 458.373 l 379.996 458.201 380.418 457.67 381.168 457.67 c 382.355 457.67
 383.387 458.654 383.387 459.936 c 383.387 461.201 382.434 462.186 381.309
 462.186 c 380.527 462.186 380.105 461.748 379.918 461.529 c h
379.949 458.92 m 379.949 461.139 l 380.23 461.654 380.715 461.936 381.23
 461.936 c 381.965 461.936 382.559 461.061 382.559 459.936 c 382.559 458.733
 381.871 457.889 381.137 457.889 c 380.73 457.889 380.355 458.092 380.09
 458.498 c 379.949 458.701 379.949 458.717 379.949 458.92 c h
379.949 458.92 m f
385.453 461.764 m 386.891 461.764 l 386.891 462.076 l 385.453 462.076 l
 385.453 463.904 l 385.203 463.904 l 385.203 463.092 384.906 462.029 383.922
 461.983 c 383.922 461.764 l 384.766 461.764 l 384.766 459.014 l 384.766
 457.795 385.703 457.67 386.062 457.67 c 386.766 457.67 387.047 458.373 
387.047 459.014 c 387.047 459.576 l 386.797 459.576 l 386.797 459.029 l 
386.797 458.295 386.5 457.92 386.125 457.92 c 385.453 457.92 385.453 458.826
 385.453 458.998 c h
385.453 461.764 m f
389.375 462.186 m 387.984 462.076 l 387.984 461.764 l 388.625 461.764 388.719
 461.701 388.719 461.217 c 388.719 458.529 l 388.719 458.092 388.609 458.092
 387.938 458.092 c 387.938 457.779 l 388.25 457.795 388.797 457.811 389.031
 457.811 c 389.391 457.811 389.734 457.795 390.078 457.779 c 390.078 458.092
 l 389.406 458.092 389.375 458.139 389.375 458.529 c h
389.406 463.92 m 389.406 464.233 389.172 464.451 388.891 464.451 c 388.578
 464.451 388.359 464.186 388.359 463.92 c 388.359 463.654 388.578 463.389
 388.891 463.389 c 389.172 463.389 389.406 463.608 389.406 463.92 c h
389.406 463.92 m f
391.547 459.951 m 391.547 461.576 392.359 461.998 392.891 461.998 c 392.984
 461.998 393.609 461.983 393.953 461.623 c 393.547 461.592 393.484 461.295
 393.484 461.17 c 393.484 460.904 393.672 460.717 393.938 460.717 c 394.203
 460.717 394.406 460.873 394.406 461.186 c 394.406 461.858 393.641 462.248
 392.875 462.248 c 391.625 462.248 390.719 461.17 390.719 459.936 c 390.719
 458.654 391.703 457.67 392.859 457.67 c 394.188 457.67 394.516 458.873 
394.516 458.967 c 394.516 459.061 394.406 459.061 394.375 459.061 c 394.297
 459.061 394.266 459.029 394.25 458.967 c 393.969 458.045 393.312 457.92
 392.953 457.92 c 392.422 457.92 391.547 458.342 391.547 459.951 c h
391.547 459.951 m f
403.918 464.561 m 398.449 464.561 l 398.449 464.248 l 398.684 464.248 l
 399.449 464.248 399.48 464.139 399.48 463.779 c 399.48 458.561 l 399.48
 458.201 399.449 458.092 398.684 458.092 c 398.449 458.092 l 398.449 457.779
 l 398.793 457.811 399.574 457.811 399.965 457.811 c 400.371 457.811 401.277
 457.811 401.637 457.779 c 401.637 458.092 l 401.309 458.092 l 400.371 458.092
 400.371 458.217 400.371 458.561 c 400.371 461.014 l 401.215 461.014 l 402.184
 461.014 402.277 460.701 402.277 459.858 c 402.527 459.858 l 402.527 462.498
 l 402.277 462.498 l 402.277 461.654 402.184 461.326 401.215 461.326 c 400.371
 461.326 l 400.371 463.858 l 400.371 464.186 400.387 464.248 400.855 464.248
 c 402.043 464.248 l 403.543 464.248 403.793 463.686 403.949 462.311 c 404.199
 462.311 l h
403.918 464.561 m f
404.906 460.295 m 404.969 461.779 405.812 462.029 406.156 462.029 c 407.172
 462.029 407.281 460.686 407.281 460.295 c h
404.906 460.076 m 407.688 460.076 l 407.906 460.076 407.938 460.076 407.938
 460.295 c 407.938 461.279 407.391 462.248 406.156 462.248 c 405 462.248
 404.078 461.217 404.078 459.967 c 404.078 458.639 405.125 457.67 406.266
 457.67 c 407.484 457.67 407.938 458.779 407.938 458.967 c 407.938 459.061
 407.859 459.092 407.797 459.092 c 407.719 459.092 407.688 459.029 407.672
 458.951 c 407.328 457.92 406.422 457.92 406.328 457.92 c 405.828 457.92
 405.438 458.217 405.203 458.592 c 404.906 459.061 404.906 459.717 404.906
 460.076 c h
404.906 460.076 m f
409.336 460.295 m 409.398 461.779 410.242 462.029 410.586 462.029 c 411.602
 462.029 411.711 460.686 411.711 460.295 c h
409.336 460.076 m 412.117 460.076 l 412.336 460.076 412.367 460.076 412.367
 460.295 c 412.367 461.279 411.82 462.248 410.586 462.248 c 409.43 462.248
 408.508 461.217 408.508 459.967 c 408.508 458.639 409.555 457.67 410.695
 457.67 c 411.914 457.67 412.367 458.779 412.367 458.967 c 412.367 459.061
 412.289 459.092 412.227 459.092 c 412.148 459.092 412.117 459.029 412.102
 458.951 c 411.758 457.92 410.852 457.92 410.758 457.92 c 410.258 457.92
 409.867 458.217 409.633 458.592 c 409.336 459.061 409.336 459.717 409.336
 460.076 c h
409.336 460.076 m f
416.434 458.326 m 416.434 457.67 l 417.902 457.779 l 417.902 458.092 l 
417.215 458.092 417.121 458.154 417.121 458.654 c 417.121 464.701 l 415.699
 464.592 l 415.699 464.279 l 416.387 464.279 416.465 464.217 416.465 463.717
 c 416.465 461.561 l 416.184 461.92 415.746 462.186 415.215 462.186 c 414.043
 462.186 412.996 461.201 412.996 459.92 c 412.996 458.654 413.965 457.67
 415.105 457.67 c 415.746 457.67 416.184 458.014 416.434 458.326 c h
416.434 460.998 m 416.434 458.951 l 416.434 458.779 416.434 458.764 416.324
 458.592 c 416.027 458.108 415.59 457.889 415.152 457.889 c 414.699 457.889
 414.34 458.154 414.105 458.529 c 413.855 458.936 413.824 459.498 413.824
 459.92 c 413.824 460.279 413.84 460.873 414.121 461.326 c 414.34 461.639
 414.715 461.967 415.262 461.967 c 415.605 461.967 416.027 461.811 416.324
 461.373 c 416.434 461.201 416.434 461.186 416.434 460.998 c h
416.434 460.998 m f
419.906 461.545 m 419.906 464.701 l 418.469 464.592 l 418.469 464.279 l
 419.172 464.279 419.25 464.217 419.25 463.717 c 419.25 457.779 l 419.5 
457.779 l 419.5 457.795 419.578 457.936 419.859 458.404 c 420 458.17 420.422
 457.67 421.156 457.67 c 422.344 457.67 423.375 458.654 423.375 459.936 
c 423.375 461.201 422.406 462.186 421.266 462.186 c 420.484 462.186 420.062
 461.717 419.906 461.545 c h
419.938 458.92 m 419.938 460.967 l 419.938 461.154 419.938 461.17 420.047
 461.326 c 420.438 461.889 420.984 461.967 421.219 461.967 c 421.672 461.967
 422.031 461.701 422.266 461.326 c 422.531 460.92 422.547 460.358 422.547
 459.936 c 422.547 459.576 422.531 458.983 422.25 458.529 c 422.031 458.217
 421.656 457.889 421.125 457.889 c 420.672 457.889 420.312 458.123 420.078
 458.498 c 419.938 458.701 419.938 458.733 419.938 458.92 c h
419.938 458.92 m f
427.035 458.529 m 427.082 458.139 427.348 457.717 427.816 457.717 c 428.035
 457.717 428.645 457.858 428.645 458.67 c 428.645 459.233 l 428.395 459.233
 l 428.395 458.67 l 428.395 458.092 428.145 458.029 428.035 458.029 c 427.707
 458.029 427.66 458.483 427.66 458.529 c 427.66 460.514 l 427.66 460.936
 427.66 461.326 427.301 461.701 c 426.91 462.092 426.41 462.248 425.941 
462.248 c 425.113 462.248 424.426 461.779 424.426 461.123 c 424.426 460.826
 424.629 460.654 424.895 460.654 c 425.176 460.654 425.348 460.858 425.348
 461.108 c 425.348 461.233 425.301 461.561 424.832 461.561 c 425.113 461.92
 425.598 462.029 425.91 462.029 c 426.41 462.029 426.973 461.639 426.973
 460.748 c 426.973 460.389 l 426.457 460.358 425.77 460.326 425.145 460.029
 c 424.395 459.686 424.145 459.17 424.145 458.733 c 424.145 457.92 425.113
 457.67 425.738 457.67 c 426.395 457.67 426.848 458.076 427.035 458.529 
c h
426.973 460.17 m 426.973 459.17 l 426.973 458.233 426.254 457.889 425.801
 457.889 c 425.316 457.889 424.91 458.233 424.91 458.733 c 424.91 459.279
 425.332 460.108 426.973 460.17 c h
426.973 460.17 m f
429.879 459.951 m 429.879 461.576 430.691 461.998 431.223 461.998 c 431.316
 461.998 431.941 461.983 432.285 461.623 c 431.879 461.592 431.816 461.295
 431.816 461.17 c 431.816 460.904 432.004 460.717 432.27 460.717 c 432.535
 460.717 432.738 460.873 432.738 461.186 c 432.738 461.858 431.973 462.248
 431.207 462.248 c 429.957 462.248 429.051 461.17 429.051 459.936 c 429.051
 458.654 430.035 457.67 431.191 457.67 c 432.52 457.67 432.848 458.873 432.848
 458.967 c 432.848 459.061 432.738 459.061 432.707 459.061 c 432.629 459.061
 432.598 459.029 432.582 458.967 c 432.301 458.045 431.645 457.92 431.285
 457.92 c 430.754 457.92 429.879 458.342 429.879 459.951 c h
429.879 459.951 m f
433.914 458.529 m 433.914 458.092 433.805 458.092 433.133 458.092 c 433.133
 457.779 l 433.461 457.795 433.93 457.811 434.211 457.811 c 434.523 457.811
 434.914 457.795 435.32 457.779 c 435.32 458.092 l 434.648 458.092 434.539
 458.092 434.539 458.529 c 434.539 459.561 l 435.18 460.108 l 435.949 459.061
 436.371 458.498 436.371 458.311 c 436.371 458.123 436.199 458.092 436.012
 458.092 c 436.012 457.779 l 436.277 457.795 436.871 457.811 437.09 457.811
 c 437.371 457.811 437.668 457.795 437.949 457.779 c 437.949 458.092 l 437.574
 458.092 437.355 458.092 436.98 458.623 c 435.711 460.404 l 435.695 460.42
 435.648 460.483 435.648 460.514 c 435.648 460.545 436.371 461.154 436.465
 461.233 c 437.09 461.733 437.512 461.764 437.715 461.764 c 437.715 462.076
 l 437.434 462.045 437.309 462.045 437.027 462.045 c 436.668 462.045 436.043
 462.061 435.902 462.076 c 435.902 461.764 l 436.09 461.764 436.199 461.654
 436.199 461.514 c 436.199 461.311 436.059 461.201 435.98 461.123 c 434.57
 459.92 l 434.57 464.701 l 433.133 464.592 l 433.133 464.279 l 433.836 464.279
 433.914 464.217 433.914 463.717 c h
433.914 458.529 m f
436.406 433.076 m 436.547 433.451 436.812 433.733 437.5 433.748 c 437.5
 434.061 l 437.188 434.029 436.781 434.029 436.531 434.029 c 436.234 434.029
 435.656 434.045 435.391 434.061 c 435.391 433.748 l 435.906 433.733 436.125
 433.483 436.125 433.248 c 436.125 433.17 436.094 433.108 436.078 433.045
 c 434.25 428.248 l 432.344 433.279 l 432.281 433.42 432.281 433.436 432.281
 433.451 c 432.281 433.748 432.844 433.748 433.094 433.748 c 433.094 434.061
 l 432.734 434.029 432.047 434.029 431.672 434.029 c 431.203 434.029 430.766
 434.045 430.406 434.061 c 430.406 433.748 l 431.062 433.748 431.25 433.748
 431.391 433.373 c 433.703 427.248 l 433.766 427.061 433.812 427.029 433.953
 427.029 c 434.109 427.029 434.141 427.076 434.188 427.217 c h
436.406 433.076 m f
439.457 431.654 m 438.066 431.545 l 438.066 431.233 l 438.707 431.233 438.801
 431.17 438.801 430.686 c 438.801 427.998 l 438.801 427.561 438.691 427.561
 438.02 427.561 c 438.02 427.248 l 438.332 427.264 438.879 427.279 439.113
 427.279 c 439.473 427.279 439.816 427.264 440.16 427.248 c 440.16 427.561
 l 439.488 427.561 439.457 427.608 439.457 427.998 c h
439.488 433.389 m 439.488 433.701 439.254 433.92 438.973 433.92 c 438.66
 433.92 438.441 433.654 438.441 433.389 c 438.441 433.123 438.66 432.858
 438.973 432.858 c 439.254 432.858 439.488 433.076 439.488 433.389 c h
439.488 433.389 m f
442.535 429.186 m 442.754 429.139 443.566 428.983 443.566 428.264 c 443.566
 427.764 443.223 427.358 442.441 427.358 c 441.598 427.358 441.238 427.92
 441.051 428.779 c 441.02 428.904 441.02 428.936 440.91 428.936 c 440.785
 428.936 440.785 428.873 440.785 428.701 c 440.785 427.373 l 440.785 427.201
 440.785 427.139 440.895 427.139 c 440.941 427.139 440.957 427.154 441.145
 427.342 c 441.16 427.358 441.16 427.373 441.348 427.561 c 441.785 427.154
 442.238 427.139 442.441 427.139 c 443.582 427.139 444.051 427.811 444.051
 428.529 c 444.051 429.045 443.754 429.358 443.629 429.467 c 443.301 429.795
 442.91 429.873 442.488 429.951 c 441.926 430.061 441.27 430.186 441.27 
430.764 c 441.27 431.123 441.52 431.529 442.379 431.529 c 443.473 431.529
 443.535 430.623 443.551 430.326 c 443.551 430.233 443.645 430.233 443.66
 430.233 c 443.801 430.233 443.801 430.279 443.801 430.467 c 443.801 431.483
 l 443.801 431.639 443.801 431.717 443.691 431.717 c 443.645 431.717 443.613
 431.717 443.488 431.592 c 443.457 431.561 443.363 431.467 443.316 431.436
 c 442.941 431.717 442.535 431.717 442.379 431.717 c 441.16 431.717 440.785
 431.045 440.785 430.483 c 440.785 430.139 440.941 429.858 441.207 429.639
 c 441.535 429.389 441.816 429.326 442.535 429.186 c h
442.535 429.186 m f
446.152 431.654 m 444.762 431.545 l 444.762 431.233 l 445.402 431.233 445.496
 431.17 445.496 430.686 c 445.496 427.998 l 445.496 427.561 445.387 427.561
 444.715 427.561 c 444.715 427.248 l 445.027 427.264 445.574 427.279 445.809
 427.279 c 446.168 427.279 446.512 427.264 446.855 427.248 c 446.855 427.561
 l 446.184 427.561 446.152 427.608 446.152 427.998 c h
446.184 433.389 m 446.184 433.701 445.949 433.92 445.668 433.92 c 445.355
 433.92 445.137 433.654 445.137 433.389 c 445.137 433.123 445.355 432.858
 445.668 432.858 c 445.949 432.858 446.184 433.076 446.184 433.389 c h
446.184 433.389 m f
451.844 429.389 m 451.844 430.654 450.859 431.717 449.656 431.717 c 448.406
 431.717 447.438 430.623 447.438 429.389 c 447.438 428.092 448.469 427.139
 449.641 427.139 c 450.844 427.139 451.844 428.123 451.844 429.389 c h
449.656 427.389 m 449.219 427.389 448.781 427.592 448.516 428.061 c 448.266
 428.498 448.266 429.108 448.266 429.467 c 448.266 429.858 448.266 430.389
 448.5 430.826 c 448.766 431.279 449.234 431.498 449.641 431.498 c 450.078
 431.498 450.5 431.279 450.766 430.842 c 451.031 430.42 451.031 429.842 
451.031 429.467 c 451.031 429.108 451.031 428.561 450.812 428.123 c 450.578
 427.67 450.141 427.389 449.656 427.389 c h
449.656 427.389 m f
453.23 430.67 m 453.23 427.998 l 453.23 427.561 453.121 427.561 452.449
 427.561 c 452.449 427.248 l 452.809 427.264 453.309 427.279 453.59 427.279
 c 453.84 427.279 454.355 427.264 454.699 427.248 c 454.699 427.561 l 454.027
 427.561 453.918 427.561 453.918 427.998 c 453.918 429.842 l 453.918 430.873
 454.637 431.436 455.262 431.436 c 455.902 431.436 456.012 430.904 456.012
 430.326 c 456.012 427.998 l 456.012 427.561 455.902 427.561 455.23 427.561
 c 455.23 427.248 l 455.574 427.264 456.09 427.279 456.355 427.279 c 456.605
 427.279 457.137 427.264 457.465 427.248 c 457.465 427.561 l 456.949 427.561
 456.699 427.561 456.699 427.858 c 456.699 429.764 l 456.699 430.623 456.699
 430.92 456.387 431.279 c 456.246 431.451 455.918 431.654 455.34 431.654
 c 454.605 431.654 454.137 431.233 453.855 430.608 c 453.855 431.654 l 452.449
 431.545 l 452.449 431.233 l 453.152 431.233 453.23 431.17 453.23 430.67
 c h
453.23 430.67 m f
344.867 431.576 m 343.586 431.873 l 342.961 432.029 342.586 432.561 342.586
 433.139 c 342.586 433.842 343.117 434.451 343.898 434.451 c 345.555 434.451
 345.773 432.811 345.836 432.373 c 345.852 432.311 345.852 432.248 345.961
 432.248 c 346.086 432.248 346.086 432.295 346.086 432.483 c 346.086 434.483
 l 346.086 434.654 346.086 434.733 345.977 434.733 c 345.914 434.733 345.898
 434.717 345.836 434.592 c 345.477 434.029 l 345.18 434.326 344.773 434.733
 343.883 434.733 c 342.773 434.733 341.945 433.858 341.945 432.795 c 341.945
 431.967 342.477 431.233 343.242 430.967 c 343.352 430.936 343.867 430.811
 344.57 430.639 c 344.836 430.576 345.133 430.498 345.414 430.139 c 345.617
 429.873 345.727 429.545 345.727 429.217 c 345.727 428.514 345.227 427.795
 344.383 427.795 c 344.102 427.795 343.336 427.842 342.805 428.326 c 342.227
 428.873 342.195 429.498 342.195 429.858 c 342.18 429.967 342.102 429.967
 342.07 429.967 c 341.945 429.967 341.945 429.889 341.945 429.717 c 341.945
 427.717 l 341.945 427.545 341.945 427.483 342.055 427.483 c 342.117 427.483
 342.133 427.498 342.195 427.608 c 342.195 427.623 342.227 427.654 342.555
 428.186 c 342.867 427.842 343.508 427.483 344.398 427.483 c 345.555 427.483
 346.352 428.451 346.352 429.561 c 346.352 430.545 345.695 431.373 344.867
 431.576 c h
344.867 431.576 m f
351.605 429.842 m 351.605 431.108 350.621 432.17 349.418 432.17 c 348.168
 432.17 347.199 431.076 347.199 429.842 c 347.199 428.545 348.23 427.592
 349.402 427.592 c 350.605 427.592 351.605 428.576 351.605 429.842 c h
349.418 427.842 m 348.98 427.842 348.543 428.045 348.277 428.514 c 348.027
 428.951 348.027 429.561 348.027 429.92 c 348.027 430.311 348.027 430.842
 348.262 431.279 c 348.527 431.733 348.996 431.951 349.402 431.951 c 349.84
 431.951 350.262 431.733 350.527 431.295 c 350.793 430.873 350.793 430.295
 350.793 429.92 c 350.793 429.561 350.793 429.014 350.574 428.576 c 350.34
 428.123 349.902 427.842 349.418 427.842 c h
349.418 427.842 m f
355.789 428.483 m 355.789 427.592 l 357.227 427.701 l 357.227 428.014 l
 356.539 428.014 356.461 428.076 356.461 428.576 c 356.461 432.108 l 354.992
 431.998 l 354.992 431.686 l 355.68 431.686 355.773 431.623 355.773 431.123
 c 355.773 429.358 l 355.773 428.483 355.289 427.811 354.555 427.811 c 353.727
 427.811 353.68 428.279 353.68 428.795 c 353.68 432.108 l 352.211 431.998
 l 352.211 431.686 l 352.992 431.686 352.992 431.654 352.992 430.779 c 352.992
 429.279 l 352.992 428.498 352.992 427.592 354.508 427.592 c 355.07 427.592
 355.508 427.873 355.789 428.483 c h
355.789 428.483 m f
358.527 431.123 m 358.527 428.451 l 358.527 428.014 358.418 428.014 357.746
 428.014 c 357.746 427.701 l 358.105 427.717 358.605 427.733 358.887 427.733
 c 359.137 427.733 359.652 427.717 359.996 427.701 c 359.996 428.014 l 359.324
 428.014 359.215 428.014 359.215 428.451 c 359.215 430.295 l 359.215 431.326
 359.934 431.889 360.559 431.889 c 361.199 431.889 361.309 431.358 361.309
 430.779 c 361.309 428.451 l 361.309 428.014 361.199 428.014 360.527 428.014
 c 360.527 427.701 l 360.871 427.717 361.387 427.733 361.652 427.733 c 361.902
 427.733 362.434 427.717 362.762 427.701 c 362.762 428.014 l 362.246 428.014
 361.996 428.014 361.996 428.311 c 361.996 430.217 l 361.996 431.076 361.996
 431.373 361.684 431.733 c 361.543 431.904 361.215 432.108 360.637 432.108
 c 359.902 432.108 359.434 431.686 359.152 431.061 c 359.152 432.108 l 357.746
 431.998 l 357.746 431.686 l 358.449 431.686 358.527 431.623 358.527 431.123
 c h
358.527 431.123 m f
366.75 428.248 m 366.75 427.592 l 368.219 427.701 l 368.219 428.014 l 367.531
 428.014 367.438 428.076 367.438 428.576 c 367.438 434.623 l 366.016 434.514
 l 366.016 434.201 l 366.703 434.201 366.781 434.139 366.781 433.639 c 366.781
 431.483 l 366.5 431.842 366.062 432.108 365.531 432.108 c 364.359 432.108
 363.312 431.123 363.312 429.842 c 363.312 428.576 364.281 427.592 365.422
 427.592 c 366.062 427.592 366.5 427.936 366.75 428.248 c h
366.75 430.92 m 366.75 428.873 l 366.75 428.701 366.75 428.686 366.641 
428.514 c 366.344 428.029 365.906 427.811 365.469 427.811 c 365.016 427.811
 364.656 428.076 364.422 428.451 c 364.172 428.858 364.141 429.42 364.141
 429.842 c 364.141 430.201 364.156 430.795 364.438 431.248 c 364.656 431.561
 365.031 431.889 365.578 431.889 c 365.922 431.889 366.344 431.733 366.641
 431.295 c 366.75 431.123 366.75 431.108 366.75 430.92 c h
366.75 430.92 m f
0.701961 g
389.766 405.354 19.84 -42.52 re f
378.75 404.998 7.086 -18.75 re f
412.5 404.998 7.086 -18.75 re f
388.348 436.537 22.676 -22.68 re f
0 g
284.922 449.108 m 278.828 449.108 l 278.641 446.858 l 278.891 446.858 l
 279.031 448.467 279.172 448.795 280.688 448.795 c 280.859 448.795 281.125
 448.795 281.219 448.779 c 281.438 448.733 281.438 448.623 281.438 448.404
 c 281.438 443.139 l 281.438 442.811 281.438 442.67 280.391 442.67 c 279.984
 442.67 l 279.984 442.358 l 280.391 442.389 281.406 442.389 281.875 442.389
 c 282.328 442.389 283.359 442.389 283.766 442.358 c 283.766 442.67 l 283.359
 442.67 l 282.312 442.67 282.312 442.811 282.312 443.139 c 282.312 448.404
 l 282.312 448.592 282.312 448.733 282.5 448.779 c 282.609 448.795 282.875
 448.795 283.062 448.795 c 284.578 448.795 284.719 448.467 284.859 446.858
 c 285.109 446.858 l h
284.922 449.108 m f
287.961 443.108 m 288.008 442.717 288.273 442.295 288.742 442.295 c 288.961
 442.295 289.57 442.436 289.57 443.248 c 289.57 443.811 l 289.32 443.811
 l 289.32 443.248 l 289.32 442.67 289.07 442.608 288.961 442.608 c 288.633
 442.608 288.586 443.061 288.586 443.108 c 288.586 445.092 l 288.586 445.514
 288.586 445.904 288.227 446.279 c 287.836 446.67 287.336 446.826 286.867
 446.826 c 286.039 446.826 285.352 446.358 285.352 445.701 c 285.352 445.404
 285.555 445.233 285.82 445.233 c 286.102 445.233 286.273 445.436 286.273
 445.686 c 286.273 445.811 286.227 446.139 285.758 446.139 c 286.039 446.498
 286.523 446.608 286.836 446.608 c 287.336 446.608 287.898 446.217 287.898
 445.326 c 287.898 444.967 l 287.383 444.936 286.695 444.904 286.07 444.608
 c 285.32 444.264 285.07 443.748 285.07 443.311 c 285.07 442.498 286.039
 442.248 286.664 442.248 c 287.32 442.248 287.773 442.654 287.961 443.108
 c h
287.898 444.748 m 287.898 443.748 l 287.898 442.811 287.18 442.467 286.727
 442.467 c 286.242 442.467 285.836 442.811 285.836 443.311 c 285.836 443.858
 286.258 444.686 287.898 444.748 c h
287.898 444.748 m f
291.707 444.295 m 291.926 444.248 292.738 444.092 292.738 443.373 c 292.738
 442.873 292.395 442.467 291.613 442.467 c 290.77 442.467 290.41 443.029
 290.223 443.889 c 290.191 444.014 290.191 444.045 290.082 444.045 c 289.957
 444.045 289.957 443.983 289.957 443.811 c 289.957 442.483 l 289.957 442.311
 289.957 442.248 290.066 442.248 c 290.113 442.248 290.129 442.264 290.316
 442.451 c 290.332 442.467 290.332 442.483 290.52 442.67 c 290.957 442.264
 291.41 442.248 291.613 442.248 c 292.754 442.248 293.223 442.92 293.223
 443.639 c 293.223 444.154 292.926 444.467 292.801 444.576 c 292.473 444.904
 292.082 444.983 291.66 445.061 c 291.098 445.17 290.441 445.295 290.441
 445.873 c 290.441 446.233 290.691 446.639 291.551 446.639 c 292.645 446.639
 292.707 445.733 292.723 445.436 c 292.723 445.342 292.816 445.342 292.832
 445.342 c 292.973 445.342 292.973 445.389 292.973 445.576 c 292.973 446.592
 l 292.973 446.748 292.973 446.826 292.863 446.826 c 292.816 446.826 292.785
 446.826 292.66 446.701 c 292.629 446.67 292.535 446.576 292.488 446.545
 c 292.113 446.826 291.707 446.826 291.551 446.826 c 290.332 446.826 289.957
 446.154 289.957 445.592 c 289.957 445.248 290.113 444.967 290.379 444.748
 c 290.707 444.498 290.988 444.436 291.707 444.295 c h
291.707 444.295 m f
295.277 446.342 m 296.715 446.342 l 296.715 446.654 l 295.277 446.654 l
 295.277 448.483 l 295.027 448.483 l 295.027 447.67 294.73 446.608 293.746
 446.561 c 293.746 446.342 l 294.59 446.342 l 294.59 443.592 l 294.59 442.373
 295.527 442.248 295.887 442.248 c 296.59 442.248 296.871 442.951 296.871
 443.592 c 296.871 444.154 l 296.621 444.154 l 296.621 443.608 l 296.621
 442.873 296.324 442.498 295.949 442.498 c 295.277 442.498 295.277 443.404
 295.277 443.576 c h
295.277 446.342 m f
298.543 444.873 m 298.605 446.358 299.449 446.608 299.793 446.608 c 300.809
 446.608 300.918 445.264 300.918 444.873 c h
298.543 444.654 m 301.324 444.654 l 301.543 444.654 301.574 444.654 301.574
 444.873 c 301.574 445.858 301.027 446.826 299.793 446.826 c 298.637 446.826
 297.715 445.795 297.715 444.545 c 297.715 443.217 298.762 442.248 299.902
 442.248 c 301.121 442.248 301.574 443.358 301.574 443.545 c 301.574 443.639
 301.496 443.67 301.434 443.67 c 301.355 443.67 301.324 443.608 301.309 
443.529 c 300.965 442.498 300.059 442.498 299.965 442.498 c 299.465 442.498
 299.074 442.795 298.84 443.17 c 298.543 443.639 298.543 444.295 298.543
 444.654 c h
298.543 444.654 m f
0.75 w
q 1 0 0 -1 0 595.275574 cm
242.25 141.527 m 242.25 152.777 l S Q
242.25 440.768 m 240.75 443.365 l 243.75 443.365 l h
242.25 440.768 m f*
0.375 w
q 0 -1 -1 0 0 595.275574 cm
154.508 -242.25 m 151.91 -240.75 l 151.91 -243.75 l h
154.508 -242.25 m S Q
0.75 w
q 1 0 0 -1 0 595.275574 cm
277.5 152.777 m 258.75 160.277 l S Q
257.145 434.358 m 258.996 436.713 l 260.109 433.928 l h
257.145 434.358 m f*
0.348179 w
q -1 -0.4 -0.4 1 0 595.275574 cm
-166.187 -227.393 m -168.596 -226.001 l -168.595 -228.786 l h
-166.187 -227.393 m S Q
0.75 w
q 1 0 0 -1 0 595.275574 cm
277.5 171.527 m 262.5 171.527 l S Q
260.77 423.748 m 263.363 425.248 l 263.363 422.248 l h
260.77 423.748 m f*
0.375 w
q -1 0 0 1 0 595.275574 cm
-260.77 -171.527 m -263.363 -170.027 l -263.363 -173.027 l h
-260.77 -171.527 m S Q
0.751181 w
q 1 0 0 -1 0 595.275574 cm
211.5 171.527 m 222.75 171.527 l S Q
224.484 423.748 m 221.883 422.248 l 221.883 425.252 l h
224.484 423.748 m f*
0.375591 w
q 1 0 0 -1 0 595.275574 cm
224.484 171.527 m 221.883 173.027 l 221.883 170.023 l h
224.484 171.527 m S Q
0.75 w
q 1 0 0 -1 0 595.275574 cm
213.75 152.777 m 225 160.277 l S Q
226.441 434.041 m 223.449 434.233 l 225.113 436.729 l h
226.441 434.041 m f*
0.312019 w
q 1 -0.666666 -0.666666 -1 0 595.275574 cm
231.183 7.113 m 229.023 8.361 l 229.023 5.865 l h
231.183 7.113 m S Q
0.75 w
q 1 0 0 -1 0 595.275574 cm
400.699 141.527 m 400.699 152.777 l S Q
400.699 440.768 m 399.199 443.365 l 402.199 443.365 l h
400.699 440.768 m f*
0.375 w
q 0 -1 -1 0 0 595.275574 cm
154.508 -400.699 m 151.91 -399.199 l 151.91 -402.199 l h
154.508 -400.699 m S Q
0.75 w
q 1 0 0 -1 0 595.275574 cm
428.25 164.027 m 417 164.027 l S Q
415.27 431.248 m 417.863 432.748 l 417.863 429.748 l h
415.27 431.248 m f*
0.375 w
q -1 0 0 1 0 595.275574 cm
-415.27 -164.027 m -417.863 -162.527 l -417.863 -165.527 l h
-415.27 -164.027 m S Q
0.75 w
q 1 0 0 -1 0 595.275574 cm
370.5 164.027 m 381.75 164.027 l S Q
383.48 431.248 m 380.887 429.748 l 380.887 432.748 l h
383.48 431.248 m f*
0.375 w
q 1 0 0 -1 0 595.275574 cm
383.48 164.027 m 380.887 165.527 l 380.887 162.527 l h
383.48 164.027 m S Q
392.465 344.194 m 392.527 344.459 392.543 344.475 392.871 344.475 c 393.512
 344.475 l 394.168 344.475 394.777 344.319 394.777 343.662 c 394.777 343.319
 394.605 342.756 394.23 342.506 c 393.855 342.225 393.402 342.147 392.934
 342.147 c 391.949 342.147 l h
393.824 342.006 m 394.793 342.256 395.559 342.85 395.559 343.537 c 395.559
 344.225 394.777 344.74 393.668 344.74 c 391.324 344.74 l 391.184 344.74
 391.074 344.74 391.074 344.6 c 391.074 344.475 391.184 344.475 391.309 
344.475 c 391.574 344.475 391.809 344.475 391.809 344.35 c 391.809 344.319
 391.793 344.319 391.777 344.209 c 390.699 339.928 l 390.637 339.631 390.621
 339.569 390.027 339.569 c 389.871 339.569 389.777 339.569 389.777 339.412
 c 389.777 339.381 389.809 339.303 389.902 339.303 c 390.059 339.303 390.246
 339.319 390.402 339.334 c 390.887 339.334 l 391.637 339.334 391.871 339.303
 391.918 339.303 c 391.965 339.303 392.074 339.303 392.074 339.459 c 392.074
 339.569 391.965 339.569 391.84 339.569 c 391.809 339.569 391.668 339.569
 391.527 339.584 c 391.355 339.6 391.34 339.615 391.34 339.694 c 391.34 
339.74 391.355 339.787 391.371 339.819 c 391.887 341.912 l 392.918 341.912
 l 393.637 341.912 393.871 341.537 393.871 341.209 c 393.871 341.1 393.809
 340.865 393.777 340.709 c 393.699 340.475 393.621 340.162 393.621 340.006
 c 393.621 339.397 394.152 339.131 394.746 339.131 c 395.434 339.131 395.762
 339.912 395.762 340.069 c 395.762 340.1 395.73 340.178 395.637 340.178 
c 395.543 340.178 395.527 340.115 395.512 340.069 c 395.34 339.522 394.996
 339.365 394.762 339.365 c 394.465 339.365 394.434 339.584 394.434 339.85
 c 394.434 340.115 394.48 340.459 394.512 340.725 c 394.543 340.959 394.543
 341.006 394.543 341.084 c 394.543 341.569 394.246 341.85 393.824 342.006
 c h
393.824 342.006 m f
399.766 341.444 m 399.766 342.225 399.203 342.819 398.375 342.819 c 397.25
 342.819 396.141 341.725 396.141 340.6 c 396.141 339.787 396.719 339.225
 397.531 339.225 c 398.672 339.225 399.766 340.334 399.766 341.444 c h
397.547 339.444 m 397.266 339.444 396.797 339.584 396.797 340.319 c 396.797
 340.647 396.938 341.506 397.328 342.006 c 397.719 342.506 398.156 342.6
 398.375 342.6 c 398.703 342.6 399.125 342.397 399.125 341.725 c 399.125
 341.412 398.969 340.647 398.672 340.178 c 398.375 339.725 397.938 339.444
 397.547 339.444 c h
397.547 339.444 m f
401.824 344.6 m 401.84 344.615 401.855 344.709 401.855 344.725 c 401.855
 344.756 401.824 344.834 401.73 344.834 c 401.699 344.834 401.449 344.803
 401.277 344.787 c 400.824 344.756 l 400.652 344.74 400.574 344.74 400.574
 344.6 c 400.574 344.475 400.684 344.475 400.777 344.475 c 401.168 344.475
 401.168 344.428 401.168 344.365 c 401.168 344.319 401.074 343.99 401.027
 343.819 c 400.34 341.037 l 400.277 340.772 400.277 340.647 400.277 340.522
 c 400.277 339.694 400.777 339.225 401.387 339.225 c 402.371 339.225 403.387
 340.35 403.387 341.506 c 403.387 342.303 402.887 342.819 402.246 342.819
 c 401.793 342.819 401.449 342.537 401.277 342.381 c h
401.387 339.444 m 401.105 339.444 400.824 339.662 400.824 340.256 c 400.824
 340.459 400.855 340.662 400.949 341.053 c 400.996 341.272 401.059 341.506
 401.121 341.74 c 401.168 341.881 401.168 341.897 401.262 342.006 c 401.527
 342.35 401.887 342.6 402.215 342.6 c 402.621 342.6 402.777 342.209 402.777
 341.85 c 402.777 341.553 402.59 340.694 402.355 340.225 c 402.152 339.803
 401.762 339.444 401.387 339.444 c h
401.387 339.444 m f
407.48 341.444 m 407.48 342.225 406.918 342.819 406.09 342.819 c 404.965
 342.819 403.855 341.725 403.855 340.6 c 403.855 339.787 404.434 339.225
 405.246 339.225 c 406.387 339.225 407.48 340.334 407.48 341.444 c h
405.262 339.444 m 404.98 339.444 404.512 339.584 404.512 340.319 c 404.512
 340.647 404.652 341.506 405.043 342.006 c 405.434 342.506 405.871 342.6
 406.09 342.6 c 406.418 342.6 406.84 342.397 406.84 341.725 c 406.84 341.412
 406.684 340.647 406.387 340.178 c 406.09 339.725 405.652 339.444 405.262
 339.444 c h
405.262 339.444 m f
409.367 342.475 m 410.148 342.475 l 410.289 342.475 410.383 342.475 410.383
 342.631 c 410.383 342.74 410.289 342.74 410.148 342.74 c 409.43 342.74 
l 409.711 343.865 l 409.742 343.99 409.742 344.022 409.742 344.037 c 409.742
 344.209 409.617 344.287 409.477 344.287 c 409.211 344.287 409.148 344.069
 409.07 343.709 c 408.82 342.74 l 408.055 342.74 l 407.898 342.74 407.805
 342.74 407.805 342.584 c 407.805 342.475 407.898 342.475 408.039 342.475
 c 408.758 342.475 l 408.273 340.569 l 408.227 340.365 408.164 340.084 408.164
 339.975 c 408.164 339.49 408.555 339.225 408.977 339.225 c 409.82 339.225
 410.305 340.35 410.305 340.444 c 410.305 340.537 410.242 340.553 410.195
 340.553 c 410.102 340.553 410.102 340.522 410.039 340.397 c 409.883 340.006
 409.477 339.444 408.992 339.444 c 408.836 339.444 408.727 339.553 408.727
 339.819 c 408.727 339.975 408.758 340.053 408.773 340.162 c h
409.367 342.475 m f
229.82 344.287 m 229.914 344.6 229.93 344.662 230.477 344.662 c 230.664
 344.662 230.758 344.662 230.758 344.819 c 230.758 344.834 230.758 344.928
 230.617 344.928 c 230.477 344.928 230.289 344.912 230.133 344.912 c 229.633
 344.912 l 228.867 344.912 228.664 344.928 228.602 344.928 c 228.57 344.928
 228.445 344.928 228.445 344.787 c 228.445 344.662 228.539 344.662 228.68
 344.662 c 228.93 344.662 229.164 344.662 229.164 344.537 c 229.164 344.506
 229.164 344.506 229.133 344.397 c 228.664 342.459 l 226.086 342.459 l 226.555
 344.319 l 226.617 344.6 226.633 344.662 227.227 344.662 c 227.383 344.662
 227.477 344.662 227.477 344.819 c 227.477 344.834 227.477 344.928 227.336
 344.928 c 227.195 344.928 226.992 344.912 226.852 344.912 c 226.352 344.912
 l 225.586 344.912 225.367 344.928 225.32 344.928 c 225.289 344.928 225.164
 344.928 225.164 344.787 c 225.164 344.662 225.258 344.662 225.383 344.662
 c 225.648 344.662 225.883 344.662 225.883 344.537 c 225.883 344.506 225.883
 344.506 225.852 344.397 c 224.789 340.115 l 224.711 339.819 224.695 339.756
 224.102 339.756 c 223.961 339.756 223.852 339.756 223.852 339.6 c 223.852
 339.569 223.883 339.49 223.992 339.49 c 224.133 339.49 224.336 339.506 
224.477 339.522 c 224.992 339.522 l 225.758 339.522 225.961 339.49 226.023
 339.49 c 226.07 339.49 226.18 339.49 226.18 339.647 c 226.18 339.756 226.07
 339.756 225.945 339.756 c 225.914 339.756 225.773 339.756 225.633 339.772
 c 225.477 339.787 225.445 339.803 225.445 339.881 c 225.445 339.928 225.477
 339.975 225.477 340.006 c 226.023 342.194 l 228.586 342.194 l 228.039 340.006
 l 227.961 339.756 227.82 339.756 227.336 339.756 c 227.242 339.756 227.148
 339.756 227.148 339.6 c 227.148 339.569 227.164 339.49 227.273 339.49 c
 227.414 339.49 227.617 339.506 227.758 339.522 c 228.273 339.522 l 229.039
 339.522 229.242 339.49 229.305 339.49 c 229.352 339.49 229.461 339.49 229.461
 339.647 c 229.461 339.756 229.352 339.756 229.227 339.756 c 229.195 339.756
 229.055 339.756 228.914 339.772 c 228.758 339.787 228.742 339.803 228.742
 339.881 c 228.742 339.928 228.758 339.975 228.758 340.006 c h
229.82 344.287 m f
234.016 340.365 m 233.984 340.209 233.609 339.631 233.078 339.631 c 232.688
 339.631 232.547 339.928 232.547 340.272 c 232.547 340.756 232.828 341.459
 233 341.912 c 233.078 342.115 233.109 342.178 233.109 342.334 c 233.109
 342.772 232.75 343.006 232.391 343.006 c 231.594 343.006 231.266 341.881
 231.266 341.787 c 231.266 341.709 231.328 341.678 231.391 341.678 c 231.5
 341.678 231.5 341.725 231.531 341.803 c 231.734 342.522 232.078 342.787
 232.359 342.787 c 232.484 342.787 232.547 342.709 232.547 342.522 c 232.547
 342.334 232.484 342.147 232.375 341.865 c 232.047 341.022 231.969 340.678
 231.969 340.397 c 231.969 339.615 232.562 339.412 233.031 339.412 c 233.625
 339.412 234 339.881 234.031 339.928 c 234.156 339.553 234.516 339.412 234.797
 339.412 c 235.172 339.412 235.359 339.725 235.406 339.85 c 235.578 340.131
 235.688 340.6 235.688 340.631 c 235.688 340.678 235.656 340.74 235.562 
340.74 c 235.469 340.74 235.453 340.694 235.391 340.49 c 235.297 340.084
 235.156 339.631 234.828 339.631 c 234.641 339.631 234.562 339.787 234.562
 340.006 c 234.562 340.147 234.641 340.412 234.688 340.615 c 234.734 340.819
 234.859 341.287 234.891 341.428 c 235.047 342.037 l 235.094 342.256 235.188
 342.631 235.188 342.678 c 235.188 342.881 235.031 342.928 234.938 342.928
 c 234.828 342.928 234.656 342.85 234.594 342.662 c h
234.016 340.365 m f
237.527 340.803 m 237.559 340.912 237.637 341.225 237.652 341.334 c 237.684
 341.412 237.73 341.615 237.746 341.694 c 237.762 341.725 238.027 342.24
 238.371 342.506 c 238.637 342.725 238.902 342.787 239.137 342.787 c 239.418
 342.787 239.59 342.6 239.59 342.24 c 239.59 342.053 239.543 341.865 239.449
 341.506 c 239.387 341.303 239.262 340.772 239.215 340.553 c 239.09 340.069
 l 239.043 339.944 238.996 339.694 238.996 339.662 c 238.996 339.475 239.152
 339.412 239.246 339.412 c 239.387 339.412 239.512 339.506 239.574 339.6
 c 239.59 339.647 239.652 339.928 239.699 340.084 c 239.871 340.803 l 239.902
 340.912 239.98 341.225 240.012 341.334 c 240.121 341.772 240.121 341.772
 240.293 342.037 c 240.559 342.428 240.934 342.787 241.465 342.787 c 241.762
 342.787 241.934 342.615 241.934 342.24 c 241.934 341.803 241.59 340.881
 241.434 340.506 c 241.355 340.303 241.34 340.24 241.34 340.084 c 241.34
 339.631 241.715 339.412 242.059 339.412 c 242.84 339.412 243.168 340.522
 243.168 340.631 c 243.168 340.709 243.09 340.74 243.043 340.74 c 242.949
 340.74 242.934 340.678 242.902 340.6 c 242.715 339.944 242.387 339.631 
242.074 339.631 c 241.949 339.631 241.887 339.709 241.887 339.897 c 241.887
 340.084 241.949 340.256 242.027 340.459 c 242.152 340.756 242.496 341.678
 242.496 342.115 c 242.496 342.725 242.09 343.006 241.512 343.006 c 240.965
 343.006 240.512 342.725 240.152 342.225 c 240.09 342.865 239.574 343.006
 239.168 343.006 c 238.793 343.006 238.309 342.881 237.871 342.303 c 237.809
 342.787 237.434 343.006 237.059 343.006 c 236.777 343.006 236.574 342.834
 236.449 342.569 c 236.246 342.194 236.168 341.803 236.168 341.787 c 236.168
 341.709 236.23 341.678 236.293 341.678 c 236.402 341.678 236.402 341.709
 236.465 341.928 c 236.559 342.319 236.699 342.787 237.027 342.787 c 237.246
 342.787 237.293 342.584 237.293 342.412 c 237.293 342.256 237.246 342.115
 237.184 341.85 c 237.168 341.787 237.043 341.319 237.012 341.209 c 236.715
 340.006 l 236.684 339.881 236.637 339.694 236.637 339.662 c 236.637 339.475
 236.793 339.412 236.902 339.412 c 237.043 339.412 237.168 339.506 237.215
 339.6 c 237.246 339.647 237.309 339.928 237.34 340.084 c h
237.527 340.803 m f
246.547 342.522 m 246.469 342.662 246.25 343.006 245.75 343.006 c 244.812
 343.006 243.766 341.897 243.766 340.725 c 243.766 339.881 244.297 339.412
 244.906 339.412 c 245.422 339.412 245.859 339.819 246 339.975 c 246.141
 339.428 246.688 339.412 246.781 339.412 c 247.156 339.412 247.328 339.709
 247.391 339.85 c 247.562 340.131 247.672 340.6 247.672 340.631 c 247.672
 340.678 247.641 340.74 247.547 340.74 c 247.453 340.74 247.438 340.678 
247.375 340.49 c 247.266 340.053 247.125 339.631 246.812 339.631 c 246.625
 339.631 246.547 339.787 246.547 340.006 c 246.547 340.147 246.625 340.412
 246.672 340.615 c 246.719 340.819 246.844 341.287 246.875 341.428 c 247.031
 342.037 l 247.078 342.225 247.156 342.569 247.156 342.6 c 247.156 342.787
 247 342.85 246.906 342.85 c 246.781 342.85 246.578 342.772 246.547 342.522
 c h
246 340.35 m 245.609 339.803 245.188 339.631 244.938 339.631 c 244.562 
339.631 244.391 339.975 244.391 340.381 c 244.391 340.756 244.594 341.615
 244.781 341.959 c 245 342.444 245.391 342.787 245.766 342.787 c 246.281
 342.787 246.438 342.194 246.438 342.1 c 246.438 342.069 246.234 341.287
 246.188 341.084 c 246.078 340.709 246.078 340.694 246 340.35 c h
246 340.35 m f
249.516 340.803 m 249.547 340.912 249.625 341.225 249.641 341.334 c 249.75
 341.772 249.75 341.772 249.938 342.037 c 250.203 342.428 250.578 342.787
 251.109 342.787 c 251.391 342.787 251.562 342.615 251.562 342.24 c 251.562
 341.803 251.234 340.897 251.078 340.506 c 250.969 340.24 250.969 340.194
 250.969 340.084 c 250.969 339.631 251.344 339.412 251.688 339.412 c 252.469
 339.412 252.797 340.522 252.797 340.631 c 252.797 340.709 252.734 340.74
 252.672 340.74 c 252.578 340.74 252.562 340.678 252.547 340.6 c 252.359
 339.944 252.016 339.631 251.719 339.631 c 251.594 339.631 251.531 339.709
 251.531 339.897 c 251.531 340.084 251.594 340.256 251.672 340.459 c 251.781
 340.756 252.141 341.678 252.141 342.115 c 252.141 342.725 251.719 343.006
 251.156 343.006 c 250.5 343.006 250.094 342.615 249.859 342.319 c 249.797
 342.756 249.453 343.006 249.047 343.006 c 248.766 343.006 248.562 342.819
 248.438 342.569 c 248.234 342.194 248.156 341.803 248.156 341.787 c 248.156
 341.709 248.219 341.678 248.281 341.678 c 248.391 341.678 248.391 341.709
 248.453 341.928 c 248.547 342.319 248.688 342.787 249.016 342.787 c 249.234
 342.787 249.281 342.584 249.281 342.412 c 249.281 342.256 249.234 342.115
 249.172 341.85 c 249.156 341.787 249.031 341.319 249 341.209 c 248.703 
340.006 l 248.672 339.881 248.625 339.694 248.625 339.662 c 248.625 339.475
 248.781 339.412 248.891 339.412 c 249.031 339.412 249.156 339.506 249.203
 339.6 c 249.234 339.647 249.297 339.928 249.328 340.084 c h
249.516 340.803 m f
256.277 342.49 m 256.09 342.459 255.918 342.319 255.918 342.115 c 255.918
 341.975 256.012 341.865 256.184 341.865 c 256.309 341.865 256.559 341.959
 256.559 342.319 c 256.559 342.803 256.043 343.006 255.543 343.006 c 254.48
 343.006 254.137 342.24 254.137 341.834 c 254.137 341.756 254.137 341.475
 254.434 341.256 c 254.621 341.115 254.762 341.084 255.168 341.006 c 255.449
 340.944 255.902 340.865 255.902 340.459 c 255.902 340.24 255.746 339.99
 255.527 339.834 c 255.23 339.647 254.84 339.631 254.715 339.631 c 254.527
 339.631 253.98 339.662 253.777 339.99 c 254.184 340.006 254.246 340.334
 254.246 340.428 c 254.246 340.662 254.027 340.725 253.934 340.725 c 253.809
 340.725 253.48 340.615 253.48 340.178 c 253.48 339.709 253.98 339.412 254.715
 339.412 c 256.105 339.412 256.402 340.397 256.402 340.725 c 256.402 341.444
 255.621 341.6 255.324 341.647 c 254.934 341.725 254.621 341.772 254.621
 342.115 c 254.621 342.256 254.762 342.787 255.543 342.787 c 255.84 342.787
 256.152 342.694 256.277 342.49 c h
256.277 342.49 m f
0.701961 g
222.52 395.432 5.668 -9.922 re f
232.441 372.779 5.668 -9.922 re f
232.441 360.729 5.668 -9.918 re f
243.781 372.779 5.668 -9.922 re f
243.781 360.733 5.668 -9.922 re f
253.699 407.479 5.672 -9.918 re f
253.699 395.432 5.672 -9.922 re f
0.6 g
396.852 354.33 m 396.852 351.983 395.582 350.08 394.016 350.08 c 392.449
 350.08 391.18 351.983 391.18 354.33 c 391.18 356.678 392.449 358.584 394.016
 358.584 c 395.582 358.584 396.852 356.678 396.852 354.33 c h
396.852 354.33 m f
408.188 354.33 m 408.188 351.983 406.918 350.08 405.355 350.08 c 403.789
 350.08 402.52 351.983 402.52 354.33 c 402.52 356.678 403.789 358.584 405.355
 358.584 c 406.918 358.584 408.188 356.678 408.188 354.33 c h
408.188 354.33 m f
Q Q
showpage
%%Trailer
end restore
%%EOF
