%!PS-Adobe-3.0 EPSF-3.0
%%Creator: cairo 1.15.10 (http://cairographics.org)
%%CreationDate: Sun Oct 27 17:40:57 2019
%%Pages: 1
%%DocumentData: Clean7Bit
%%LanguageLevel: 2
%%BoundingBox: 0 0 274 132
%%EndComments
%%BeginProlog
50 dict begin
/q { gsave } bind def
/Q { grestore } bind def
/cm { 6 array astore concat } bind def
/w { setlinewidth } bind def
/J { setlinecap } bind def
/j { setlinejoin } bind def
/M { setmiterlimit } bind def
/d { setdash } bind def
/m { moveto } bind def
/l { lineto } bind def
/c { curveto } bind def
/h { closepath } bind def
/re { exch dup neg 3 1 roll 5 3 roll moveto 0 rlineto
      0 exch rlineto 0 rlineto closepath } bind def
/S { stroke } bind def
/f { fill } bind def
/f* { eofill } bind def
/n { newpath } bind def
/W { clip } bind def
/W* { eoclip } bind def
/BT { } bind def
/ET { } bind def
/BDC { mark 3 1 roll /BDC pdfmark } bind def
/EMC { mark /EMC pdfmark } bind def
/cairo_store_point { /cairo_point_y exch def /cairo_point_x exch def } def
/Tj { show currentpoint cairo_store_point } bind def
/TJ {
  {
    dup
    type /stringtype eq
    { show } { -0.001 mul 0 cairo_font_matrix dtransform rmoveto } ifelse
  } forall
  currentpoint cairo_store_point
} bind def
/cairo_selectfont { cairo_font_matrix aload pop pop pop 0 0 6 array astore
    cairo_font exch selectfont cairo_point_x cairo_point_y moveto } bind def
/Tf { pop /cairo_font exch def /cairo_font_matrix where
      { pop cairo_selectfont } if } bind def
/Td { matrix translate cairo_font_matrix matrix concatmatrix dup
      /cairo_font_matrix exch def dup 4 get exch 5 get cairo_store_point
      /cairo_font where { pop cairo_selectfont } if } bind def
/Tm { 2 copy 8 2 roll 6 array astore /cairo_font_matrix exch def
      cairo_store_point /cairo_font where { pop cairo_selectfont } if } bind def
/g { setgray } bind def
/rg { setrgbcolor } bind def
/d1 { setcachedevice } bind def
/cairo_data_source {
  CairoDataIndex CairoData length lt
    { CairoData CairoDataIndex get /CairoDataIndex CairoDataIndex 1 add def }
    { () } ifelse
} def
/cairo_flush_ascii85_file { cairo_ascii85_file status { cairo_ascii85_file flushfile } if } def
/cairo_image { image cairo_flush_ascii85_file } def
/cairo_imagemask { imagemask cairo_flush_ascii85_file } def
%%EndProlog
%%BeginSetup
%%EndSetup
%%Page: 1 1
%%BeginPageSetup
%%PageBoundingBox: 0 0 274 132
%%EndPageSetup
q 0 0 274 132 rectclip
1 0 0 -1 0 132 cm q
0.701961 g
74.523 44.598 m 74.523 52.957 67.566 59.73 58.988 59.73 c 50.406 59.73 
43.453 52.957 43.453 44.598 c 43.453 36.238 50.406 29.465 58.988 29.465 
c 67.566 29.465 74.523 36.238 74.523 44.598 c h
74.523 44.598 m f
0 g
32.242 5.453 m 32.242 5.094 32.258 4.984 33.023 4.984 c 33.273 4.984 l 
33.273 4.672 l 32.914 4.703 32.18 4.703 31.805 4.703 c 31.43 4.703 30.68
 4.703 30.336 4.672 c 30.336 4.984 l 30.57 4.984 l 31.336 4.984 31.352 5.094
 31.352 5.453 c 31.352 7.781 l 28.383 7.781 l 28.383 5.453 l 28.383 5.094
 28.398 4.984 29.164 4.984 c 29.398 4.984 l 29.398 4.672 l 29.055 4.703 
28.32 4.703 27.93 4.703 c 27.555 4.703 26.805 4.703 26.461 4.672 c 26.461
 4.984 l 26.695 4.984 l 27.461 4.984 27.492 5.094 27.492 5.453 c 27.492 
10.703 l 27.492 11.062 27.461 11.172 26.695 11.172 c 26.461 11.172 l 26.461
 11.484 l 26.805 11.453 27.555 11.453 27.93 11.453 c 28.305 11.453 29.055
 11.453 29.398 11.484 c 29.398 11.172 l 29.164 11.172 l 28.398 11.172 28.383
 11.062 28.383 10.703 c 28.383 8.094 l 31.352 8.094 l 31.352 10.703 l 31.352
 11.062 31.336 11.172 30.57 11.172 c 30.336 11.172 l 30.336 11.484 l 30.68
 11.453 31.414 11.453 31.789 11.453 c 32.18 11.453 32.914 11.453 33.273 
11.484 c 33.273 11.172 l 33.023 11.172 l 32.258 11.172 32.242 11.062 32.242
 10.703 c h
32.242 5.453 m f
36.918 10.734 m 36.965 11.125 37.23 11.547 37.699 11.547 c 37.918 11.547
 38.527 11.406 38.527 10.594 c 38.527 10.031 l 38.277 10.031 l 38.277 10.594
 l 38.277 11.172 38.027 11.234 37.918 11.234 c 37.59 11.234 37.543 10.781
 37.543 10.734 c 37.543 8.75 l 37.543 8.328 37.543 7.938 37.184 7.562 c 
36.793 7.172 36.293 7.016 35.824 7.016 c 34.996 7.016 34.309 7.484 34.309
 8.141 c 34.309 8.438 34.512 8.609 34.777 8.609 c 35.059 8.609 35.23 8.406
 35.23 8.156 c 35.23 8.031 35.184 7.703 34.715 7.703 c 34.996 7.344 35.48
 7.234 35.793 7.234 c 36.293 7.234 36.855 7.625 36.855 8.516 c 36.855 8.875
 l 36.34 8.906 35.652 8.938 35.027 9.234 c 34.277 9.578 34.027 10.094 34.027
 10.531 c 34.027 11.344 34.996 11.594 35.621 11.594 c 36.277 11.594 36.73
 11.188 36.918 10.734 c h
36.855 9.094 m 36.855 10.094 l 36.855 11.031 36.137 11.375 35.684 11.375
 c 35.199 11.375 34.793 11.031 34.793 10.531 c 34.793 9.984 35.215 9.156
 36.855 9.094 c h
36.855 9.094 m f
40.305 7.734 m 40.305 7.078 l 38.867 7.188 l 38.867 7.5 l 39.57 7.5 39.648
 7.562 39.648 8 c 39.648 12.656 l 39.648 13.109 39.539 13.109 38.867 13.109
 c 38.867 13.422 l 39.211 13.406 39.727 13.391 39.977 13.391 c 40.258 13.391
 40.758 13.406 41.102 13.422 c 41.102 13.109 l 40.445 13.109 40.336 13.109
 40.336 12.656 c 40.336 10.891 l 40.383 11.062 40.805 11.594 41.555 11.594
 c 42.742 11.594 43.773 10.609 43.773 9.328 c 43.773 8.062 42.82 7.078 41.695
 7.078 c 40.914 7.078 40.492 7.516 40.305 7.734 c h
40.336 10.344 m 40.336 8.125 l 40.617 7.609 41.102 7.328 41.617 7.328 c
 42.352 7.328 42.945 8.203 42.945 9.328 c 42.945 10.531 42.258 11.375 41.523
 11.375 c 41.117 11.375 40.742 11.172 40.477 10.766 c 40.336 10.562 40.336
 10.547 40.336 10.344 c h
40.336 10.344 m f
45.84 7.5 m 47.277 7.5 l 47.277 7.188 l 45.84 7.188 l 45.84 5.359 l 45.59
 5.359 l 45.59 6.172 45.293 7.234 44.309 7.281 c 44.309 7.5 l 45.152 7.5
 l 45.152 10.25 l 45.152 11.469 46.09 11.594 46.449 11.594 c 47.152 11.594
 47.434 10.891 47.434 10.25 c 47.434 9.688 l 47.184 9.688 l 47.184 10.234
 l 47.184 10.969 46.887 11.344 46.512 11.344 c 45.84 11.344 45.84 10.438
 45.84 10.266 c h
45.84 7.5 m f
49.762 7.078 m 48.371 7.188 l 48.371 7.5 l 49.012 7.5 49.105 7.562 49.105
 8.047 c 49.105 10.734 l 49.105 11.172 48.996 11.172 48.324 11.172 c 48.324
 11.484 l 48.637 11.469 49.184 11.453 49.418 11.453 c 49.777 11.453 50.121
 11.469 50.465 11.484 c 50.465 11.172 l 49.793 11.172 49.762 11.125 49.762
 10.734 c h
49.793 5.344 m 49.793 5.031 49.559 4.812 49.277 4.812 c 48.965 4.812 48.746
 5.078 48.746 5.344 c 48.746 5.609 48.965 5.875 49.277 5.875 c 49.559 5.875
 49.793 5.656 49.793 5.344 c h
49.793 5.344 m f
51.938 9.312 m 51.938 7.688 52.75 7.266 53.281 7.266 c 53.375 7.266 54 
7.281 54.344 7.641 c 53.938 7.672 53.875 7.969 53.875 8.094 c 53.875 8.359
 54.062 8.547 54.328 8.547 c 54.594 8.547 54.797 8.391 54.797 8.078 c 54.797
 7.406 54.031 7.016 53.266 7.016 c 52.016 7.016 51.109 8.094 51.109 9.328
 c 51.109 10.609 52.094 11.594 53.25 11.594 c 54.578 11.594 54.906 10.391
 54.906 10.297 c 54.906 10.203 54.797 10.203 54.766 10.203 c 54.688 10.203
 54.656 10.234 54.641 10.297 c 54.359 11.219 53.703 11.344 53.344 11.344
 c 52.812 11.344 51.938 10.922 51.938 9.312 c h
51.938 9.312 m f
64.305 4.703 m 58.836 4.703 l 58.836 5.016 l 59.07 5.016 l 59.836 5.016
 59.867 5.125 59.867 5.484 c 59.867 10.703 l 59.867 11.062 59.836 11.172
 59.07 11.172 c 58.836 11.172 l 58.836 11.484 l 59.18 11.453 59.961 11.453
 60.352 11.453 c 60.758 11.453 61.664 11.453 62.023 11.484 c 62.023 11.172
 l 61.695 11.172 l 60.758 11.172 60.758 11.047 60.758 10.703 c 60.758 8.25
 l 61.602 8.25 l 62.57 8.25 62.664 8.562 62.664 9.406 c 62.914 9.406 l 62.914
 6.766 l 62.664 6.766 l 62.664 7.609 62.57 7.938 61.602 7.938 c 60.758 7.938
 l 60.758 5.406 l 60.758 5.078 60.773 5.016 61.242 5.016 c 62.43 5.016 l
 63.93 5.016 64.18 5.578 64.336 6.953 c 64.586 6.953 l h
64.305 4.703 m f
65.297 8.969 m 65.359 7.484 66.203 7.234 66.547 7.234 c 67.562 7.234 67.672
 8.578 67.672 8.969 c h
65.297 9.188 m 68.078 9.188 l 68.297 9.188 68.328 9.188 68.328 8.969 c 
68.328 7.984 67.781 7.016 66.547 7.016 c 65.391 7.016 64.469 8.047 64.469
 9.297 c 64.469 10.625 65.516 11.594 66.656 11.594 c 67.875 11.594 68.328
 10.484 68.328 10.297 c 68.328 10.203 68.25 10.172 68.188 10.172 c 68.109
 10.172 68.078 10.234 68.062 10.312 c 67.719 11.344 66.812 11.344 66.719
 11.344 c 66.219 11.344 65.828 11.047 65.594 10.672 c 65.297 10.203 65.297
 9.547 65.297 9.188 c h
65.297 9.188 m f
69.723 8.969 m 69.785 7.484 70.629 7.234 70.973 7.234 c 71.988 7.234 72.098
 8.578 72.098 8.969 c h
69.723 9.188 m 72.504 9.188 l 72.723 9.188 72.754 9.188 72.754 8.969 c 
72.754 7.984 72.207 7.016 70.973 7.016 c 69.816 7.016 68.895 8.047 68.895
 9.297 c 68.895 10.625 69.941 11.594 71.082 11.594 c 72.301 11.594 72.754
 10.484 72.754 10.297 c 72.754 10.203 72.676 10.172 72.613 10.172 c 72.535
 10.172 72.504 10.234 72.488 10.312 c 72.145 11.344 71.238 11.344 71.145
 11.344 c 70.645 11.344 70.254 11.047 70.02 10.672 c 69.723 10.203 69.723
 9.547 69.723 9.188 c h
69.723 9.188 m f
76.82 10.938 m 76.82 11.594 l 78.289 11.484 l 78.289 11.172 l 77.602 11.172
 77.508 11.109 77.508 10.609 c 77.508 4.562 l 76.086 4.672 l 76.086 4.984
 l 76.773 4.984 76.852 5.047 76.852 5.547 c 76.852 7.703 l 76.57 7.344 76.133
 7.078 75.602 7.078 c 74.43 7.078 73.383 8.062 73.383 9.344 c 73.383 10.609
 74.352 11.594 75.492 11.594 c 76.133 11.594 76.57 11.25 76.82 10.938 c 
h
76.82 8.266 m 76.82 10.312 l 76.82 10.484 76.82 10.5 76.711 10.672 c 76.414
 11.156 75.977 11.375 75.539 11.375 c 75.086 11.375 74.727 11.109 74.492
 10.734 c 74.242 10.328 74.211 9.766 74.211 9.344 c 74.211 8.984 74.227 
8.391 74.508 7.938 c 74.727 7.625 75.102 7.297 75.648 7.297 c 75.992 7.297
 76.414 7.453 76.711 7.891 c 76.82 8.062 76.82 8.078 76.82 8.266 c h
76.82 8.266 m f
80.293 7.719 m 80.293 4.562 l 78.855 4.672 l 78.855 4.984 l 79.559 4.984
 79.637 5.047 79.637 5.547 c 79.637 11.484 l 79.887 11.484 l 79.887 11.469
 79.965 11.328 80.246 10.859 c 80.387 11.094 80.809 11.594 81.543 11.594
 c 82.73 11.594 83.762 10.609 83.762 9.328 c 83.762 8.062 82.793 7.078 81.652
 7.078 c 80.871 7.078 80.449 7.547 80.293 7.719 c h
80.324 10.344 m 80.324 8.297 l 80.324 8.109 80.324 8.094 80.434 7.938 c
 80.824 7.375 81.371 7.297 81.605 7.297 c 82.059 7.297 82.418 7.562 82.652
 7.938 c 82.918 8.344 82.934 8.906 82.934 9.328 c 82.934 9.688 82.918 10.281
 82.637 10.734 c 82.418 11.047 82.043 11.375 81.512 11.375 c 81.059 11.375
 80.699 11.141 80.465 10.766 c 80.324 10.562 80.324 10.531 80.324 10.344
 c h
80.324 10.344 m f
87.422 10.734 m 87.469 11.125 87.734 11.547 88.203 11.547 c 88.422 11.547
 89.031 11.406 89.031 10.594 c 89.031 10.031 l 88.781 10.031 l 88.781 10.594
 l 88.781 11.172 88.531 11.234 88.422 11.234 c 88.094 11.234 88.047 10.781
 88.047 10.734 c 88.047 8.75 l 88.047 8.328 88.047 7.938 87.688 7.562 c 
87.297 7.172 86.797 7.016 86.328 7.016 c 85.5 7.016 84.812 7.484 84.812 
8.141 c 84.812 8.438 85.016 8.609 85.281 8.609 c 85.562 8.609 85.734 8.406
 85.734 8.156 c 85.734 8.031 85.688 7.703 85.219 7.703 c 85.5 7.344 85.984
 7.234 86.297 7.234 c 86.797 7.234 87.359 7.625 87.359 8.516 c 87.359 8.875
 l 86.844 8.906 86.156 8.938 85.531 9.234 c 84.781 9.578 84.531 10.094 84.531
 10.531 c 84.531 11.344 85.5 11.594 86.125 11.594 c 86.781 11.594 87.234
 11.188 87.422 10.734 c h
87.359 9.094 m 87.359 10.094 l 87.359 11.031 86.641 11.375 86.188 11.375
 c 85.703 11.375 85.297 11.031 85.297 10.531 c 85.297 9.984 85.719 9.156
 87.359 9.094 c h
87.359 9.094 m f
90.266 9.312 m 90.266 7.688 91.078 7.266 91.609 7.266 c 91.703 7.266 92.328
 7.281 92.672 7.641 c 92.266 7.672 92.203 7.969 92.203 8.094 c 92.203 8.359
 92.391 8.547 92.656 8.547 c 92.922 8.547 93.125 8.391 93.125 8.078 c 93.125
 7.406 92.359 7.016 91.594 7.016 c 90.344 7.016 89.438 8.094 89.438 9.328
 c 89.438 10.609 90.422 11.594 91.578 11.594 c 92.906 11.594 93.234 10.391
 93.234 10.297 c 93.234 10.203 93.125 10.203 93.094 10.203 c 93.016 10.203
 92.984 10.234 92.969 10.297 c 92.688 11.219 92.031 11.344 91.672 11.344
 c 91.141 11.344 90.266 10.922 90.266 9.312 c h
90.266 9.312 m f
94.305 10.734 m 94.305 11.172 94.195 11.172 93.523 11.172 c 93.523 11.484
 l 93.852 11.469 94.32 11.453 94.602 11.453 c 94.914 11.453 95.305 11.469
 95.711 11.484 c 95.711 11.172 l 95.039 11.172 94.93 11.172 94.93 10.734
 c 94.93 9.703 l 95.57 9.156 l 96.336 10.203 96.758 10.766 96.758 10.953
 c 96.758 11.141 96.586 11.172 96.398 11.172 c 96.398 11.484 l 96.664 11.469
 97.258 11.453 97.477 11.453 c 97.758 11.453 98.055 11.469 98.336 11.484
 c 98.336 11.172 l 97.961 11.172 97.742 11.172 97.367 10.641 c 96.102 8.859
 l 96.086 8.844 96.039 8.781 96.039 8.75 c 96.039 8.719 96.758 8.109 96.852
 8.031 c 97.477 7.531 97.898 7.5 98.102 7.5 c 98.102 7.188 l 97.82 7.219
 97.695 7.219 97.414 7.219 c 97.055 7.219 96.43 7.203 96.289 7.188 c 96.289
 7.5 l 96.477 7.5 96.586 7.609 96.586 7.75 c 96.586 7.953 96.445 8.062 96.367
 8.141 c 94.961 9.344 l 94.961 4.562 l 93.523 4.672 l 93.523 4.984 l 94.227
 4.984 94.305 5.047 94.305 5.547 c h
94.305 10.734 m f
6 43.234 m 6.141 42.859 6.406 42.578 7.094 42.562 c 7.094 42.25 l 6.781
 42.281 6.375 42.281 6.125 42.281 c 5.828 42.281 5.25 42.266 4.984 42.25
 c 4.984 42.562 l 5.5 42.578 5.719 42.828 5.719 43.062 c 5.719 43.141 5.688
 43.203 5.672 43.266 c 3.844 48.062 l 1.938 43.031 l 1.875 42.891 1.875 
42.875 1.875 42.859 c 1.875 42.562 2.438 42.562 2.688 42.562 c 2.688 42.25
 l 2.328 42.281 1.641 42.281 1.266 42.281 c 0.797 42.281 0.359 42.266 0 
42.25 c 0 42.562 l 0.656 42.562 0.844 42.562 0.984 42.938 c 3.297 49.062
 l 3.359 49.25 3.406 49.281 3.547 49.281 c 3.703 49.281 3.734 49.234 3.781
 49.094 c h
6 43.234 m f
9.051 44.656 m 7.66 44.766 l 7.66 45.078 l 8.301 45.078 8.395 45.141 8.395
 45.625 c 8.395 48.312 l 8.395 48.75 8.285 48.75 7.613 48.75 c 7.613 49.062
 l 7.926 49.047 8.473 49.031 8.707 49.031 c 9.066 49.031 9.41 49.047 9.754
 49.062 c 9.754 48.75 l 9.082 48.75 9.051 48.703 9.051 48.312 c h
9.082 42.922 m 9.082 42.609 8.848 42.391 8.566 42.391 c 8.254 42.391 8.035
 42.656 8.035 42.922 c 8.035 43.188 8.254 43.453 8.566 43.453 c 8.848 43.453
 9.082 43.234 9.082 42.922 c h
9.082 42.922 m f
12.129 47.125 m 12.348 47.172 13.16 47.328 13.16 48.047 c 13.16 48.547 
12.816 48.953 12.035 48.953 c 11.191 48.953 10.832 48.391 10.645 47.531 
c 10.613 47.406 10.613 47.375 10.504 47.375 c 10.379 47.375 10.379 47.438
 10.379 47.609 c 10.379 48.938 l 10.379 49.109 10.379 49.172 10.488 49.172
 c 10.535 49.172 10.551 49.156 10.738 48.969 c 10.754 48.953 10.754 48.938
 10.941 48.75 c 11.379 49.156 11.832 49.172 12.035 49.172 c 13.176 49.172
 13.645 48.5 13.645 47.781 c 13.645 47.266 13.348 46.953 13.223 46.844 c
 12.895 46.516 12.504 46.438 12.082 46.359 c 11.52 46.25 10.863 46.125 10.863
 45.547 c 10.863 45.188 11.113 44.781 11.973 44.781 c 13.066 44.781 13.129
 45.688 13.145 45.984 c 13.145 46.078 13.238 46.078 13.254 46.078 c 13.395
 46.078 13.395 46.031 13.395 45.844 c 13.395 44.828 l 13.395 44.672 13.395
 44.594 13.285 44.594 c 13.238 44.594 13.207 44.594 13.082 44.719 c 13.051
 44.75 12.957 44.844 12.91 44.875 c 12.535 44.594 12.129 44.594 11.973 44.594
 c 10.754 44.594 10.379 45.266 10.379 45.828 c 10.379 46.172 10.535 46.453
 10.801 46.672 c 11.129 46.922 11.41 46.984 12.129 47.125 c h
12.129 47.125 m f
15.746 44.656 m 14.355 44.766 l 14.355 45.078 l 14.996 45.078 15.09 45.141
 15.09 45.625 c 15.09 48.312 l 15.09 48.75 14.98 48.75 14.309 48.75 c 14.309
 49.062 l 14.621 49.047 15.168 49.031 15.402 49.031 c 15.762 49.031 16.105
 49.047 16.449 49.062 c 16.449 48.75 l 15.777 48.75 15.746 48.703 15.746
 48.312 c h
15.777 42.922 m 15.777 42.609 15.543 42.391 15.262 42.391 c 14.949 42.391
 14.73 42.656 14.73 42.922 c 14.73 43.188 14.949 43.453 15.262 43.453 c 
15.543 43.453 15.777 43.234 15.777 42.922 c h
15.777 42.922 m f
21.438 46.922 m 21.438 45.656 20.453 44.594 19.25 44.594 c 18 44.594 17.031
 45.688 17.031 46.922 c 17.031 48.219 18.062 49.172 19.234 49.172 c 20.438
 49.172 21.438 48.188 21.438 46.922 c h
19.25 48.922 m 18.812 48.922 18.375 48.719 18.109 48.25 c 17.859 47.812
 17.859 47.203 17.859 46.844 c 17.859 46.453 17.859 45.922 18.094 45.484
 c 18.359 45.031 18.828 44.812 19.234 44.812 c 19.672 44.812 20.094 45.031
 20.359 45.469 c 20.625 45.891 20.625 46.469 20.625 46.844 c 20.625 47.203
 20.625 47.75 20.406 48.188 c 20.172 48.641 19.734 48.922 19.25 48.922 c
 h
19.25 48.922 m f
22.824 45.641 m 22.824 48.312 l 22.824 48.75 22.715 48.75 22.043 48.75 
c 22.043 49.062 l 22.402 49.047 22.902 49.031 23.184 49.031 c 23.434 49.031
 23.949 49.047 24.293 49.062 c 24.293 48.75 l 23.621 48.75 23.512 48.75 
23.512 48.312 c 23.512 46.469 l 23.512 45.438 24.23 44.875 24.855 44.875
 c 25.496 44.875 25.605 45.406 25.605 45.984 c 25.605 48.312 l 25.605 48.75
 25.496 48.75 24.824 48.75 c 24.824 49.062 l 25.168 49.047 25.684 49.031
 25.949 49.031 c 26.199 49.031 26.73 49.047 27.059 49.062 c 27.059 48.75
 l 26.543 48.75 26.293 48.75 26.293 48.453 c 26.293 46.547 l 26.293 45.688
 26.293 45.391 25.98 45.031 c 25.84 44.859 25.512 44.656 24.934 44.656 c
 24.199 44.656 23.73 45.078 23.449 45.703 c 23.449 44.656 l 22.043 44.766
 l 22.043 45.078 l 22.746 45.078 22.824 45.141 22.824 45.641 c h
22.824 45.641 m f
3.48 24.531 m 2.199 24.234 l 1.574 24.078 1.199 23.547 1.199 22.969 c 1.199
 22.266 1.73 21.656 2.512 21.656 c 4.168 21.656 4.387 23.297 4.449 23.734
 c 4.465 23.797 4.465 23.859 4.574 23.859 c 4.699 23.859 4.699 23.812 4.699
 23.625 c 4.699 21.625 l 4.699 21.453 4.699 21.375 4.59 21.375 c 4.527 21.375
 4.512 21.391 4.449 21.516 c 4.09 22.078 l 3.793 21.781 3.387 21.375 2.496
 21.375 c 1.387 21.375 0.559 22.25 0.559 23.312 c 0.559 24.141 1.09 24.875
 1.855 25.141 c 1.965 25.172 2.48 25.297 3.184 25.469 c 3.449 25.531 3.746
 25.609 4.027 25.969 c 4.23 26.234 4.34 26.562 4.34 26.891 c 4.34 27.594
 3.84 28.312 2.996 28.312 c 2.715 28.312 1.949 28.266 1.418 27.781 c 0.84
 27.234 0.809 26.609 0.809 26.25 c 0.793 26.141 0.715 26.141 0.684 26.141
 c 0.559 26.141 0.559 26.219 0.559 26.391 c 0.559 28.391 l 0.559 28.562 
0.559 28.625 0.668 28.625 c 0.73 28.625 0.746 28.609 0.809 28.5 c 0.809 
28.484 0.84 28.453 1.168 27.922 c 1.48 28.266 2.121 28.625 3.012 28.625 
c 4.168 28.625 4.965 27.656 4.965 26.547 c 4.965 25.562 4.309 24.734 3.48
 24.531 c h
3.48 24.531 m f
10.219 26.266 m 10.219 25 9.234 23.938 8.031 23.938 c 6.781 23.938 5.812
 25.031 5.812 26.266 c 5.812 27.562 6.844 28.516 8.016 28.516 c 9.219 28.516
 10.219 27.531 10.219 26.266 c h
8.031 28.266 m 7.594 28.266 7.156 28.062 6.891 27.594 c 6.641 27.156 6.641
 26.547 6.641 26.188 c 6.641 25.797 6.641 25.266 6.875 24.828 c 7.141 24.375
 7.609 24.156 8.016 24.156 c 8.453 24.156 8.875 24.375 9.141 24.812 c 9.406
 25.234 9.406 25.812 9.406 26.188 c 9.406 26.547 9.406 27.094 9.188 27.531
 c 8.953 27.984 8.516 28.266 8.031 28.266 c h
8.031 28.266 m f
14.402 27.625 m 14.402 28.516 l 15.84 28.406 l 15.84 28.094 l 15.152 28.094
 15.074 28.031 15.074 27.531 c 15.074 24 l 13.605 24.109 l 13.605 24.422
 l 14.293 24.422 14.387 24.484 14.387 24.984 c 14.387 26.75 l 14.387 27.625
 13.902 28.297 13.168 28.297 c 12.34 28.297 12.293 27.828 12.293 27.312 
c 12.293 24 l 10.824 24.109 l 10.824 24.422 l 11.605 24.422 11.605 24.453
 11.605 25.328 c 11.605 26.828 l 11.605 27.609 11.605 28.516 13.121 28.516
 c 13.684 28.516 14.121 28.234 14.402 27.625 c h
14.402 27.625 m f
17.141 24.984 m 17.141 27.656 l 17.141 28.094 17.031 28.094 16.359 28.094
 c 16.359 28.406 l 16.719 28.391 17.219 28.375 17.5 28.375 c 17.75 28.375
 18.266 28.391 18.609 28.406 c 18.609 28.094 l 17.938 28.094 17.828 28.094
 17.828 27.656 c 17.828 25.812 l 17.828 24.781 18.547 24.219 19.172 24.219
 c 19.812 24.219 19.922 24.75 19.922 25.328 c 19.922 27.656 l 19.922 28.094
 19.812 28.094 19.141 28.094 c 19.141 28.406 l 19.484 28.391 20 28.375 20.266
 28.375 c 20.516 28.375 21.047 28.391 21.375 28.406 c 21.375 28.094 l 20.859
 28.094 20.609 28.094 20.609 27.797 c 20.609 25.891 l 20.609 25.031 20.609
 24.734 20.297 24.375 c 20.156 24.203 19.828 24 19.25 24 c 18.516 24 18.047
 24.422 17.766 25.047 c 17.766 24 l 16.359 24.109 l 16.359 24.422 l 17.062
 24.422 17.141 24.484 17.141 24.984 c h
17.141 24.984 m f
25.363 27.859 m 25.363 28.516 l 26.832 28.406 l 26.832 28.094 l 26.145 
28.094 26.051 28.031 26.051 27.531 c 26.051 21.484 l 24.629 21.594 l 24.629
 21.906 l 25.316 21.906 25.395 21.969 25.395 22.469 c 25.395 24.625 l 25.113
 24.266 24.676 24 24.145 24 c 22.973 24 21.926 24.984 21.926 26.266 c 21.926
 27.531 22.895 28.516 24.035 28.516 c 24.676 28.516 25.113 28.172 25.363
 27.859 c h
25.363 25.188 m 25.363 27.234 l 25.363 27.406 25.363 27.422 25.254 27.594
 c 24.957 28.078 24.52 28.297 24.082 28.297 c 23.629 28.297 23.27 28.031
 23.035 27.656 c 22.785 27.25 22.754 26.688 22.754 26.266 c 22.754 25.906
 22.77 25.312 23.051 24.859 c 23.27 24.547 23.645 24.219 24.191 24.219 c
 24.535 24.219 24.957 24.375 25.254 24.812 c 25.363 24.984 25.363 25 25.363
 25.188 c h
25.363 25.188 m f
98.414 45.188 m 97.133 44.891 l 96.508 44.734 96.133 44.203 96.133 43.625
 c 96.133 42.922 96.664 42.312 97.445 42.312 c 99.102 42.312 99.32 43.953
 99.383 44.391 c 99.398 44.453 99.398 44.516 99.508 44.516 c 99.633 44.516
 99.633 44.469 99.633 44.281 c 99.633 42.281 l 99.633 42.109 99.633 42.031
 99.523 42.031 c 99.461 42.031 99.445 42.047 99.383 42.172 c 99.023 42.734
 l 98.727 42.438 98.32 42.031 97.43 42.031 c 96.32 42.031 95.492 42.906 
95.492 43.969 c 95.492 44.797 96.023 45.531 96.789 45.797 c 96.898 45.828
 97.414 45.953 98.117 46.125 c 98.383 46.188 98.68 46.266 98.961 46.625 
c 99.164 46.891 99.273 47.219 99.273 47.547 c 99.273 48.25 98.773 48.969
 97.93 48.969 c 97.648 48.969 96.883 48.922 96.352 48.438 c 95.773 47.891
 95.742 47.266 95.742 46.906 c 95.727 46.797 95.648 46.797 95.617 46.797
 c 95.492 46.797 95.492 46.875 95.492 47.047 c 95.492 49.047 l 95.492 49.219
 95.492 49.281 95.602 49.281 c 95.664 49.281 95.68 49.266 95.742 49.156 
c 95.742 49.141 95.773 49.109 96.102 48.578 c 96.414 48.922 97.055 49.281
 97.945 49.281 c 99.102 49.281 99.898 48.312 99.898 47.203 c 99.898 46.219
 99.242 45.391 98.414 45.188 c h
98.414 45.188 m f
101.559 45.641 m 101.559 48.312 l 101.559 48.75 101.449 48.75 100.777 48.75
 c 100.777 49.062 l 101.137 49.047 101.637 49.031 101.918 49.031 c 102.168
 49.031 102.684 49.047 103.027 49.062 c 103.027 48.75 l 102.355 48.75 102.246
 48.75 102.246 48.312 c 102.246 46.469 l 102.246 45.438 102.965 44.875 103.59
 44.875 c 104.23 44.875 104.34 45.406 104.34 45.984 c 104.34 48.312 l 104.34
 48.75 104.23 48.75 103.559 48.75 c 103.559 49.062 l 103.902 49.047 104.418
 49.031 104.684 49.031 c 104.934 49.031 105.465 49.047 105.793 49.062 c 
105.793 48.75 l 105.137 48.75 105.027 48.75 105.027 48.312 c 105.027 46.469
 l 105.027 45.438 105.73 44.875 106.371 44.875 c 106.996 44.875 107.105 
45.406 107.105 45.984 c 107.105 48.312 l 107.105 48.75 106.996 48.75 106.324
 48.75 c 106.324 49.062 l 106.668 49.047 107.184 49.031 107.449 49.031 c
 107.715 49.031 108.23 49.047 108.574 49.062 c 108.574 48.75 l 108.059 48.75
 107.809 48.75 107.793 48.453 c 107.793 46.547 l 107.793 45.688 107.793 
45.391 107.48 45.031 c 107.34 44.859 107.012 44.656 106.434 44.656 c 105.605
 44.656 105.152 45.25 104.996 45.641 c 104.855 44.766 104.121 44.656 103.668
 44.656 c 102.934 44.656 102.465 45.078 102.184 45.703 c 102.184 44.656 
l 100.777 44.766 l 100.777 45.078 l 101.48 45.078 101.559 45.141 101.559
 45.641 c h
101.559 45.641 m f
109.875 46.547 m 109.938 45.062 110.781 44.812 111.125 44.812 c 112.141
 44.812 112.25 46.156 112.25 46.547 c h
109.875 46.766 m 112.656 46.766 l 112.875 46.766 112.906 46.766 112.906
 46.547 c 112.906 45.562 112.359 44.594 111.125 44.594 c 109.969 44.594 
109.047 45.625 109.047 46.875 c 109.047 48.203 110.094 49.172 111.234 49.172
 c 112.453 49.172 112.906 48.062 112.906 47.875 c 112.906 47.781 112.828
 47.75 112.766 47.75 c 112.688 47.75 112.656 47.812 112.641 47.891 c 112.297
 48.922 111.391 48.922 111.297 48.922 c 110.797 48.922 110.406 48.625 110.172
 48.25 c 109.875 47.781 109.875 47.125 109.875 46.766 c h
109.875 46.766 m f
114.961 42.141 m 113.523 42.25 l 113.523 42.562 l 114.227 42.562 114.305
 42.625 114.305 43.125 c 114.305 48.312 l 114.305 48.75 114.195 48.75 113.523
 48.75 c 113.523 49.062 l 113.852 49.047 114.383 49.031 114.633 49.031 c
 114.883 49.031 115.367 49.047 115.742 49.062 c 115.742 48.75 l 115.07 48.75
 114.961 48.75 114.961 48.312 c h
114.961 42.141 m f
117.727 42.141 m 116.289 42.25 l 116.289 42.562 l 116.992 42.562 117.07
 42.625 117.07 43.125 c 117.07 48.312 l 117.07 48.75 116.961 48.75 116.289
 48.75 c 116.289 49.062 l 116.617 49.047 117.148 49.031 117.398 49.031 c
 117.648 49.031 118.133 49.047 118.508 49.062 c 118.508 48.75 l 117.836 
48.75 117.727 48.75 117.727 48.312 c h
117.727 42.141 m f
0.701961 g
48.809 63.75 22.5 48.75 re f
37.559 63.75 7.5 18.75 re f
75.059 63.75 7.5 18.75 re f
0 g
0.797382 w
0 J
0 j
[] 0.0 d
4 M q 1 0 0 1 0 0 cm
142.559 0 m 142.559 131.402 l S Q
184.965 4.938 m 184.965 4.578 184.98 4.469 185.746 4.469 c 185.996 4.469
 l 185.996 4.156 l 185.637 4.188 184.902 4.188 184.527 4.188 c 184.152 4.188
 183.402 4.188 183.059 4.156 c 183.059 4.469 l 183.293 4.469 l 184.059 4.469
 184.074 4.578 184.074 4.938 c 184.074 7.266 l 181.105 7.266 l 181.105 4.938
 l 181.105 4.578 181.121 4.469 181.887 4.469 c 182.121 4.469 l 182.121 4.156
 l 181.777 4.188 181.043 4.188 180.652 4.188 c 180.277 4.188 179.527 4.188
 179.184 4.156 c 179.184 4.469 l 179.418 4.469 l 180.184 4.469 180.215 4.578
 180.215 4.938 c 180.215 10.188 l 180.215 10.547 180.184 10.656 179.418 
10.656 c 179.184 10.656 l 179.184 10.969 l 179.527 10.938 180.277 10.938
 180.652 10.938 c 181.027 10.938 181.777 10.938 182.121 10.969 c 182.121
 10.656 l 181.887 10.656 l 181.121 10.656 181.105 10.547 181.105 10.188 
c 181.105 7.578 l 184.074 7.578 l 184.074 10.188 l 184.074 10.547 184.059
 10.656 183.293 10.656 c 183.059 10.656 l 183.059 10.969 l 183.402 10.938
 184.137 10.938 184.512 10.938 c 184.902 10.938 185.637 10.938 185.996 10.969
 c 185.996 10.656 l 185.746 10.656 l 184.98 10.656 184.965 10.547 184.965
 10.188 c h
184.965 4.938 m f
189.641 10.219 m 189.688 10.609 189.953 11.031 190.422 11.031 c 190.641
 11.031 191.25 10.891 191.25 10.078 c 191.25 9.516 l 191 9.516 l 191 10.078
 l 191 10.656 190.75 10.719 190.641 10.719 c 190.312 10.719 190.266 10.266
 190.266 10.219 c 190.266 8.234 l 190.266 7.812 190.266 7.422 189.906 7.047
 c 189.516 6.656 189.016 6.5 188.547 6.5 c 187.719 6.5 187.031 6.969 187.031
 7.625 c 187.031 7.922 187.234 8.094 187.5 8.094 c 187.781 8.094 187.953
 7.891 187.953 7.641 c 187.953 7.516 187.906 7.188 187.438 7.188 c 187.719
 6.828 188.203 6.719 188.516 6.719 c 189.016 6.719 189.578 7.109 189.578
 8 c 189.578 8.359 l 189.062 8.391 188.375 8.422 187.75 8.719 c 187 9.062
 186.75 9.578 186.75 10.016 c 186.75 10.828 187.719 11.078 188.344 11.078
 c 189 11.078 189.453 10.672 189.641 10.219 c h
189.578 8.578 m 189.578 9.578 l 189.578 10.516 188.859 10.859 188.406 10.859
 c 187.922 10.859 187.516 10.516 187.516 10.016 c 187.516 9.469 187.938 
8.641 189.578 8.578 c h
189.578 8.578 m f
193.027 7.219 m 193.027 6.562 l 191.59 6.672 l 191.59 6.984 l 192.293 6.984
 192.371 7.047 192.371 7.484 c 192.371 12.141 l 192.371 12.594 192.262 12.594
 191.59 12.594 c 191.59 12.906 l 191.934 12.891 192.449 12.875 192.699 12.875
 c 192.98 12.875 193.48 12.891 193.824 12.906 c 193.824 12.594 l 193.168
 12.594 193.059 12.594 193.059 12.141 c 193.059 10.375 l 193.105 10.547 
193.527 11.078 194.277 11.078 c 195.465 11.078 196.496 10.094 196.496 8.812
 c 196.496 7.547 195.543 6.562 194.418 6.562 c 193.637 6.562 193.215 7 193.027
 7.219 c h
193.059 9.828 m 193.059 7.609 l 193.34 7.094 193.824 6.812 194.34 6.812
 c 195.074 6.812 195.668 7.688 195.668 8.812 c 195.668 10.016 194.98 10.859
 194.246 10.859 c 193.84 10.859 193.465 10.656 193.199 10.25 c 193.059 10.047
 193.059 10.031 193.059 9.828 c h
193.059 9.828 m f
198.562 6.984 m 200 6.984 l 200 6.672 l 198.562 6.672 l 198.562 4.844 l
 198.312 4.844 l 198.312 5.656 198.016 6.719 197.031 6.766 c 197.031 6.984
 l 197.875 6.984 l 197.875 9.734 l 197.875 10.953 198.812 11.078 199.172
 11.078 c 199.875 11.078 200.156 10.375 200.156 9.734 c 200.156 9.172 l 
199.906 9.172 l 199.906 9.719 l 199.906 10.453 199.609 10.828 199.234 10.828
 c 198.562 10.828 198.562 9.922 198.562 9.75 c h
198.562 6.984 m f
202.484 6.562 m 201.094 6.672 l 201.094 6.984 l 201.734 6.984 201.828 7.047
 201.828 7.531 c 201.828 10.219 l 201.828 10.656 201.719 10.656 201.047 
10.656 c 201.047 10.969 l 201.359 10.953 201.906 10.938 202.141 10.938 c
 202.5 10.938 202.844 10.953 203.188 10.969 c 203.188 10.656 l 202.516 10.656
 202.484 10.609 202.484 10.219 c h
202.516 4.828 m 202.516 4.516 202.281 4.297 202 4.297 c 201.688 4.297 201.469
 4.562 201.469 4.828 c 201.469 5.094 201.688 5.359 202 5.359 c 202.281 5.359
 202.516 5.141 202.516 4.828 c h
202.516 4.828 m f
204.66 8.797 m 204.66 7.172 205.473 6.75 206.004 6.75 c 206.098 6.75 206.723
 6.766 207.066 7.125 c 206.66 7.156 206.598 7.453 206.598 7.578 c 206.598
 7.844 206.785 8.031 207.051 8.031 c 207.316 8.031 207.52 7.875 207.52 7.562
 c 207.52 6.891 206.754 6.5 205.988 6.5 c 204.738 6.5 203.832 7.578 203.832
 8.812 c 203.832 10.094 204.816 11.078 205.973 11.078 c 207.301 11.078 207.629
 9.875 207.629 9.781 c 207.629 9.688 207.52 9.688 207.488 9.688 c 207.41
 9.688 207.379 9.719 207.363 9.781 c 207.082 10.703 206.426 10.828 206.066
 10.828 c 205.535 10.828 204.66 10.406 204.66 8.797 c h
204.66 8.797 m f
217.027 4.188 m 211.559 4.188 l 211.559 4.5 l 211.793 4.5 l 212.559 4.5
 212.59 4.609 212.59 4.969 c 212.59 10.188 l 212.59 10.547 212.559 10.656
 211.793 10.656 c 211.559 10.656 l 211.559 10.969 l 211.902 10.938 212.684
 10.938 213.074 10.938 c 213.48 10.938 214.387 10.938 214.746 10.969 c 214.746
 10.656 l 214.418 10.656 l 213.48 10.656 213.48 10.531 213.48 10.188 c 213.48
 7.734 l 214.324 7.734 l 215.293 7.734 215.387 8.047 215.387 8.891 c 215.637
 8.891 l 215.637 6.25 l 215.387 6.25 l 215.387 7.094 215.293 7.422 214.324
 7.422 c 213.48 7.422 l 213.48 4.891 l 213.48 4.562 213.496 4.5 213.965 
4.5 c 215.152 4.5 l 216.652 4.5 216.902 5.062 217.059 6.438 c 217.309 6.438
 l h
217.027 4.188 m f
218.016 8.453 m 218.078 6.969 218.922 6.719 219.266 6.719 c 220.281 6.719
 220.391 8.062 220.391 8.453 c h
218.016 8.672 m 220.797 8.672 l 221.016 8.672 221.047 8.672 221.047 8.453
 c 221.047 7.469 220.5 6.5 219.266 6.5 c 218.109 6.5 217.188 7.531 217.188
 8.781 c 217.188 10.109 218.234 11.078 219.375 11.078 c 220.594 11.078 221.047
 9.969 221.047 9.781 c 221.047 9.688 220.969 9.656 220.906 9.656 c 220.828
 9.656 220.797 9.719 220.781 9.797 c 220.438 10.828 219.531 10.828 219.438
 10.828 c 218.938 10.828 218.547 10.531 218.312 10.156 c 218.016 9.688 218.016
 9.031 218.016 8.672 c h
218.016 8.672 m f
222.445 8.453 m 222.508 6.969 223.352 6.719 223.695 6.719 c 224.711 6.719
 224.82 8.062 224.82 8.453 c h
222.445 8.672 m 225.227 8.672 l 225.445 8.672 225.477 8.672 225.477 8.453
 c 225.477 7.469 224.93 6.5 223.695 6.5 c 222.539 6.5 221.617 7.531 221.617
 8.781 c 221.617 10.109 222.664 11.078 223.805 11.078 c 225.023 11.078 225.477
 9.969 225.477 9.781 c 225.477 9.688 225.398 9.656 225.336 9.656 c 225.258
 9.656 225.227 9.719 225.211 9.797 c 224.867 10.828 223.961 10.828 223.867
 10.828 c 223.367 10.828 222.977 10.531 222.742 10.156 c 222.445 9.688 222.445
 9.031 222.445 8.672 c h
222.445 8.672 m f
229.543 10.422 m 229.543 11.078 l 231.012 10.969 l 231.012 10.656 l 230.324
 10.656 230.23 10.594 230.23 10.094 c 230.23 4.047 l 228.809 4.156 l 228.809
 4.469 l 229.496 4.469 229.574 4.531 229.574 5.031 c 229.574 7.188 l 229.293
 6.828 228.855 6.562 228.324 6.562 c 227.152 6.562 226.105 7.547 226.105
 8.828 c 226.105 10.094 227.074 11.078 228.215 11.078 c 228.855 11.078 229.293
 10.734 229.543 10.422 c h
229.543 7.75 m 229.543 9.797 l 229.543 9.969 229.543 9.984 229.434 10.156
 c 229.137 10.641 228.699 10.859 228.262 10.859 c 227.809 10.859 227.449
 10.594 227.215 10.219 c 226.965 9.812 226.934 9.25 226.934 8.828 c 226.934
 8.469 226.949 7.875 227.23 7.422 c 227.449 7.109 227.824 6.781 228.371 
6.781 c 228.715 6.781 229.137 6.938 229.434 7.375 c 229.543 7.547 229.543
 7.562 229.543 7.75 c h
229.543 7.75 m f
233.016 7.203 m 233.016 4.047 l 231.578 4.156 l 231.578 4.469 l 232.281
 4.469 232.359 4.531 232.359 5.031 c 232.359 10.969 l 232.609 10.969 l 232.609
 10.953 232.688 10.812 232.969 10.344 c 233.109 10.578 233.531 11.078 234.266
 11.078 c 235.453 11.078 236.484 10.094 236.484 8.812 c 236.484 7.547 235.516
 6.562 234.375 6.562 c 233.594 6.562 233.172 7.031 233.016 7.203 c h
233.047 9.828 m 233.047 7.781 l 233.047 7.594 233.047 7.578 233.156 7.422
 c 233.547 6.859 234.094 6.781 234.328 6.781 c 234.781 6.781 235.141 7.047
 235.375 7.422 c 235.641 7.828 235.656 8.391 235.656 8.812 c 235.656 9.172
 235.641 9.766 235.359 10.219 c 235.141 10.531 234.766 10.859 234.234 10.859
 c 233.781 10.859 233.422 10.625 233.188 10.25 c 233.047 10.047 233.047 
10.016 233.047 9.828 c h
233.047 9.828 m f
240.145 10.219 m 240.191 10.609 240.457 11.031 240.926 11.031 c 241.145
 11.031 241.754 10.891 241.754 10.078 c 241.754 9.516 l 241.504 9.516 l 
241.504 10.078 l 241.504 10.656 241.254 10.719 241.145 10.719 c 240.816 
10.719 240.77 10.266 240.77 10.219 c 240.77 8.234 l 240.77 7.812 240.77 
7.422 240.41 7.047 c 240.02 6.656 239.52 6.5 239.051 6.5 c 238.223 6.5 237.535
 6.969 237.535 7.625 c 237.535 7.922 237.738 8.094 238.004 8.094 c 238.285
 8.094 238.457 7.891 238.457 7.641 c 238.457 7.516 238.41 7.188 237.941 
7.188 c 238.223 6.828 238.707 6.719 239.02 6.719 c 239.52 6.719 240.082 
7.109 240.082 8 c 240.082 8.359 l 239.566 8.391 238.879 8.422 238.254 8.719
 c 237.504 9.062 237.254 9.578 237.254 10.016 c 237.254 10.828 238.223 11.078
 238.848 11.078 c 239.504 11.078 239.957 10.672 240.145 10.219 c h
240.082 8.578 m 240.082 9.578 l 240.082 10.516 239.363 10.859 238.91 10.859
 c 238.426 10.859 238.02 10.516 238.02 10.016 c 238.02 9.469 238.441 8.641
 240.082 8.578 c h
240.082 8.578 m f
242.988 8.797 m 242.988 7.172 243.801 6.75 244.332 6.75 c 244.426 6.75 
245.051 6.766 245.395 7.125 c 244.988 7.156 244.926 7.453 244.926 7.578 
c 244.926 7.844 245.113 8.031 245.379 8.031 c 245.645 8.031 245.848 7.875
 245.848 7.562 c 245.848 6.891 245.082 6.5 244.316 6.5 c 243.066 6.5 242.16
 7.578 242.16 8.812 c 242.16 10.094 243.145 11.078 244.301 11.078 c 245.629
 11.078 245.957 9.875 245.957 9.781 c 245.957 9.688 245.848 9.688 245.816
 9.688 c 245.738 9.688 245.707 9.719 245.691 9.781 c 245.41 10.703 244.754
 10.828 244.395 10.828 c 243.863 10.828 242.988 10.406 242.988 8.797 c h
242.988 8.797 m f
247.027 10.219 m 247.027 10.656 246.918 10.656 246.246 10.656 c 246.246
 10.969 l 246.574 10.953 247.043 10.938 247.324 10.938 c 247.637 10.938 
248.027 10.953 248.434 10.969 c 248.434 10.656 l 247.762 10.656 247.652 
10.656 247.652 10.219 c 247.652 9.188 l 248.293 8.641 l 249.059 9.688 249.48
 10.25 249.48 10.438 c 249.48 10.625 249.309 10.656 249.121 10.656 c 249.121
 10.969 l 249.387 10.953 249.98 10.938 250.199 10.938 c 250.48 10.938 250.777
 10.953 251.059 10.969 c 251.059 10.656 l 250.684 10.656 250.465 10.656 
250.09 10.125 c 248.824 8.344 l 248.809 8.328 248.762 8.266 248.762 8.234
 c 248.762 8.203 249.48 7.594 249.574 7.516 c 250.199 7.016 250.621 6.984
 250.824 6.984 c 250.824 6.672 l 250.543 6.703 250.418 6.703 250.137 6.703
 c 249.777 6.703 249.152 6.688 249.012 6.672 c 249.012 6.984 l 249.199 6.984
 249.309 7.094 249.309 7.234 c 249.309 7.438 249.168 7.547 249.09 7.625 
c 247.684 8.828 l 247.684 4.047 l 246.246 4.156 l 246.246 4.469 l 246.949
 4.469 247.027 4.531 247.027 5.031 c h
247.027 10.219 m f
252.715 35.672 m 252.855 35.297 253.121 35.016 253.809 35 c 253.809 34.688
 l 253.496 34.719 253.09 34.719 252.84 34.719 c 252.543 34.719 251.965 34.703
 251.699 34.688 c 251.699 35 l 252.215 35.016 252.434 35.266 252.434 35.5
 c 252.434 35.578 252.402 35.641 252.387 35.703 c 250.559 40.5 l 248.652
 35.469 l 248.59 35.328 248.59 35.312 248.59 35.297 c 248.59 35 249.152 
35 249.402 35 c 249.402 34.688 l 249.043 34.719 248.355 34.719 247.98 34.719
 c 247.512 34.719 247.074 34.703 246.715 34.688 c 246.715 35 l 247.371 35
 247.559 35 247.699 35.375 c 250.012 41.5 l 250.074 41.688 250.121 41.719
 250.262 41.719 c 250.418 41.719 250.449 41.672 250.496 41.531 c h
252.715 35.672 m f
255.766 37.094 m 254.375 37.203 l 254.375 37.516 l 255.016 37.516 255.109
 37.578 255.109 38.062 c 255.109 40.75 l 255.109 41.188 255 41.188 254.328
 41.188 c 254.328 41.5 l 254.641 41.484 255.188 41.469 255.422 41.469 c 
255.781 41.469 256.125 41.484 256.469 41.5 c 256.469 41.188 l 255.797 41.188
 255.766 41.141 255.766 40.75 c h
255.797 35.359 m 255.797 35.047 255.562 34.828 255.281 34.828 c 254.969
 34.828 254.75 35.094 254.75 35.359 c 254.75 35.625 254.969 35.891 255.281
 35.891 c 255.562 35.891 255.797 35.672 255.797 35.359 c h
255.797 35.359 m f
258.848 39.562 m 259.066 39.609 259.879 39.766 259.879 40.484 c 259.879
 40.984 259.535 41.391 258.754 41.391 c 257.91 41.391 257.551 40.828 257.363
 39.969 c 257.332 39.844 257.332 39.812 257.223 39.812 c 257.098 39.812 
257.098 39.875 257.098 40.047 c 257.098 41.375 l 257.098 41.547 257.098 
41.609 257.207 41.609 c 257.254 41.609 257.27 41.594 257.457 41.406 c 257.473
 41.391 257.473 41.375 257.66 41.188 c 258.098 41.594 258.551 41.609 258.754
 41.609 c 259.895 41.609 260.363 40.938 260.363 40.219 c 260.363 39.703 
260.066 39.391 259.941 39.281 c 259.613 38.953 259.223 38.875 258.801 38.797
 c 258.238 38.688 257.582 38.562 257.582 37.984 c 257.582 37.625 257.832
 37.219 258.691 37.219 c 259.785 37.219 259.848 38.125 259.863 38.422 c 
259.863 38.516 259.957 38.516 259.973 38.516 c 260.113 38.516 260.113 38.469
 260.113 38.281 c 260.113 37.266 l 260.113 37.109 260.113 37.031 260.004
 37.031 c 259.957 37.031 259.926 37.031 259.801 37.156 c 259.77 37.188 259.676
 37.281 259.629 37.312 c 259.254 37.031 258.848 37.031 258.691 37.031 c 
257.473 37.031 257.098 37.703 257.098 38.266 c 257.098 38.609 257.254 38.891
 257.52 39.109 c 257.848 39.359 258.129 39.422 258.848 39.562 c h
258.848 39.562 m f
262.461 37.094 m 261.07 37.203 l 261.07 37.516 l 261.711 37.516 261.805
 37.578 261.805 38.062 c 261.805 40.75 l 261.805 41.188 261.695 41.188 261.023
 41.188 c 261.023 41.5 l 261.336 41.484 261.883 41.469 262.117 41.469 c 
262.477 41.469 262.82 41.484 263.164 41.5 c 263.164 41.188 l 262.492 41.188
 262.461 41.141 262.461 40.75 c h
262.492 35.359 m 262.492 35.047 262.258 34.828 261.977 34.828 c 261.664
 34.828 261.445 35.094 261.445 35.359 c 261.445 35.625 261.664 35.891 261.977
 35.891 c 262.258 35.891 262.492 35.672 262.492 35.359 c h
262.492 35.359 m f
268.152 39.359 m 268.152 38.094 267.168 37.031 265.965 37.031 c 264.715
 37.031 263.746 38.125 263.746 39.359 c 263.746 40.656 264.777 41.609 265.949
 41.609 c 267.152 41.609 268.152 40.625 268.152 39.359 c h
265.965 41.359 m 265.527 41.359 265.09 41.156 264.824 40.688 c 264.574 
40.25 264.574 39.641 264.574 39.281 c 264.574 38.891 264.574 38.359 264.809
 37.922 c 265.074 37.469 265.543 37.25 265.949 37.25 c 266.387 37.25 266.809
 37.469 267.074 37.906 c 267.34 38.328 267.34 38.906 267.34 39.281 c 267.34
 39.641 267.34 40.188 267.121 40.625 c 266.887 41.078 266.449 41.359 265.965
 41.359 c h
265.965 41.359 m f
269.539 38.078 m 269.539 40.75 l 269.539 41.188 269.43 41.188 268.758 41.188
 c 268.758 41.5 l 269.117 41.484 269.617 41.469 269.898 41.469 c 270.148
 41.469 270.664 41.484 271.008 41.5 c 271.008 41.188 l 270.336 41.188 270.227
 41.188 270.227 40.75 c 270.227 38.906 l 270.227 37.875 270.945 37.312 271.57
 37.312 c 272.211 37.312 272.32 37.844 272.32 38.422 c 272.32 40.75 l 272.32
 41.188 272.211 41.188 271.539 41.188 c 271.539 41.5 l 271.883 41.484 272.398
 41.469 272.664 41.469 c 272.914 41.469 273.445 41.484 273.773 41.5 c 273.773
 41.188 l 273.258 41.188 273.008 41.188 273.008 40.891 c 273.008 38.984 
l 273.008 38.125 273.008 37.828 272.695 37.469 c 272.555 37.297 272.227 
37.094 271.648 37.094 c 270.914 37.094 270.445 37.516 270.164 38.141 c 270.164
 37.094 l 268.758 37.203 l 268.758 37.516 l 269.461 37.516 269.539 37.578
 269.539 38.078 c h
269.539 38.078 m f
161.176 37.172 m 159.895 36.875 l 159.27 36.719 158.895 36.188 158.895 
35.609 c 158.895 34.906 159.426 34.297 160.207 34.297 c 161.863 34.297 162.082
 35.938 162.145 36.375 c 162.16 36.438 162.16 36.5 162.27 36.5 c 162.395
 36.5 162.395 36.453 162.395 36.266 c 162.395 34.266 l 162.395 34.094 162.395
 34.016 162.285 34.016 c 162.223 34.016 162.207 34.031 162.145 34.156 c 
161.785 34.719 l 161.488 34.422 161.082 34.016 160.191 34.016 c 159.082 
34.016 158.254 34.891 158.254 35.953 c 158.254 36.781 158.785 37.516 159.551
 37.781 c 159.66 37.812 160.176 37.938 160.879 38.109 c 161.145 38.172 161.441
 38.25 161.723 38.609 c 161.926 38.875 162.035 39.203 162.035 39.531 c 162.035
 40.234 161.535 40.953 160.691 40.953 c 160.41 40.953 159.645 40.906 159.113
 40.422 c 158.535 39.875 158.504 39.25 158.504 38.891 c 158.488 38.781 158.41
 38.781 158.379 38.781 c 158.254 38.781 158.254 38.859 158.254 39.031 c 
158.254 41.031 l 158.254 41.203 158.254 41.266 158.363 41.266 c 158.426 
41.266 158.441 41.25 158.504 41.141 c 158.504 41.125 158.535 41.094 158.863
 40.562 c 159.176 40.906 159.816 41.266 160.707 41.266 c 161.863 41.266 
162.66 40.297 162.66 39.188 c 162.66 38.203 162.004 37.375 161.176 37.172
 c h
161.176 37.172 m f
167.914 38.906 m 167.914 37.641 166.93 36.578 165.727 36.578 c 164.477 
36.578 163.508 37.672 163.508 38.906 c 163.508 40.203 164.539 41.156 165.711
 41.156 c 166.914 41.156 167.914 40.172 167.914 38.906 c h
165.727 40.906 m 165.289 40.906 164.852 40.703 164.586 40.234 c 164.336
 39.797 164.336 39.188 164.336 38.828 c 164.336 38.438 164.336 37.906 164.57
 37.469 c 164.836 37.016 165.305 36.797 165.711 36.797 c 166.148 36.797 
166.57 37.016 166.836 37.453 c 167.102 37.875 167.102 38.453 167.102 38.828
 c 167.102 39.188 167.102 39.734 166.883 40.172 c 166.648 40.625 166.211
 40.906 165.727 40.906 c h
165.727 40.906 m f
172.098 40.266 m 172.098 41.156 l 173.535 41.047 l 173.535 40.734 l 172.848
 40.734 172.77 40.672 172.77 40.172 c 172.77 36.641 l 171.301 36.75 l 171.301
 37.062 l 171.988 37.062 172.082 37.125 172.082 37.625 c 172.082 39.391 
l 172.082 40.266 171.598 40.938 170.863 40.938 c 170.035 40.938 169.988 
40.469 169.988 39.953 c 169.988 36.641 l 168.52 36.75 l 168.52 37.062 l 
169.301 37.062 169.301 37.094 169.301 37.969 c 169.301 39.469 l 169.301 
40.25 169.301 41.156 170.816 41.156 c 171.379 41.156 171.816 40.875 172.098
 40.266 c h
172.098 40.266 m f
174.836 37.625 m 174.836 40.297 l 174.836 40.734 174.727 40.734 174.055
 40.734 c 174.055 41.047 l 174.414 41.031 174.914 41.016 175.195 41.016 
c 175.445 41.016 175.961 41.031 176.305 41.047 c 176.305 40.734 l 175.633
 40.734 175.523 40.734 175.523 40.297 c 175.523 38.453 l 175.523 37.422 
176.242 36.859 176.867 36.859 c 177.508 36.859 177.617 37.391 177.617 37.969
 c 177.617 40.297 l 177.617 40.734 177.508 40.734 176.836 40.734 c 176.836
 41.047 l 177.18 41.031 177.695 41.016 177.961 41.016 c 178.211 41.016 178.742
 41.031 179.07 41.047 c 179.07 40.734 l 178.555 40.734 178.305 40.734 178.305
 40.438 c 178.305 38.531 l 178.305 37.672 178.305 37.375 177.992 37.016 
c 177.852 36.844 177.523 36.641 176.945 36.641 c 176.211 36.641 175.742 
37.062 175.461 37.688 c 175.461 36.641 l 174.055 36.75 l 174.055 37.062 
l 174.758 37.062 174.836 37.125 174.836 37.625 c h
174.836 37.625 m f
183.059 40.5 m 183.059 41.156 l 184.527 41.047 l 184.527 40.734 l 183.84
 40.734 183.746 40.672 183.746 40.172 c 183.746 34.125 l 182.324 34.234 
l 182.324 34.547 l 183.012 34.547 183.09 34.609 183.09 35.109 c 183.09 37.266
 l 182.809 36.906 182.371 36.641 181.84 36.641 c 180.668 36.641 179.621 
37.625 179.621 38.906 c 179.621 40.172 180.59 41.156 181.73 41.156 c 182.371
 41.156 182.809 40.812 183.059 40.5 c h
183.059 37.828 m 183.059 39.875 l 183.059 40.047 183.059 40.062 182.949
 40.234 c 182.652 40.719 182.215 40.938 181.777 40.938 c 181.324 40.938 
180.965 40.672 180.73 40.297 c 180.48 39.891 180.449 39.328 180.449 38.906
 c 180.449 38.547 180.465 37.953 180.746 37.5 c 180.965 37.188 181.34 36.859
 181.887 36.859 c 182.23 36.859 182.652 37.016 182.949 37.453 c 183.059 
37.625 183.059 37.641 183.059 37.828 c h
183.059 37.828 m f
0.701961 g
206.309 63.75 18.75 48.75 re f
195.059 63.75 7.5 18.75 re f
228.809 63.75 7.5 18.75 re f
202.559 30 26.25 26.25 re f
0 g
101.23 19.641 m 95.137 19.641 l 94.949 21.891 l 95.199 21.891 l 95.34 20.281
 95.48 19.953 96.996 19.953 c 97.168 19.953 97.434 19.953 97.527 19.969 
c 97.746 20.016 97.746 20.125 97.746 20.344 c 97.746 25.609 l 97.746 25.938
 97.746 26.078 96.699 26.078 c 96.293 26.078 l 96.293 26.391 l 96.699 26.359
 97.715 26.359 98.184 26.359 c 98.637 26.359 99.668 26.359 100.074 26.391
 c 100.074 26.078 l 99.668 26.078 l 98.621 26.078 98.621 25.938 98.621 25.609
 c 98.621 20.344 l 98.621 20.156 98.621 20.016 98.809 19.969 c 98.918 19.953
 99.184 19.953 99.371 19.953 c 100.887 19.953 101.027 20.281 101.168 21.891
 c 101.418 21.891 l h
101.23 19.641 m f
104.27 25.641 m 104.316 26.031 104.582 26.453 105.051 26.453 c 105.27 26.453
 105.879 26.312 105.879 25.5 c 105.879 24.938 l 105.629 24.938 l 105.629
 25.5 l 105.629 26.078 105.379 26.141 105.27 26.141 c 104.941 26.141 104.895
 25.688 104.895 25.641 c 104.895 23.656 l 104.895 23.234 104.895 22.844 
104.535 22.469 c 104.145 22.078 103.645 21.922 103.176 21.922 c 102.348 
21.922 101.66 22.391 101.66 23.047 c 101.66 23.344 101.863 23.516 102.129
 23.516 c 102.41 23.516 102.582 23.312 102.582 23.062 c 102.582 22.938 102.535
 22.609 102.066 22.609 c 102.348 22.25 102.832 22.141 103.145 22.141 c 103.645
 22.141 104.207 22.531 104.207 23.422 c 104.207 23.781 l 103.691 23.812 
103.004 23.844 102.379 24.141 c 101.629 24.484 101.379 25 101.379 25.438
 c 101.379 26.25 102.348 26.5 102.973 26.5 c 103.629 26.5 104.082 26.094
 104.27 25.641 c h
104.207 24 m 104.207 25 l 104.207 25.938 103.488 26.281 103.035 26.281 
c 102.551 26.281 102.145 25.938 102.145 25.438 c 102.145 24.891 102.566 
24.062 104.207 24 c h
104.207 24 m f
108.016 24.453 m 108.234 24.5 109.047 24.656 109.047 25.375 c 109.047 25.875
 108.703 26.281 107.922 26.281 c 107.078 26.281 106.719 25.719 106.531 24.859
 c 106.5 24.734 106.5 24.703 106.391 24.703 c 106.266 24.703 106.266 24.766
 106.266 24.938 c 106.266 26.266 l 106.266 26.438 106.266 26.5 106.375 26.5
 c 106.422 26.5 106.438 26.484 106.625 26.297 c 106.641 26.281 106.641 26.266
 106.828 26.078 c 107.266 26.484 107.719 26.5 107.922 26.5 c 109.062 26.5
 109.531 25.828 109.531 25.109 c 109.531 24.594 109.234 24.281 109.109 24.172
 c 108.781 23.844 108.391 23.766 107.969 23.688 c 107.406 23.578 106.75 
23.453 106.75 22.875 c 106.75 22.516 107 22.109 107.859 22.109 c 108.953
 22.109 109.016 23.016 109.031 23.312 c 109.031 23.406 109.125 23.406 109.141
 23.406 c 109.281 23.406 109.281 23.359 109.281 23.172 c 109.281 22.156 
l 109.281 22 109.281 21.922 109.172 21.922 c 109.125 21.922 109.094 21.922
 108.969 22.047 c 108.938 22.078 108.844 22.172 108.797 22.203 c 108.422
 21.922 108.016 21.922 107.859 21.922 c 106.641 21.922 106.266 22.594 106.266
 23.156 c 106.266 23.5 106.422 23.781 106.688 24 c 107.016 24.25 107.297
 24.312 108.016 24.453 c h
108.016 24.453 m f
111.586 22.406 m 113.023 22.406 l 113.023 22.094 l 111.586 22.094 l 111.586
 20.266 l 111.336 20.266 l 111.336 21.078 111.039 22.141 110.055 22.188 
c 110.055 22.406 l 110.898 22.406 l 110.898 25.156 l 110.898 26.375 111.836
 26.5 112.195 26.5 c 112.898 26.5 113.18 25.797 113.18 25.156 c 113.18 24.594
 l 112.93 24.594 l 112.93 25.141 l 112.93 25.875 112.633 26.25 112.258 26.25
 c 111.586 26.25 111.586 25.344 111.586 25.172 c h
111.586 22.406 m f
114.852 23.875 m 114.914 22.391 115.758 22.141 116.102 22.141 c 117.117
 22.141 117.227 23.484 117.227 23.875 c h
114.852 24.094 m 117.633 24.094 l 117.852 24.094 117.883 24.094 117.883
 23.875 c 117.883 22.891 117.336 21.922 116.102 21.922 c 114.945 21.922 
114.023 22.953 114.023 24.203 c 114.023 25.531 115.07 26.5 116.211 26.5 
c 117.43 26.5 117.883 25.391 117.883 25.203 c 117.883 25.109 117.805 25.078
 117.742 25.078 c 117.664 25.078 117.633 25.141 117.617 25.219 c 117.273
 26.25 116.367 26.25 116.273 26.25 c 115.773 26.25 115.383 25.953 115.148
 25.578 c 114.852 25.109 114.852 24.453 114.852 24.094 c h
114.852 24.094 m f
0.75 w
q 1 0 0 1 0 0 cm
58.559 15 m 58.559 26.25 l S Q
60.375 22.328 m 58.566 27.242 l 56.758 22.328 l 57.824 23.113 59.285 23.109
 60.375 22.328 c h
60.375 22.328 m f*
0.28125 w
1 j
q 0 -1 1 0 0 0 cm
-22.328 60.375 m -27.242 58.566 l -22.328 56.758 l -23.113 57.824 -23.109
 59.285 -22.328 60.375 c h
-22.328 60.375 m S Q
0.75 w
0 j
q 1 0 0 1 0 0 cm
93.809 26.25 m 75.059 33.75 75.059 33.75 75.059 33.75 c S Q
79.375 33.977 m 74.141 34.125 l 78.035 30.621 l 77.699 31.902 78.246 33.258
 79.375 33.977 c h
79.375 33.977 m f*
0.261134 w
1 j
q 1 -0.4 0.4 1 0 0 cm
56.711 56.661 m 52.147 54.984 l 56.713 53.306 l 55.981 54.295 55.985 55.652
 56.711 56.661 c h
56.711 56.661 m S Q
0.75 w
0 j
q 1 0 0 1 0 0 cm
93.809 45 m 78.809 45 78.809 45 78.809 45 c S Q
82.734 46.816 m 77.816 45.008 l 82.734 43.199 l 81.949 44.266 81.953 45.727
 82.734 46.816 c h
82.734 46.816 m f*
0.28125 w
1 j
q 1 0 0 1 0 0 cm
82.734 46.816 m 77.816 45.008 l 82.734 43.199 l 81.949 44.266 81.953 45.727
 82.734 46.816 c h
82.734 46.816 m S Q
0.75 w
0 j
q 1 0 0 1 0 0 cm
27.809 45 m 39.059 45 l S Q
35.137 43.184 m 40.051 44.992 l 35.137 46.801 l 35.922 45.734 35.918 44.273
 35.137 43.184 c h
35.137 43.184 m f*
0.28125 w
1 j
q -1 0 0 -1 0 0 cm
-35.137 -43.184 m -40.051 -44.992 l -35.137 -46.801 l -35.922 -45.734 -35.918
 -44.273 -35.137 -43.184 c h
-35.137 -43.184 m S Q
0.75 w
0 j
q 1 0 0 1 0 0 cm
30.059 26.25 m 41.309 33.75 l S Q
39.051 30.062 m 42.141 34.297 l 37.047 33.07 l 38.293 32.621 39.098 31.402
 39.051 30.062 c h
39.051 30.062 m f*
0.234014 w
1 j
q -1 -0.666666 0.666666 -1 0 0 cm
-40.91 -2.789 m -45.004 -4.294 l -40.911 -5.796 l -41.566 -4.91 -41.561
 -3.695 -40.91 -2.789 c h
-40.91 -2.789 m S Q
0.75 w
0 j
q 1 0 0 1 0 0 cm
213.809 15 m 213.809 26.25 l S Q
1 g
213.809 26.633 m 212.309 24.035 l 215.309 24.035 l h
213.809 26.633 m f*
0 g
0.4 w
q 0 1 -1 0 0 0 cm
26.633 -213.809 m 24.035 -212.309 l 24.035 -215.309 l h
26.633 -213.809 m S Q
0.75 w
q 1 0 0 1 0 0 cm
244.559 37.5 m 233.309 37.5 l S Q
237.234 39.316 m 232.316 37.508 l 237.234 35.699 l 236.449 36.766 236.453
 38.227 237.234 39.316 c h
237.234 39.316 m f*
0.28125 w
1 j
q 1 0 0 1 0 0 cm
237.234 39.316 m 232.316 37.508 l 237.234 35.699 l 236.449 36.766 236.453
 38.227 237.234 39.316 c h
237.234 39.316 m S Q
0.75 w
0 j
q 1 0 0 1 0 0 cm
186.809 37.5 m 198.059 37.5 l S Q
194.137 35.684 m 199.051 37.492 l 194.137 39.301 l 194.922 38.234 194.918
 36.773 194.137 35.684 c h
194.137 35.684 m f*
0.28125 w
1 j
q -1 0 0 -1 0 0 cm
-194.137 -35.684 m -199.051 -37.492 l -194.137 -39.301 l -194.922 -38.234
 -194.918 -36.773 -194.137 -35.684 c h
-194.137 -35.684 m S Q
0.751181 w
0 j
q 1 0 0 1 0 0 cm
244.559 51.75 m 233.309 51.75 l S Q
237.238 53.566 m 232.316 51.758 l 237.238 49.945 l 236.453 51.016 236.457
 52.477 237.238 53.566 c h
237.238 53.566 m f*
0.281693 w
1 j
q 1 0 0 1 0 0 cm
237.238 53.566 m 232.316 51.758 l 237.238 49.945 l 236.453 51.016 236.457
 52.477 237.238 53.566 c h
237.238 53.566 m S Q
254.547 52.484 m 254.547 50.453 253.047 48.828 251.234 48.828 c 249.438
 48.828 247.922 50.422 247.922 52.484 c 247.922 54.531 249.453 56.078 251.234
 56.078 c 253.047 56.078 254.547 54.5 254.547 52.484 c h
251.234 55.812 m 250.281 55.812 248.938 54.938 248.938 52.344 c 248.938
 49.766 250.406 49.078 251.234 49.078 c 252.094 49.078 253.516 49.781 253.516
 52.344 c 253.516 54.984 252.156 55.812 251.234 55.812 c h
251.234 55.812 m f
256.824 51.875 m 258.262 51.875 l 258.262 51.562 l 256.824 51.562 l 256.824
 49.734 l 256.574 49.734 l 256.574 50.547 256.277 51.609 255.293 51.656 
c 255.293 51.875 l 256.137 51.875 l 256.137 54.625 l 256.137 55.844 257.074
 55.969 257.434 55.969 c 258.137 55.969 258.418 55.266 258.418 54.625 c 
258.418 54.062 l 258.168 54.062 l 258.168 54.609 l 258.168 55.344 257.871
 55.719 257.496 55.719 c 256.824 55.719 256.824 54.812 256.824 54.641 c 
h
256.824 51.875 m f
260.074 55.109 m 260.074 55.547 259.965 55.547 259.293 55.547 c 259.293
 55.859 l 259.652 55.844 260.152 55.828 260.434 55.828 c 260.684 55.828 
261.199 55.844 261.543 55.859 c 261.543 55.547 l 260.871 55.547 260.762 
55.547 260.762 55.109 c 260.762 53.266 l 260.762 52.234 261.48 51.672 262.105
 51.672 c 262.746 51.672 262.855 52.203 262.855 52.781 c 262.855 55.109 
l 262.855 55.547 262.746 55.547 262.074 55.547 c 262.074 55.859 l 262.418
 55.844 262.934 55.828 263.199 55.828 c 263.449 55.828 263.98 55.844 264.309
 55.859 c 264.309 55.547 l 263.793 55.547 263.543 55.547 263.543 55.25 c
 263.543 53.344 l 263.543 52.484 263.543 52.188 263.23 51.828 c 263.09 51.656
 262.762 51.453 262.184 51.453 c 261.34 51.453 260.902 52.047 260.73 52.438
 c 260.73 48.938 l 259.293 49.047 l 259.293 49.359 l 259.996 49.359 260.074
 49.422 260.074 49.922 c h
260.074 55.109 m f
265.625 53.344 m 265.688 51.859 266.531 51.609 266.875 51.609 c 267.891
 51.609 268 52.953 268 53.344 c h
265.625 53.562 m 268.406 53.562 l 268.625 53.562 268.656 53.562 268.656
 53.344 c 268.656 52.359 268.109 51.391 266.875 51.391 c 265.719 51.391 
264.797 52.422 264.797 53.672 c 264.797 55 265.844 55.969 266.984 55.969
 c 268.203 55.969 268.656 54.859 268.656 54.672 c 268.656 54.578 268.578
 54.547 268.516 54.547 c 268.438 54.547 268.406 54.609 268.391 54.688 c 
268.047 55.719 267.141 55.719 267.047 55.719 c 266.547 55.719 266.156 55.422
 265.922 55.047 c 265.625 54.578 265.625 53.922 265.625 53.562 c h
265.625 53.562 m f
270.617 52.547 m 270.617 51.453 l 269.227 51.562 l 269.227 51.875 l 269.93
 51.875 270.008 51.938 270.008 52.438 c 270.008 55.109 l 270.008 55.547 
269.898 55.547 269.227 55.547 c 269.227 55.859 l 269.617 55.844 270.086 
55.828 270.367 55.828 c 270.758 55.828 271.227 55.828 271.633 55.859 c 271.633
 55.547 l 271.414 55.547 l 270.68 55.547 270.664 55.438 270.664 55.078 c
 270.664 53.547 l 270.664 52.562 271.086 51.672 271.836 51.672 c 271.898
 51.672 271.93 51.672 271.945 51.688 c 271.914 51.688 271.711 51.812 271.711
 52.078 c 271.711 52.344 271.93 52.5 272.148 52.5 c 272.32 52.5 272.57 52.375
 272.57 52.062 c 272.57 51.75 272.258 51.453 271.836 51.453 c 271.102 51.453
 270.742 52.125 270.617 52.547 c h
270.617 52.547 m f
Q Q
showpage
%%Trailer
end
%%EOF
