%!PS-Adobe-3.0 EPSF-3.0
%%Creator: cairo 1.14.6 (http://cairographics.org)
%%CreationDate: Sat Nov  2 11:56:58 2019
%%Pages: 1
%%DocumentData: Clean7Bit
%%LanguageLevel: 2
%%BoundingBox: 68 92 85 109
%%EndComments
%%BeginProlog
save
50 dict begin
/q { gsave } bind def
/Q { grestore } bind def
/cm { 6 array astore concat } bind def
/w { setlinewidth } bind def
/J { setlinecap } bind def
/j { setlinejoin } bind def
/M { setmiterlimit } bind def
/d { setdash } bind def
/m { moveto } bind def
/l { lineto } bind def
/c { curveto } bind def
/h { closepath } bind def
/re { exch dup neg 3 1 roll 5 3 roll moveto 0 rlineto
      0 exch rlineto 0 rlineto closepath } bind def
/S { stroke } bind def
/f { fill } bind def
/f* { eofill } bind def
/n { newpath } bind def
/W { clip } bind def
/W* { eoclip } bind def
/BT { } bind def
/ET { } bind def
/pdfmark where { pop globaldict /?pdfmark /exec load put }
    { globaldict begin /?pdfmark /pop load def /pdfmark
    /cleartomark load def end } ifelse
/BDC { mark 3 1 roll /BDC pdfmark } bind def
/EMC { mark /EMC pdfmark } bind def
/cairo_store_point { /cairo_point_y exch def /cairo_point_x exch def } def
/Tj { show currentpoint cairo_store_point } bind def
/TJ {
  {
    dup
    type /stringtype eq
    { show } { -0.001 mul 0 cairo_font_matrix dtransform rmoveto } ifelse
  } forall
  currentpoint cairo_store_point
} bind def
/cairo_selectfont { cairo_font_matrix aload pop pop pop 0 0 6 array astore
    cairo_font exch selectfont cairo_point_x cairo_point_y moveto } bind def
/Tf { pop /cairo_font exch def /cairo_font_matrix where
      { pop cairo_selectfont } if } bind def
/Td { matrix translate cairo_font_matrix matrix concatmatrix dup
      /cairo_font_matrix exch def dup 4 get exch 5 get cairo_store_point
      /cairo_font where { pop cairo_selectfont } if } bind def
/Tm { 2 copy 8 2 roll 6 array astore /cairo_font_matrix exch def
      cairo_store_point /cairo_font where { pop cairo_selectfont } if } bind def
/g { setgray } bind def
/rg { setrgbcolor } bind def
/d1 { setcachedevice } bind def
%%EndProlog
%%BeginSetup
%%EndSetup
%%Page: 1 1
%%BeginPageSetup
%%PageBoundingBox: 68 92 85 109
%%EndPageSetup
q 68 92 17 17 rectclip q
0.929412 0.698039 0 rg
81.641 101.73 m 81.641 97.98 78.605 94.944 74.855 94.944 c 71.109 94.944
 68.07 97.98 68.07 101.73 c 68.07 105.476 71.109 108.515 74.855 108.515 
c 78.605 108.515 81.641 105.476 81.641 101.73 c h
81.641 101.73 m f
1 g
78.219 95.659 m 78.219 94.343 76.707 93.276 74.84 93.276 c 72.973 93.276
 71.457 94.343 71.457 95.659 c 71.457 96.972 72.973 98.038 74.84 98.038 
c 76.707 98.038 78.219 96.972 78.219 95.659 c h
78.219 95.659 m f
0.0941176 0.101961 0.329412 rg
71.477 102.538 m 71.434 104.316 72.914 105.413 74.449 105.401 c 76.094 
105.585 77.953 104.597 77.961 102.609 c 77.996 99.987 l 71.477 99.987 l 
h
71.477 102.538 m f*
1 g
0.8 w
0 J
1 j
[] 0.0 d
4 M q 1 0 0 -1 0 841.889771 cm
71.477 739.352 m 71.434 737.574 72.914 736.477 74.449 736.488 c 76.094 
736.305 77.953 737.293 77.961 739.281 c 77.996 741.902 l 71.477 741.902 
l h
71.477 739.352 m S Q
0 g
0.08 w
q 1 0 0 -1 0 841.889771 cm
79.262 739.348 m 79.594 738.754 l 77.703 737.234 79.477 735.664 80.039 
735.664 c 83.02 735.672 l 83.941 735.699 85.121 737.898 83.086 738.883 c
 80.137 738.91 l h
79.262 739.348 m S Q
0.215686 0.784314 0.764706 rg
73.82 102.944 m 73.82 102.753 73.664 102.593 73.469 102.593 c 73.277 102.593
 73.117 102.753 73.117 102.944 c 73.117 103.14 73.277 103.296 73.469 103.296
 c 73.664 103.296 73.82 103.14 73.82 102.944 c h
73.82 102.944 m f
1 g
0.0971276 w
q 1 0 0 -1 0 841.889771 cm
73.82 738.945 m 73.82 739.137 73.664 739.297 73.469 739.297 c 73.277 739.297
 73.117 739.137 73.117 738.945 c 73.117 738.75 73.277 738.594 73.469 738.594
 c 73.664 738.594 73.82 738.75 73.82 738.945 c h
73.82 738.945 m S Q
0.215686 0.784314 0.764706 rg
76.258 102.991 m 76.258 102.796 76.102 102.64 75.906 102.64 c 75.715 102.64
 75.555 102.796 75.555 102.991 c 75.555 103.183 75.715 103.343 75.906 103.343
 c 76.102 103.343 76.258 103.183 76.258 102.991 c h
76.258 102.991 m f
1 g
q 1 0 0 -1 0 841.889771 cm
76.258 738.898 m 76.258 739.094 76.102 739.25 75.906 739.25 c 75.715 739.25
 75.555 739.094 75.555 738.898 c 75.555 738.707 75.715 738.547 75.906 738.547
 c 76.102 738.547 76.258 738.707 76.258 738.898 c h
76.258 738.898 m S Q
0.215686 0.788235 0.768627 rg
73.809 101.929 m 75.621 101.948 l 75.586 101.351 75.312 100.987 74.695 
100.956 c 74.098 100.995 73.84 101.355 73.809 101.929 c h
73.809 101.929 m f
1 g
0.08 w
q 1 0 0 -1 0 841.889771 cm
73.809 739.961 m 75.621 739.941 l 75.586 740.539 75.312 740.902 74.695 
740.934 c 74.098 740.895 73.84 740.535 73.809 739.961 c h
73.809 739.961 m S Q
0 g
81.223 105.429 m 81.223 105.523 81.227 105.55 81.414 105.55 c 81.477 105.55
 l 81.477 105.632 l 81.387 105.624 81.207 105.624 81.117 105.624 c 81.023
 105.624 80.84 105.624 80.754 105.632 c 80.754 105.55 l 80.812 105.55 l 
81 105.55 81.004 105.523 81.004 105.429 c 81.004 104.827 l 80.277 104.827
 l 80.277 105.429 l 80.277 105.523 80.281 105.55 80.469 105.55 c 80.527 
105.55 l 80.527 105.632 l 80.441 105.624 80.262 105.624 80.164 105.624 c
 80.074 105.624 79.891 105.624 79.805 105.632 c 79.805 105.55 l 79.863 105.55
 l 80.051 105.55 80.059 105.523 80.059 105.429 c 80.059 104.077 l 80.059
 103.984 80.051 103.956 79.863 103.956 c 79.805 103.956 l 79.805 103.874
 l 79.891 103.882 80.074 103.882 80.164 103.882 c 80.258 103.882 80.441 
103.882 80.527 103.874 c 80.527 103.956 l 80.469 103.956 l 80.281 103.956
 80.277 103.984 80.277 104.077 c 80.277 104.749 l 81.004 104.749 l 81.004
 104.077 l 81.004 103.984 81 103.956 80.812 103.956 c 80.754 103.956 l 80.754
 103.874 l 80.84 103.882 81.02 103.882 81.113 103.882 c 81.207 103.882 81.387
 103.882 81.477 103.874 c 81.477 103.956 l 81.414 103.956 l 81.227 103.956
 81.223 103.984 81.223 104.077 c h
81.223 105.429 m f
82.109 105.429 m 82.109 105.523 82.113 105.55 82.309 105.55 c 82.371 105.55
 l 82.371 105.632 l 82.285 105.624 82.094 105.624 81.996 105.624 c 81.906
 105.624 81.711 105.624 81.625 105.632 c 81.625 105.55 l 81.688 105.55 l
 81.883 105.55 81.891 105.523 81.891 105.429 c 81.891 104.077 l 81.891 103.984
 81.883 103.956 81.688 103.956 c 81.625 103.956 l 81.625 103.874 l 81.711
 103.882 81.906 103.882 81.996 103.882 c 82.094 103.882 82.285 103.882 82.371
 103.874 c 82.371 103.956 l 82.309 103.956 l 82.113 103.956 82.109 103.984
 82.109 104.077 c h
82.109 105.429 m f
83.629 104.409 m 83.719 105.581 l 83.719 105.667 83.656 105.714 83.594 
105.714 c 83.527 105.714 83.465 105.667 83.465 105.581 c 83.559 104.413 
l 83.559 104.374 83.562 104.355 83.594 104.355 c 83.617 104.355 83.625 104.366
 83.629 104.409 c h
83.719 104.011 m 83.719 104.085 83.664 104.148 83.594 104.148 c 83.52 104.148
 83.465 104.085 83.465 104.011 c 83.465 103.937 83.52 103.874 83.594 103.874
 c 83.664 103.874 83.719 103.937 83.719 104.011 c h
83.719 104.011 m f
Q Q
showpage
%%Trailer
end restore
%%EOF
