<?xml version="1.0" encoding="UTF-8" standalone="no"?>
<!-- Created with Inkscape (http://www.inkscape.org/) -->

<svg
   xmlns:ns1="http://www.iki.fi/pav/software/textext/"
   xmlns:osb="http://www.openswatchbook.org/uri/2009/osb"
   xmlns:dc="http://purl.org/dc/elements/1.1/"
   xmlns:cc="http://creativecommons.org/ns#"
   xmlns:rdf="http://www.w3.org/1999/02/22-rdf-syntax-ns#"
   xmlns:svg="http://www.w3.org/2000/svg"
   xmlns="http://www.w3.org/2000/svg"
   xmlns:sodipodi="http://sodipodi.sourceforge.net/DTD/sodipodi-0.dtd"
   xmlns:inkscape="http://www.inkscape.org/namespaces/inkscape"
   width="210mm"
   height="297mm"
   viewBox="0 0 744.09448 1052.3622"
   id="svg2"
   version="1.1"
   inkscape:version="0.91 r13725"
   sodipodi:docname="fig4_serRobot.svg">
  <sodipodi:namedview
     id="base"
     pagecolor="#ffffff"
     bordercolor="#666666"
     borderopacity="1.0"
     inkscape:pageopacity="0.0"
     inkscape:pageshadow="2"
     inkscape:zoom="16"
     inkscape:cx="89.373482"
     inkscape:cy="122.68169"
     inkscape:document-units="px"
     inkscape:current-layer="layer1"
     showgrid="true"
     inkscape:window-width="1873"
     inkscape:window-height="1056"
     inkscape:window-x="47"
     inkscape:window-y="24"
     inkscape:window-maximized="1"
     inkscape:snap-grids="false"
     inkscape:snap-text-baseline="true">
    <inkscape:grid
       spacingy="0.35433072"
       spacingx="0.35433071"
       units="mm"
       id="grid4136"
       type="xygrid" />
  </sodipodi:namedview>
  <defs
     id="defs4">
    <linearGradient
       osb:paint="solid"
       id="linearGradient5855">
      <stop
         id="stop5857"
         offset="0"
         style="stop-color:#ffffff;stop-opacity:1;" />
    </linearGradient>
    <linearGradient
       osb:paint="solid"
       id="linearGradient4167">
      <stop
         id="stop4169"
         offset="0"
         style="stop-color:#000000;stop-opacity:1;" />
    </linearGradient>
  </defs>
  <metadata
     id="metadata7">
    <rdf:RDF>
      <cc:Work
         rdf:about="">
        <dc:format>image/svg+xml</dc:format>
        <dc:type
           rdf:resource="http://purl.org/dc/dcmitype/StillImage" />
        <dc:title></dc:title>
      </cc:Work>
    </rdf:RDF>
  </metadata>
  <g
     transform="translate(0,-3.464567e-6)"
     id="layer1"
     inkscape:groupmode="layer"
     inkscape:label="Layer 1">
    <circle
       r="8.4830341"
       cy="925.20074"
       cx="93.569389"
       id="path5690"
       style="fill:#edb200;fill-opacity:1;stroke:#4d4d4d;stroke-width:0.03393214;stroke-miterlimit:0.60000002;stroke-dasharray:none;stroke-opacity:0" />
    <ellipse
       ry="2.9763553"
       rx="4.2263551"
       cy="932.78979"
       cx="93.548225"
       id="path5692"
       style="fill:#ffffff;fill-opacity:1;stroke:#4d4d4d;stroke-width:0.04728944;stroke-miterlimit:0.60000002;stroke-dasharray:none;stroke-opacity:0" />
    <ellipse
       r="3.5433071"
       cy="936.85034"
       cx="81.496063"
       id="path5706"
       style="fill:#6600ff;fill-opacity:1;stroke:#4d4d4d;stroke-width:0.03543307;stroke-miterlimit:0.60000002;stroke-dasharray:none;stroke-opacity:0" />
    <path
       sodipodi:nodetypes="cccccc"
       inkscape:connector-curvature="0"
       id="path5801"
       d="m 89.344476,924.19097 c -0.05314,-2.22249 1.796641,-3.59293 3.718191,-3.57972 2.053377,-0.2322 4.378277,1.0029 4.387222,3.49134 l 0.04419,3.27736 -8.149607,0 z"
       style="fill:#181a54;fill-opacity:1;fill-rule:evenodd;stroke:#ffffff;stroke-width:1px;stroke-linecap:butt;stroke-linejoin:round;stroke-opacity:1" />
    <path
       sodipodi:nodetypes="ccccccc"
       inkscape:connector-curvature="0"
       id="path5803"
       d="m 99.078125,924.1825 0.414062,-0.74219 c -2.364428,-1.89851 -0.14588,-3.86135 0.554683,-3.85937 l 3.72657,0.008 c 1.15526,0.0361 2.62727,2.7825 0.0859,4.01563 l -3.6875,0.0312 z"
       style="fill:none;fill-rule:evenodd;stroke:#000000;stroke-width:0.1;stroke-linecap:butt;stroke-linejoin:round;stroke-miterlimit:4;stroke-dasharray:none;stroke-opacity:1" />
    <circle
       r="0.43929523"
       cy="923.67957"
       cx="91.837517"
       id="path5809"
       style="fill:#37c8c3;fill-opacity:1;stroke:#ffffff;stroke-width:0.12140954;stroke-linejoin:round;stroke-miterlimit:4;stroke-dasharray:none;stroke-opacity:1" />
    <circle
       r="0.43929523"
       cy="923.62457"
       cx="94.884895"
       id="path5809-3"
       style="fill:#37c8c3;fill-opacity:1;stroke:#ffffff;stroke-width:0.12140954;stroke-linejoin:round;stroke-miterlimit:4;stroke-dasharray:none;stroke-opacity:1" />
    <path
       sodipodi:nodetypes="cccc"
       inkscape:connector-curvature="0"
       id="path5876"
       d="m 92.259224,924.95035 2.265625,-0.0234 c -0.04129,0.74836 -0.386262,1.20171 -1.15625,1.24219 -0.747918,-0.0504 -1.069094,-0.5024 -1.109375,-1.21879 z"
       style="fill:#37c9c4;fill-opacity:1;fill-rule:nonzero;stroke:#ffffff;stroke-width:0.1;stroke-linecap:butt;stroke-linejoin:round;stroke-miterlimit:4;stroke-dasharray:none;stroke-opacity:1" />
    <g
       id="g5899"
       ns1:jacobian_sqrt="1.25"
       inkscapeversion="0.91"
       ns1:alignment="middle center"
       ns1:scale="1.0"
       ns1:preamble="/home/malith/.config/inkscape/extensions/textext/default_packages.tex"
       ns1:text="HI !"
       ns1:pdfconverter="pdf2svg"
       ns1:texconverter="pdflatex"
       ns1:version="0.11.0"
       transform="matrix(0.30653671,0,0,0.32221007,54.070278,879.09633)">
      <g
         id="surface1">
        <g
           id="g5902"
           style="fill:#000000;fill-opacity:1">
          <path
             id="path5904"
             transform="translate(148.712,134.765)"
             d="M 6.109375,-6.03125 C 6.109375,-6.390625 6.125,-6.5 6.890625,-6.5 l 0.25,0 0,-0.3125 c -0.359375,0.03125 -1.09375,0.03125 -1.46875,0.03125 -0.375,0 -1.125,0 -1.46875,-0.03125 l 0,0.3125 0.234375,0 c 0.765625,0 0.78125,0.109375 0.78125,0.46875 l 0,2.328125 -2.96875,0 0,-2.328125 C 2.25,-6.390625 2.265625,-6.5 3.03125,-6.5 l 0.234375,0 0,-0.3125 c -0.34375,0.03125 -1.078125,0.03125 -1.46875,0.03125 -0.375,0 -1.125,0 -1.46875,-0.03125 l 0,0.3125 0.234375,0 c 0.765625,0 0.796875,0.109375 0.796875,0.46875 l 0,5.25 c 0,0.359375 -0.03125,0.46875 -0.796875,0.46875 l -0.234375,0 0,0.3125 c 0.34375,-0.03125 1.09375,-0.03125 1.46875,-0.03125 0.375,0 1.125,0 1.46875,0.03125 l 0,-0.3125 -0.234375,0 C 2.265625,-0.3125 2.25,-0.421875 2.25,-0.78125 l 0,-2.609375 2.96875,0 0,2.609375 c 0,0.359375 -0.015625,0.46875 -0.78125,0.46875 l -0.234375,0 0,0.3125 c 0.34375,-0.03125 1.078125,-0.03125 1.453125,-0.03125 0.390625,0 1.125,0 1.484375,0.03125 l 0,-0.3125 -0.25,0 c -0.765625,0 -0.78125,-0.109375 -0.78125,-0.46875 z m 0,0"
             style="stroke:none;stroke-width:0"
             inkscape:connector-curvature="0" />
          <path
             id="path5906"
             transform="translate(156.18395,134.765)"
             d="M 2.25,-6.03125 C 2.25,-6.390625 2.265625,-6.5 3.0625,-6.5 l 0.25,0 0,-0.3125 c -0.34375,0.03125 -1.125,0.03125 -1.515625,0.03125 -0.375,0 -1.171875,0 -1.515625,-0.03125 l 0,0.3125 0.25,0 c 0.796875,0 0.828125,0.109375 0.828125,0.46875 l 0,5.25 c 0,0.359375 -0.03125,0.46875 -0.828125,0.46875 l -0.25,0 0,0.3125 c 0.34375,-0.03125 1.140625,-0.03125 1.515625,-0.03125 0.390625,0 1.171875,0 1.515625,0.03125 l 0,-0.3125 -0.25,0 C 2.265625,-0.3125 2.25,-0.421875 2.25,-0.78125 Z m 0,0"
             style="stroke:none;stroke-width:0"
             inkscape:connector-curvature="0" />
        </g>
        <g
           id="g5908"
           style="fill:#000000;fill-opacity:1">
          <path
             id="path5910"
             transform="translate(163.09899,134.765)"
             d="M 1.53125,-2.078125 1.90625,-6.625 c 0,-0.328125 -0.265625,-0.515625 -0.515625,-0.515625 -0.265625,0 -0.53125,0.1875 -0.53125,0.515625 L 1.25,-2.09375 c 0,0.15625 0.015625,0.234375 0.140625,0.234375 0.09375,0 0.125,-0.046875 0.140625,-0.21875 z m 0.375,1.546875 c 0,-0.28125 -0.234375,-0.53125 -0.515625,-0.53125 -0.296875,0 -0.53125,0.25 -0.53125,0.53125 C 0.859375,-0.234375 1.09375,0 1.390625,0 1.671875,0 1.90625,-0.234375 1.90625,-0.53125 Z m 0,0"
             style="stroke:none;stroke-width:0"
             inkscape:connector-curvature="0" />
        </g>
      </g>
    </g>
  </g>
  <g
     inkscape:label="Manual drow"
     id="layer2"
     inkscape:groupmode="layer" />
</svg>
