\begin{tikzpicture}
	\begin{pgfonlayer}{nodelayer}
		\node [style=none] (0) at (2, 4) {};
		\node [style=none] (1) at (2, 2) {};
		\node [style=none] (2) at (6.5, 2) {};
		\node [style=none] (3) at (6.5, 4) {};
		\node [style=none] (4) at (4.25, 3.25) {\textbf{Surface Texture}};
		\node [style=none] (5) at (4.25, 2.5) {\textbf{Identification}};
		\node [style=none] (6) at (2, -2) {};
		\node [style=none] (7) at (2, -4) {};
		\node [style=none] (8) at (6, -4) {};
		\node [style=none] (9) at (6, -2) {};
		\node [style=none] (10) at (4, -2.75) {\textbf{Globle Shape}};
		\node [style=none] (11) at (4, -3.5) {\textbf{Identification}};
		\node [style=none] (24) at (5.25, 1) {};
		\node [style=none] (25) at (5.25, -1) {};
		\node [style=none] (26) at (10.75, -1) {};
		\node [style=none] (27) at (10.75, 1) {};
		\node [style=none] (28) at (8, 0.5) {\textbf{OBJECT}};
		\node [style=none] (29) at (8, -0.25) {\textbf{IDENTIFICATION}};
		\node [style=none] (30) at (-4, 2.25) {};
		\node [style=none] (31) at (-4, 0.75) {};
		\node [style=none] (32) at (-1, 0.75) {};
		\node [style=none] (33) at (-1, 2.25) {};
		\node [style=none] (34) at (-2, 1.25) {Slippery};
		\node [style=none] (35) at (-3, 1.75) {Sticky};
		\node [style=none] (36) at (-1, 1.5) {};
		\node [style=none] (37) at (2, 2.5) {};
		\node [style=none] (38) at (1.75, 2.75) {};
		\node [style=none] (39) at (1.75, 2.25) {};
		\node [style=none] (40) at (0.5, 1.5) {\rotatebox{20}{$Classification$}};
		\node [style=none] (41) at (-4, 5.25) {};
		\node [style=none] (42) at (-4, 3.75) {};
		\node [style=none] (43) at (-1, 3.75) {};
		\node [style=none] (44) at (-1, 5.25) {};
		\node [style=none] (45) at (-2, 4.25) {Smooth};
		\node [style=none] (46) at (-3, 4.75) {Rough};
		\node [style=none] (47) at (-1, 4.5) {};
		\node [style=none] (48) at (2, 3.5) {};
		\node [style=none] (49) at (1.75, 3.25) {};
		\node [style=none] (50) at (1.75, 3.75) {};
		\node [style=none] (51) at (0.5, 4.5) {\rotatebox{-20}{$Classification$}};
		\node [style=none] (52) at (-8.25, 4.25) {};
		\node [style=none] (53) at (-9.5, 3) {};
		\node [style=none] (55) at (-8.25, 1.75) {};
		\node [style=none] (56) at (-7, 3) {};
		\node [style=none] (57) at (-4, 4.5) {};
		\node [style=none] (58) at (-4.25, 4.75) {};
		\node [style=none] (59) at (-4.25, 4.25) {};
		\node [style=none] (60) at (-4, 1.5) {};
		\node [style=none] (61) at (-4.25, 1.75) {};
		\node [style=none] (62) at (-4.25, 1.25) {};
		\node [style=none] (63) at (-8, 2.75) {Motion};
		\node [style=none] (64) at (-5.75, 4) {\rotatebox{40}{$Trexture$}};
		\node [style=none] (65) at (-5.25, 3.5) {\rotatebox{40}{$Properties$}};
		\node [style=none] (67) at (-8.5, 3.25) {Laterel};
		\node [style=none] (68) at (-6.25, 8.25) {};
		\node [style=none] (69) at (-7.5, 7) {};
		\node [style=none] (70) at (-6.25, 5.75) {};
		\node [style=none] (71) at (-5, 7) {};
		\node [style=none] (72) at (-6, 6.75) {Contact};
		\node [style=none] (73) at (-6.5, 7.25) {Static};
		\node [style=none] (74) at (-2, 7.75) {};
		\node [style=none] (75) at (-2, 6.25) {};
		\node [style=none] (76) at (1, 6.25) {};
		\node [style=none] (77) at (1, 7.75) {};
		\node [style=none] (78) at (0, 6.75) {Cold};
		\node [style=none] (79) at (-1, 7.25) {Warm};
		\node [style=none] (80) at (1, 7) {};
		\node [style=none] (81) at (-2, 7) {};
		\node [style=none] (82) at (-2.25, 7.25) {};
		\node [style=none] (83) at (-2.25, 6.75) {};
		\node [style=none] (84) at (-3.75, 6.75) {$Data$};
		\node [style=none] (85) at (-3.75, 7.25) {$Temparature$};
		\node [style=none] (86) at (3.5, 4.25) {};
		\node [style=none] (87) at (3.25, 4.5) {};
		\node [style=none] (88) at (3.75, 4.5) {};
		\node [style=none] (91) at (2.75, 6) {\rotatebox{-50}{$Classification$}};
		\node [style=none] (92) at (-5, 2.25) {\rotatebox{-40}{$Friction$}};
		\node [style=none] (93) at (-5.5, 1.75) {\rotatebox{-40}{$Properties$}};
		\node [style=none] (94) at (5.25, 0.5) {};
		\node [style=none] (95) at (5, 0.75) {};
		\node [style=none] (97) at (5, 0.25) {};
		\node [style=none] (98) at (4.25, 2) {};
		\node [style=none] (100) at (5.5, 0.75) {};
		\node [style=none] (101) at (10.5, 0.75) {};
		\node [style=none] (102) at (10.5, -0.75) {};
		\node [style=none] (103) at (5.5, -0.75) {};
		\node [style=none] (104) at (5.25, -0.5) {};
		\node [style=none] (105) at (5, -0.25) {};
		\node [style=none] (106) at (5, -0.75) {};
		\node [style=none] (107) at (4, -2) {};
		\node [style=none] (108) at (10, 4) {};
		\node [style=none] (109) at (10, 2) {};
		\node [style=none] (110) at (15, 2) {};
		\node [style=none] (111) at (15, 4) {};
		\node [style=none] (112) at (12.5, 2.5) {\textbf{(Reaction to force)}};
		\node [style=none] (113) at (12.5, 3.5) {\textbf{Deformation}};
		\node [style=none] (114) at (10.75, 0.5) {};
		\node [style=none] (115) at (11, 0.75) {};
		\node [style=none] (116) at (11, 0.25) {};
		\node [style=none] (117) at (12, 2) {};
		\node [style=none] (118) at (10, -2) {};
		\node [style=none] (119) at (10, -4) {};
		\node [style=none] (120) at (14, -4) {};
		\node [style=none] (121) at (14, -2) {};
		\node [style=none] (122) at (10.75, -0.5) {};
		\node [style=none] (123) at (11, -0.75) {};
		\node [style=none] (124) at (11, -0.25) {};
		\node [style=none] (125) at (12, -2) {};
		\node [style=none] (126) at (12, -2.75) {\textbf{Reaction to}};
		\node [style=none] (127) at (12, -3.25) {\textbf{acceleration}};
		\node [style=none] (128) at (4.75, 4.5) {\huge{1}};
		\node [style=none] (129) at (2.5, -1.5) {\huge {2}};
		\node [style=none] (130) at (13.25, -1.5) {\huge{3}};
		\node [style=none] (131) at (13.5, 4.75) {\huge{4}};
	\end{pgfonlayer}
	\begin{pgfonlayer}{edgelayer}
		\draw (0.center) to (1.center);
		\draw (1.center) to (2.center);
		\draw (2.center) to (3.center);
		\draw (3.center) to (0.center);
		\draw (6.center) to (7.center);
		\draw (7.center) to (8.center);
		\draw (8.center) to (9.center);
		\draw (9.center) to (6.center);
		\draw (24.center) to (27.center);
		\draw (27.center) to (26.center);
		\draw (26.center) to (25.center);
		\draw (25.center) to (24.center);
		\draw (30.center) to (33.center);
		\draw (33.center) to (32.center);
		\draw (32.center) to (31.center);
		\draw (31.center) to (30.center);
		\draw [in=180, out=0, looseness=1.25] (36.center) to (37.center);
		\draw (37.center) to (39.center);
		\draw (38.center) to (37.center);
		\draw (41.center) to (44.center);
		\draw (44.center) to (43.center);
		\draw (43.center) to (42.center);
		\draw [in=270, out=90] (42.center) to (41.center);
		\draw [in=180, out=0] (47.center) to (48.center);
		\draw (50.center) to (48.center);
		\draw (49.center) to (48.center);
		\draw [bend left=45] (53.center) to (52.center);
		\draw [bend left=45] (55.center) to (53.center);
		\draw [in=180, out=0] (56.center) to (57.center);
		\draw (57.center) to (59.center);
		\draw (58.center) to (57.center);
		\draw [in=180, out=0] (56.center) to (60.center);
		\draw (62.center) to (60.center);
		\draw (61.center) to (60.center);
		\draw [bend left=45] (52.center) to (56.center);
		\draw [bend left=45] (56.center) to (55.center);
		\draw [bend left=45] (69.center) to (68.center);
		\draw [bend left=45] (70.center) to (69.center);
		\draw [bend left=45] (68.center) to (71.center);
		\draw [bend left=45] (71.center) to (70.center);
		\draw (74.center) to (77.center);
		\draw (77.center) to (76.center);
		\draw (76.center) to (75.center);
		\draw [in=270, out=90] (75.center) to (74.center);
		\draw (81.center) to (83.center);
		\draw (82.center) to (81.center);
		\draw (71.center) to (81.center);
		\draw [in=90, out=0, looseness=0.50] (80.center) to (86.center);
		\draw (86.center) to (88.center);
		\draw (86.center) to (87.center);
		\draw (95.center) to (94.center);
		\draw (94.center) to (97.center);
		\draw [in=-180, out=-90, looseness=1.25] (98.center) to (94.center);
		\draw (100.center) to (103.center);
		\draw (103.center) to (102.center);
		\draw (102.center) to (101.center);
		\draw (101.center) to (100.center);
		\draw (105.center) to (104.center);
		\draw (104.center) to (106.center);
		\draw [in=90, out=180, looseness=1.25] (104.center) to (107.center);
		\draw (108.center) to (109.center);
		\draw (109.center) to (110.center);
		\draw (110.center) to (111.center);
		\draw (111.center) to (108.center);
		\draw (114.center) to (115.center);
		\draw (114.center) to (116.center);
		\draw [in=0, out=-90, looseness=1.25] (117.center) to (114.center);
		\draw (118.center) to (119.center);
		\draw (119.center) to (120.center);
		\draw (120.center) to (121.center);
		\draw (121.center) to (118.center);
		\draw (122.center) to (124.center);
		\draw (122.center) to (123.center);
		\draw [in=90, out=0, looseness=1.50] (122.center) to (125.center);
	\end{pgfonlayer}
\end{tikzpicture}
