\relax 
\providecommand\hyper@newdestlabel[2]{}
\providecommand\HyperFirstAtBeginDocument{\AtBeginDocument}
\HyperFirstAtBeginDocument{\ifx\hyper@anchor\@undefined
\global\let\oldcontentsline\contentsline
\gdef\contentsline#1#2#3#4{\oldcontentsline{#1}{#2}{#3}}
\global\let\oldnewlabel\newlabel
\gdef\newlabel#1#2{\newlabelxx{#1}#2}
\gdef\newlabelxx#1#2#3#4#5#6{\oldnewlabel{#1}{{#2}{#3}}}
\AtEndDocument{\ifx\hyper@anchor\@undefined
\let\contentsline\oldcontentsline
\let\newlabel\oldnewlabel
\fi}
\fi}
\global\let\hyper@last\relax 
\gdef\HyperFirstAtBeginDocument#1{#1}
\providecommand\HyField@AuxAddToFields[1]{}
\providecommand\HyField@AuxAddToCoFields[2]{}
\@writefile{nav}{\headcommand {\slideentry {0}{0}{1}{1/1}{}{0}}}
\@writefile{nav}{\headcommand {\beamer@framepages {1}{1}}}
\@writefile{toc}{\beamer@sectionintoc {1}{Table of content}{2}{0}{1}}
\@writefile{nav}{\headcommand {\beamer@sectionpages {1}{1}}}
\@writefile{nav}{\headcommand {\beamer@subsectionpages {1}{1}}}
\@writefile{nav}{\headcommand {\sectionentry {1}{Table of content}{2}{Table of content}{0}}}
\@writefile{nav}{\headcommand {\slideentry {1}{0}{1}{2/2}{}{0}}}
\@writefile{nav}{\headcommand {\beamer@framepages {2}{2}}}
\@writefile{toc}{\beamer@sectionintoc {2}{Introduction}{3}{0}{2}}
\@writefile{nav}{\headcommand {\beamer@sectionpages {2}{2}}}
\@writefile{nav}{\headcommand {\beamer@subsectionpages {2}{2}}}
\@writefile{nav}{\headcommand {\sectionentry {2}{Introduction}{3}{Introduction}{0}}}
\@writefile{toc}{\beamer@subsectionintoc {2}{1}{Evolution / Development}{3}{0}{2}}
\@writefile{nav}{\headcommand {\beamer@subsectionpages {3}{2}}}
\@writefile{nav}{\headcommand {\beamer@subsectionentry {0}{2}{1}{3}{Evolution / Development}}}
\@writefile{nav}{\headcommand {\slideentry {2}{1}{1}{3/3}{Evolution / Development}{0}}}
\@writefile{nav}{\headcommand {\beamer@framepages {3}{3}}}
\citation{lederman2009haptic}
\citation{lee1999gtactile}
\@writefile{toc}{\beamer@subsectionintoc {2}{2}{Haptics}{4}{0}{2}}
\@writefile{nav}{\headcommand {\beamer@subsectionpages {3}{3}}}
\@writefile{nav}{\headcommand {\beamer@subsectionentry {0}{2}{2}{4}{Haptics}}}
\@writefile{nav}{\headcommand {\slideentry {2}{2}{1}{4/4}{Haptics}{0}}}
\@writefile{nav}{\headcommand {\beamer@framepages {4}{4}}}
\@writefile{toc}{\beamer@subsectionintoc {2}{3}{Applications}{5}{0}{2}}
\@writefile{nav}{\headcommand {\beamer@subsectionpages {4}{4}}}
\@writefile{nav}{\headcommand {\beamer@subsectionentry {0}{2}{3}{5}{Applications}}}
\@writefile{nav}{\headcommand {\slideentry {2}{3}{1}{5/5}{Applications}{0}}}
\@writefile{nav}{\headcommand {\beamer@framepages {5}{5}}}
\@writefile{toc}{\beamer@subsectionintoc {2}{4}{Observer Technology}{6}{0}{2}}
\@writefile{nav}{\headcommand {\beamer@subsectionpages {5}{5}}}
\@writefile{nav}{\headcommand {\beamer@subsectionentry {0}{2}{4}{6}{Observer Technology}}}
\@writefile{nav}{\headcommand {\slideentry {2}{4}{1}{6/6}{Observer Technology}{0}}}
\@writefile{nav}{\headcommand {\beamer@framepages {6}{6}}}
\@writefile{nav}{\headcommand {\slideentry {2}{4}{2}{7/7}{Observer Technology}{0}}}
\@writefile{nav}{\headcommand {\beamer@framepages {7}{7}}}
\@writefile{nav}{\headcommand {\slideentry {2}{4}{3}{8/8}{Observer Technology}{0}}}
\@writefile{nav}{\headcommand {\beamer@framepages {8}{8}}}
\@writefile{toc}{\beamer@sectionintoc {3}{Haptic Object Identification}{9}{0}{3}}
\@writefile{nav}{\headcommand {\beamer@sectionpages {3}{8}}}
\@writefile{nav}{\headcommand {\beamer@subsectionpages {6}{8}}}
\@writefile{nav}{\headcommand {\sectionentry {3}{Haptic Object Identification}{9}{Haptic Object Identification}{0}}}
\@writefile{toc}{\beamer@subsectionintoc {3}{1}{Basic}{9}{0}{3}}
\@writefile{nav}{\headcommand {\beamer@subsectionpages {9}{8}}}
\@writefile{nav}{\headcommand {\beamer@subsectionentry {0}{3}{1}{9}{Basic}}}
\@writefile{nav}{\headcommand {\slideentry {3}{1}{1}{9/9}{Basic}{0}}}
\@writefile{nav}{\headcommand {\beamer@framepages {9}{9}}}
\@writefile{toc}{\beamer@subsectionintoc {3}{2}{Surface Texture}{10}{0}{3}}
\@writefile{nav}{\headcommand {\beamer@subsectionpages {9}{9}}}
\@writefile{nav}{\headcommand {\beamer@subsectionentry {0}{3}{2}{10}{Surface Texture}}}
\@writefile{nav}{\headcommand {\slideentry {3}{2}{1}{10/10}{Surface Texture}{0}}}
\@writefile{nav}{\headcommand {\beamer@framepages {10}{10}}}
\@writefile{nav}{\headcommand {\slideentry {3}{2}{2}{11/11}{Surface Texture}{0}}}
\@writefile{nav}{\headcommand {\beamer@framepages {11}{11}}}
\@writefile{nav}{\headcommand {\slideentry {3}{2}{3}{12/12}{Surface Texture}{0}}}
\@writefile{nav}{\headcommand {\beamer@framepages {12}{12}}}
\@writefile{toc}{\beamer@subsectionintoc {3}{3}{Shape}{13}{0}{3}}
\@writefile{nav}{\headcommand {\beamer@subsectionpages {10}{12}}}
\@writefile{nav}{\headcommand {\beamer@subsectionentry {0}{3}{3}{13}{Shape}}}
\@writefile{nav}{\headcommand {\slideentry {3}{3}{1}{13/13}{Shape}{0}}}
\@writefile{nav}{\headcommand {\beamer@framepages {13}{13}}}
\@writefile{nav}{\headcommand {\slideentry {3}{3}{2}{14/14}{Shape}{0}}}
\@writefile{nav}{\headcommand {\beamer@framepages {14}{14}}}
\@writefile{toc}{\beamer@subsectionintoc {3}{4}{Vibration}{15}{0}{3}}
\@writefile{nav}{\headcommand {\beamer@subsectionpages {13}{14}}}
\@writefile{nav}{\headcommand {\beamer@subsectionentry {0}{3}{4}{15}{Vibration}}}
\@writefile{nav}{\headcommand {\slideentry {3}{4}{1}{15/15}{Vibration}{0}}}
\@writefile{nav}{\headcommand {\beamer@framepages {15}{15}}}
\@writefile{nav}{\headcommand {\slideentry {3}{4}{2}{16/16}{Vibration}{0}}}
\@writefile{nav}{\headcommand {\beamer@framepages {16}{16}}}
\@writefile{toc}{\beamer@subsectionintoc {3}{5}{Deformation}{17}{0}{3}}
\@writefile{nav}{\headcommand {\beamer@subsectionpages {15}{16}}}
\@writefile{nav}{\headcommand {\beamer@subsectionentry {0}{3}{5}{17}{Deformation}}}
\@writefile{nav}{\headcommand {\slideentry {3}{5}{1}{17/17}{Deformation}{0}}}
\@writefile{nav}{\headcommand {\beamer@framepages {17}{17}}}
\@writefile{nav}{\headcommand {\slideentry {3}{5}{2}{18/18}{Deformation}{0}}}
\@writefile{nav}{\headcommand {\beamer@framepages {18}{18}}}
\@writefile{nav}{\headcommand {\slideentry {3}{5}{3}{19/19}{Deformation}{0}}}
\@writefile{nav}{\headcommand {\beamer@framepages {19}{19}}}
\@writefile{toc}{\beamer@subsectionintoc {3}{6}{Summary}{20}{0}{3}}
\@writefile{nav}{\headcommand {\beamer@subsectionpages {17}{19}}}
\@writefile{nav}{\headcommand {\beamer@subsectionentry {0}{3}{6}{20}{Summary}}}
\@writefile{nav}{\headcommand {\slideentry {3}{6}{1}{20/20}{Summary}{0}}}
\@writefile{nav}{\headcommand {\beamer@framepages {20}{20}}}
\@writefile{toc}{\beamer@sectionintoc {4}{Objectives}{21}{0}{4}}
\@writefile{nav}{\headcommand {\beamer@sectionpages {9}{20}}}
\@writefile{nav}{\headcommand {\beamer@subsectionpages {20}{20}}}
\@writefile{nav}{\headcommand {\sectionentry {4}{Objectives}{21}{Objectives}{0}}}
\@writefile{nav}{\headcommand {\slideentry {4}{0}{1}{21/21}{}{0}}}
\@writefile{nav}{\headcommand {\beamer@framepages {21}{21}}}
\@writefile{toc}{\beamer@sectionintoc {5}{Methodology}{22}{0}{5}}
\@writefile{nav}{\headcommand {\beamer@sectionpages {21}{21}}}
\@writefile{nav}{\headcommand {\beamer@subsectionpages {21}{21}}}
\@writefile{nav}{\headcommand {\sectionentry {5}{Methodology}{22}{Methodology}{0}}}
\@writefile{nav}{\headcommand {\slideentry {5}{0}{1}{22/22}{}{0}}}
\@writefile{nav}{\headcommand {\beamer@framepages {22}{22}}}
\@writefile{toc}{\beamer@sectionintoc {6}{Work done}{23}{0}{6}}
\@writefile{nav}{\headcommand {\beamer@sectionpages {22}{22}}}
\@writefile{nav}{\headcommand {\beamer@subsectionpages {22}{22}}}
\@writefile{nav}{\headcommand {\sectionentry {6}{Work done}{23}{Work done}{0}}}
\@writefile{nav}{\headcommand {\slideentry {6}{0}{1}{23/23}{}{0}}}
\@writefile{nav}{\headcommand {\beamer@framepages {23}{23}}}
\@writefile{toc}{\beamer@sectionintoc {7}{Future work}{24}{0}{7}}
\@writefile{nav}{\headcommand {\beamer@sectionpages {23}{23}}}
\@writefile{nav}{\headcommand {\beamer@subsectionpages {23}{23}}}
\@writefile{nav}{\headcommand {\sectionentry {7}{Future work}{24}{Future work}{0}}}
\@writefile{nav}{\headcommand {\slideentry {7}{0}{1}{24/24}{}{0}}}
\@writefile{nav}{\headcommand {\beamer@framepages {24}{24}}}
\@writefile{toc}{\beamer@sectionintoc {8}{Publications}{25}{0}{8}}
\@writefile{nav}{\headcommand {\beamer@sectionpages {24}{24}}}
\@writefile{nav}{\headcommand {\beamer@subsectionpages {24}{24}}}
\@writefile{nav}{\headcommand {\sectionentry {8}{Publications}{25}{Publications}{0}}}
\@writefile{nav}{\headcommand {\slideentry {8}{0}{1}{25/25}{}{0}}}
\@writefile{nav}{\headcommand {\beamer@framepages {25}{25}}}
\bibcite{lederman2009haptic}{\hyperlink {beamerbiblederman2009haptic}{1}}
\bibcite{lee1999gtactile}{\hyperlink {beamerbiblee1999gtactile}{2}}
\bibcite{okamura2009haptic}{\hyperlink {beamerbibokamura2009haptic}{3}}
\bibcite{meli2017experimental}{\hyperlink {beamerbibmeli2017experimental}{4}}
\@writefile{toc}{\beamer@sectionintoc {9}{References}{26}{0}{9}}
\@writefile{nav}{\headcommand {\beamer@sectionpages {25}{25}}}
\@writefile{nav}{\headcommand {\beamer@subsectionpages {25}{25}}}
\@writefile{nav}{\headcommand {\sectionentry {9}{References}{26}{References}{0}}}
\@writefile{nav}{\headcommand {\slideentry {9}{0}{1}{26/26}{}{0}}}
\@writefile{nav}{\headcommand {\beamer@framepages {26}{26}}}
\bibcite{allin2002measuring}{\hyperlink {beamerbiballin2002measuring}{5}}
\bibcite{chua2003robotic}{\hyperlink {beamerbibchua2003robotic}{6}}
\bibcite{termehyousefi2017development}{\hyperlink {beamerbibtermehyousefi2017development}{7}}
\bibcite{scimeca2019non}{\hyperlink {beamerbibscimeca2019non}{8}}
\@writefile{nav}{\headcommand {\slideentry {9}{0}{2}{27/27}{}{0}}}
\@writefile{nav}{\headcommand {\beamer@framepages {27}{27}}}
\bibcite{guanyang2019haptic}{\hyperlink {beamerbibguanyang2019haptic}{9}}
\bibcite{aggarwal2015haptic}{\hyperlink {beamerbibaggarwal2015haptic}{10}}
\@writefile{nav}{\headcommand {\slideentry {9}{0}{3}{28/28}{}{0}}}
\@writefile{nav}{\headcommand {\beamer@framepages {28}{28}}}
\@writefile{nav}{\headcommand {\slideentry {9}{0}{4}{29/29}{}{0}}}
\@writefile{nav}{\headcommand {\beamer@framepages {29}{29}}}
\@writefile{nav}{\headcommand {\beamer@partpages {1}{29}}}
\@writefile{nav}{\headcommand {\beamer@subsectionpages {26}{29}}}
\@writefile{nav}{\headcommand {\beamer@sectionpages {26}{29}}}
\@writefile{nav}{\headcommand {\beamer@documentpages {29}}}
\@writefile{nav}{\headcommand {\gdef \inserttotalframenumber {29}}}
